flight_Melbourne_26022019_3pm_20190226-150908 -- 1
flight_Melbourne_26022019_3pm_20190226-160909 -- 2
flight_Melbourne_26022019_3pm_20190226-170910 -- 3
flight_Melbourne_26022019_3pm_20190226-180912 -- 4
flight_Melbourne_26022019_3pm_20190226-190918 -- 5
flight_Melbourne_27022019_9am_20190227-090059 -- 6
flight_Melbourne_27022019_9am_20190227-100109 -- 7
flight_Melbourne_27022019_1130am_20190227-123649 -- 8
flight_Melbourne_27022019_1130am_20190227-133659 -- 9
flight_Melbourne_27022019_1130am_20190227-143710 -- 10
flight_Melbourne_27022019_1130am_20190227-153716 -- 11
flight_Melbourne_27022019_1130am_20190227-163718 -- 12