In December, which sensor has the same temperature value as the sensor G in July?|7,12|60|20|Sensor C
Which sensor has the same temperature value as the sensor C in both March and August?|3,8|60|21|Sensor B
On the first floor, which sensor has the highest temperature value in both August and September?|8,9|60|23|Sensor G
In September, which sensor has the same temperature value as the sensor I in April?|4,9|60|24|Sensor G
Which month has the most sensors with temperature between 25°C to 26°C?|0,0|60|26|October
Which month does sensor E have a temperature value as 21°C to 22°C?|0,0|60|27|July