icao24,callsign,longitude,latitude,baro_altitude,velocity,on_ground,heading,vertical_rate,squawk,time,trajectory_number
'7c7aa3','VOZ1593',144.7245,-37.6546,952.5,126.93,FALSE,274.42,17.56,'1475',1551231409,0.0000000
'7c7aa3','VOZ1593',144.7099,-37.6535,1135.38,127.72,FALSE,275.78,17.23,'1475',1551231419,0.0909091
'7c7aa3','VOZ1593',144.6953,-37.6525,1287.78,129.53,FALSE,274.56,16.91,'1475',1551231429,0.1818182
'7c7aa3','VOZ1593',144.6799,-37.6508,1463.04,130.86,FALSE,281.8,16.91,'1475',1551231440,0.2727273
'7c7aa3','VOZ1593',144.6679,-37.6468,1607.82,131.83,FALSE,296.67,16.91,'1475',1551231448,0.3636364
'7c7aa3','VOZ1593',144.6557,-37.6386,1775.46,134.23,FALSE,315.47,16.26,'1475',1551231459,0.4545455
'7c7aa3','VOZ1593',144.647,-37.6276,1943.1,137.62,FALSE,334.78,16.91,'1475',1551231469,0.5454545
'7c7aa3','VOZ1593',144.638,-37.6043,2240.28,142.26,FALSE,343.4,15.61,'1475',1551231489,0.6363636
'7c7aa3','VOZ1593',144.6333,-37.5917,2407.92,144.38,FALSE,343.44,15.93,'1475',1551231499,0.7272727
'7c7aa3','VOZ1593',144.6285,-37.5789,2552.7,146,FALSE,343.42,15.61,'1475',1551231509,0.8181818
'7c7aa3','VOZ1593',144.625,-37.5657,2697.48,149.7,FALSE,353.29,13.33,'1475',1551231519,0.9090909
'7c7aa3','VOZ1593',144.6258,-37.5526,2827.02,154.08,FALSE,5.75,13.33,'1475',1551231529,1.0000000
'7c7c88','YVU',144.9373,-37.7782,601.98,43.08,FALSE,139.84,1.63,'0511',1551231408,0.0000000
'7c7c88','YVU',144.9409,-37.7816,617.22,47.1,FALSE,139.87,1.95,'0511',1551231419,0.3333333
'7c7c88','YVU',144.9446,-37.7847,655.32,47.65,FALSE,134.56,4.55,'0511',1551231429,0.6666667
'7c7c88','YVU',144.9482,-37.7878,693.42,48.15,FALSE,139.33,2.6,'0511',1551231439,1.0000000
'7c6c35','TGG452',144.8328,-37.6416,152.4,70.64,FALSE,172.05,-4.23,'3770',1551231242,0.0000000
'7c6c35','',144.8183,-37.6605,251.46,78.4,FALSE,274.14,14.96,'7253',1551234487,0.0526316
'7c6c35','TGG238',144.8074,-37.6599,403.86,78.99,FALSE,274.86,13.33,'7253',1551234499,0.1052632
'7c6c35','TGG238',144.7882,-37.6585,548.64,89.43,FALSE,275.61,4.88,'7253',1551234519,0.1578947
'7c6c35','TGG238',144.7791,-37.6578,601.98,96.75,FALSE,276.1,7.15,'7253',1551234528,0.2105263
'7c6c35','TGG238',144.7667,-37.6567,662.94,102.94,FALSE,276.02,6.18,'7253',1551234539,0.2631579
'7c6c35','TGG238',144.7545,-37.6558,701.04,111.64,FALSE,275.55,4.55,'7253',1551234549,0.3157895
'7c6c35','TGG238',144.7424,-37.6549,777.24,119.33,FALSE,275.19,10.08,'7253',1551234559,0.3684211
'7c6c35','TGG238',144.7279,-37.654,868.68,126.34,FALSE,273.97,10.73,'7253',1551234568,0.4210526
'7c6c35','TGG238',144.7127,-37.6533,1005.84,130.35,FALSE,273.17,13.98,'7253',1551234579,0.4736842
'7c6c35','TGG238',144.6984,-37.6527,1158.24,132.38,FALSE,272.9,18.53,'7253',1551234588,0.5263158
'7c6c35','TGG238',144.6837,-37.6519,1341.12,133.4,FALSE,275.75,17.56,'7253',1551234599,0.5789474
'7c6c35','TGG238',144.6587,-37.6428,1653.54,133.61,FALSE,312.66,18.53,'7253',1551234617,0.6315789
'7c6c35','TGG238',144.6478,-37.6309,1897.38,134.91,FALSE,331.28,17.88,'7253',1551234629,0.6842105
'7c6c35','TGG238',144.6431,-37.6203,2042.16,138.81,FALSE,342.98,16.26,'7253',1551234638,0.7368421
'7c6c35','TGG238',144.6383,-37.6072,2202.18,141.33,FALSE,343.94,15.28,'7253',1551234649,0.7894737
'7c6c35','TGG238',144.6343,-37.5958,2331.72,144.44,FALSE,344.08,14.96,'7253',1551234658,0.8421053
'7c6c35','TGG238',144.6292,-37.5819,2484.12,147.19,FALSE,343.97,15.61,'7253',1551234669,0.8947368
'7c6c35','TGG238',144.6253,-37.57,2636.52,148.73,FALSE,346.4,13.98,'7253',1551234678,0.9473684
'7c6c35','TGG238',144.6241,-37.5549,2766.06,155.04,FALSE,2.85,11.05,'7253',1551234689,1.0000000
'7c7c79','YVF',144.9215,-37.7306,76.2,37.59,FALSE,267.65,-3.9,'0100',1551231108,0.0000000
'7c7c79','YVF',144.9013,-37.7314,91.44,40.67,FALSE,177.83,3.9,'0100',1551231799,0.0227273
'7c7c79','YVF',144.9014,-37.7343,121.92,41.16,FALSE,179.28,3.25,'0100',1551231807,0.0454545
'7c7c79','YVF',144.9016,-37.7392,175.26,42.21,FALSE,177.9,3.25,'0100',1551231820,0.0681818
'7c7c79','YVF',144.9017,-37.7427,213.36,41.16,FALSE,180,5.2,'0100',1551231830,0.0909091
'7c7c79','YVF',144.9017,-37.7467,259.08,40.64,FALSE,179.27,3.9,'0100',1551231840,0.1136364
'7c7c79','YVF',144.9017,-37.7503,281.94,42.7,FALSE,180,1.95,'0100',1551231850,0.1363636
'7c7c79','YVF',144.9017,-37.7543,304.8,44.25,FALSE,180.67,1.63,'0100',1551231860,0.1590909
'7c7c79','YVF',144.9017,-37.7582,335.28,43.23,FALSE,181.36,3.9,'0100',1551231870,0.1818182
'7c7c79','YVF',144.9011,-37.7659,403.86,44.29,FALSE,182.66,-0.33,'0100',1551231890,0.2045455
'7c7c79','YVF',144.901,-37.7697,396.24,46.83,FALSE,181.26,-0.33,'0100',1551231899,0.2272727
'7c7c79','YVF',144.901,-37.7741,388.62,47.33,FALSE,179.38,-0.65,'0100',1551231909,0.2500000
'7c7c79','YVF',144.901,-37.7782,396.24,47.85,FALSE,181.23,0.65,'0100',1551231919,0.2727273
'7c7c79','YVF',144.901,-37.7829,388.62,50.44,FALSE,178.25,-0.65,'0100',1551231930,0.2954545
'7c7c79','YVF',144.9012,-37.787,396.24,49.43,FALSE,177.61,0.98,'0100',1551231939,0.3181818
'7c7c79','YVF',144.7045,-37.7852,396.24,50.03,FALSE,329.74,-0.33,'1200',1551232509,0.3409091
'7c7c79','YVF',144.7016,-37.781,381,50.85,FALSE,332.92,-1.3,'1200',1551232520,0.3636364
'7c7c79','YVF',144.699,-37.7769,365.76,51.32,FALSE,331.89,-0.65,'1200',1551232530,0.3863636
'7c7c79','YVF',144.6965,-37.7732,381,48.77,FALSE,333.71,1.3,'1200',1551232539,0.4090909
'7c7c79','YVF',144.694,-37.7692,388.62,46.01,FALSE,333.43,0.33,'1200',1551232550,0.4318182
'7c7c79','YVF',144.692,-37.7659,396.24,45.56,FALSE,334.59,0.98,'1200',1551232558,0.4545455
'7c7c79','YVF',144.6894,-37.7615,396.24,47.18,FALSE,334.83,-0.65,'1200',1551232570,0.4772727
'7c7c79','YVF',144.6873,-37.7579,388.62,48.11,FALSE,335.35,0.33,'1200',1551232580,0.5000000
'7c7c79','YVF',144.6828,-37.7503,411.48,51.08,FALSE,333.69,2.28,'1200',1551232598,0.5227273
'7c7c79','YVF',144.68,-37.7458,403.86,52.93,FALSE,332.19,0,'1200',1551232609,0.5454545
'7c7c79','YVF',144.6773,-37.7418,419.1,53.17,FALSE,331.7,2.28,'1200',1551232619,0.5681818
'7c7c79','YVF',144.6742,-37.7373,411.48,53.55,FALSE,328.75,-2.6,'1200',1551232629,0.5909091
'7c7c79','YVF',144.6711,-37.7336,403.86,53.68,FALSE,320.05,-0.65,'1200',1551232638,0.6136364
'7c7c79','YVF',144.6656,-37.7311,396.24,54.26,FALSE,275.44,-1.63,'1200',1551232649,0.6363636
'7c7c79','YVF',144.6596,-37.7311,388.62,53.5,FALSE,270,0,'1200',1551232659,0.6590909
'7c7c79','YVF',144.6535,-37.7309,396.24,49.45,FALSE,272.98,1.95,'1200',1551232669,0.6818182
'7c7c79','YVF',144.648,-37.7308,388.62,49.9,FALSE,270.59,-0.98,'1200',1551232679,0.7045455
'7c7c79','YVF',144.6368,-37.7307,419.1,48.36,FALSE,270,5.53,'1200',1551232699,0.7272727
'7c7c79','YVF',144.6314,-37.7308,472.44,44.24,FALSE,270,2.6,'1200',1551232709,0.7500000
'7c7c79','YVF',144.6265,-37.7307,495.3,45.27,FALSE,270.65,1.3,'1200',1551232719,0.7727273
'7c7c79','YVF',144.6215,-37.7306,533.4,44.25,FALSE,270.67,2.28,'1200',1551232729,0.7954545
'7c7c79','YVF',144.6164,-37.7306,556.26,45.79,FALSE,270.64,2.28,'1200',1551232739,0.8181818
'7c7c79','YVF',144.6112,-37.7304,586.74,44.32,FALSE,273.33,4.23,'1200',1551232749,0.8409091
'7c7c79','YVF',144.6065,-37.7303,624.84,42.71,FALSE,271.38,3.58,'1200',1551232759,0.8636364
'7c7c79','YVF',144.6018,-37.7303,655.32,42.7,FALSE,269.31,3.58,'1200',1551232769,0.8863636
'7c7c79','YVF',144.5967,-37.7305,693.42,41.7,FALSE,267.88,3.9,'1200',1551232779,0.9090909
'7c7c79','YVF',144.5919,-37.7306,685.8,44.78,FALSE,268.03,-0.65,'1200',1551232789,0.9318182
'7c7c79','YVF',144.5815,-37.7311,701.04,46.02,FALSE,264.23,1.63,'1200',1551232809,0.9545455
'7c7c79','YVF',144.5763,-37.7316,708.66,44.67,FALSE,262.06,1.63,'1200',1551232819,0.9772727
'7c7c79','YVF',144.5711,-37.7321,685.8,50.68,FALSE,264.17,-2.93,'1200',1551232829,1.0000000
'7c81b0','ZWI',145.1021,-37.7266,853.44,62.09,FALSE,276.18,-1.63,'4231',1551231419,0.0000000
'7c81b0','ZWI',145.0951,-37.7264,822.96,57.65,FALSE,272.05,-0.98,'4231',1551231429,0.0256410
'7c81b0','ZWI',145.0883,-37.7262,822.96,56.16,FALSE,273.15,-2.93,'4231',1551231439,0.0512821
'7c81b0','ZWI',145.0822,-37.7261,792.48,56.08,FALSE,268.95,-2.93,'4231',1551231449,0.0769231
'7c81b0','ZWI',145.0754,-37.7263,762,55.6,FALSE,267.88,-2.93,'4231',1551231460,0.1025641
'7c81b0','ZWI',145.0694,-37.7265,731.52,55.65,FALSE,266.82,-2.93,'4231',1551231469,0.1282051
'7c81b0','ZWI',145.0568,-37.727,670.56,54.62,FALSE,266.76,-2.28,'4231',1551231489,0.1538462
'7c81b0','ZWI',145.0509,-37.7272,670.56,54.62,FALSE,266.76,-2.28,'4231',1551231499,0.1794872
'7c81b0','ZWI',145.0444,-37.7273,640.08,54.53,FALSE,270,-3.58,'4231',1551231509,0.2051282
'7c81b0','ZWI',145.0381,-37.7275,609.6,54.57,FALSE,267.84,-1.63,'4231',1551231520,0.2307692
'7c81b0','ZWI',145.0321,-37.7276,579.12,54.06,FALSE,267.82,-3.9,'4231',1551231529,0.2564103
'7c81b0','ZWI',145.0263,-37.7277,548.64,53.51,FALSE,268.9,-2.28,'4231',1551231539,0.2820513
'7c81b0','ZWI',145.0201,-37.7277,518.16,51.97,FALSE,268.87,-3.58,'4231',1551231549,0.3076923
'7c81b0','ZWI',145.0146,-37.7278,487.68,50.44,FALSE,268.25,-2.28,'4231',1551231559,0.3333333
'7c81b0','ZWI',145.0088,-37.7281,457.2,50.95,FALSE,268.26,-2.93,'4231',1551231569,0.3589744
'7c81b0','ZWI',144.9969,-37.7281,426.72,50.43,FALSE,271.17,-1.63,'4231',1551231590,0.3846154
'7c81b0','ZWI',144.9913,-37.7282,396.24,53.05,FALSE,267.22,-3.9,'4231',1551231599,0.4102564
'7c81b0','ZWI',144.9852,-37.7286,365.76,54.06,FALSE,267.82,-5.2,'4231',1551231609,0.4358974
'7c81b0','ZWI',144.9791,-37.7288,335.28,55.16,FALSE,266.26,-3.58,'4231',1551231619,0.4615385
'7c81b0','ZWI',144.9728,-37.729,304.8,54.57,FALSE,267.84,-4.88,'4231',1551231629,0.4871795
'7c81b0','ZWI',144.9669,-37.7292,274.32,54.62,FALSE,266.76,-3.58,'4231',1551231639,0.5128205
'7c81b0','ZWI',144.9602,-37.7294,243.84,52.51,FALSE,267.75,-1.95,'4231',1551231650,0.5384615
'7c81b0','ZWI',144.9553,-37.7295,213.36,50.94,FALSE,268.84,-1.95,'4231',1551231659,0.5641026
'7c81b0','ZWI',144.9488,-37.7297,182.88,51.57,FALSE,266,-2.93,'4231',1551231670,0.5897436
'7c81b0','ZWI',144.9437,-37.7299,152.4,52,FALSE,267.73,-2.93,'4231',1551231678,0.6153846
'7c81b0','ZWI',144.9266,-37.7304,121.92,51.45,FALSE,268.85,1.95,'4231',1551231708,0.6410256
'7c81b0','ZWI',144.9221,-37.7306,121.92,49.97,FALSE,267.05,3.9,'4231',1551231716,0.6666667
'7c81b0','ZWI',144.9164,-37.7335,182.88,45.11,FALSE,225,3.9,'4231',1551231729,0.6923077
'7c81b0','ZWI',144.9151,-37.7354,182.88,50.49,FALSE,188.79,1.63,'4231',1551231734,0.7179487
'7c81b0','ZWI',144.9155,-37.7417,243.84,50.67,FALSE,156.04,3.58,'4231',1551231749,0.7435897
'7c81b0','ZWI',144.9191,-37.7458,274.32,51.75,FALSE,142.67,3.9,'4231',1551231759,0.7692308
'7c81b0','ZWI',144.9228,-37.7496,304.8,53.51,FALSE,142.03,4.88,'4231',1551231769,0.7948718
'7c81b0','ZWI',144.9305,-37.7569,396.24,55.41,FALSE,138.76,2.6,'4231',1551231789,0.8205128
'7c81b0','ZWI',144.9346,-37.7609,426.72,53.68,FALSE,140.05,6.18,'4231',1551231799,0.8461538
'7c81b0','ZWI',144.9381,-37.7646,487.68,52.09,FALSE,145.05,4.88,'4231',1551231809,0.8717949
'7c81b0','ZWI',144.9417,-37.7688,518.16,53.95,FALSE,145.1,3.9,'4231',1551231820,0.8974359
'7c81b0','ZWI',144.9449,-37.7724,548.64,56.52,FALSE,145.01,1.95,'4231',1551231829,0.9230769
'7c81b0','ZWI',144.9493,-37.7773,579.12,60.94,FALSE,144.97,3.25,'4231',1551231840,0.9487179
'7c81b0','ZWI',144.9532,-37.7817,609.6,62.97,FALSE,143.97,2.93,'4231',1551231849,0.9743590
'7c81b0','ZWI',144.9573,-37.7863,609.6,64.83,FALSE,144.04,2.93,'4231',1551231860,1.0000000
'7c6c59','TGG524',144.8176,-37.6603,182.88,86.87,FALSE,275.78,12.03,'1336',1551231445,0.0000000
'7c6c59','TGG524',144.8038,-37.6591,373.38,89.53,FALSE,276.27,14.96,'1336',1551231459,0.0625000
'7c6c59','TGG524',144.7934,-37.6584,510.54,91.38,FALSE,274.84,11.7,'1336',1551231469,0.1250000
'7c6c59','TGG524',144.7708,-37.6571,670.56,109.3,FALSE,273.78,8.78,'1336',1551231489,0.1875000
'7c6c59','TGG524',144.7581,-37.6564,769.62,117.07,FALSE,274.03,16.26,'1336',1551231499,0.2500000
'7c6c59','TGG524',144.7448,-37.6557,937.26,118.68,FALSE,274.47,16.91,'1336',1551231509,0.3125000
'7c6c59','TGG524',144.7301,-37.6547,1082.04,124.84,FALSE,274.25,12.35,'1336',1551231520,0.3750000
'7c6c59','TGG524',144.7178,-37.654,1211.58,127.85,FALSE,273.69,18.53,'1336',1551231528,0.4375000
'7c6c59','TGG524',144.7023,-37.6533,1394.46,129.87,FALSE,273.41,18.21,'1336',1551231539,0.5000000
'7c6c59','TGG524',144.6871,-37.6524,1577.34,131.97,FALSE,276.27,18.53,'1336',1551231549,0.5625000
'7c6c59','TGG524',144.6747,-37.6501,1706.88,136.83,FALSE,289.32,12.03,'1336',1551231558,0.6250000
'7c6c59','TGG524',144.6668,-37.6471,1783.08,148.15,FALSE,310.49,5.85,'1336',1551231563,0.6875000
'7c6c59','TGG524',144.6427,-37.6173,1965.96,165.46,FALSE,345.23,17.56,'1336',1551231589,0.7500000
'7c6c59','TGG524',144.6377,-37.6026,2103.12,170.02,FALSE,344.2,13.66,'1336',1551231599,0.8125000
'7c6c59','TGG524',144.6323,-37.5877,2240.28,174.19,FALSE,343.71,15.61,'1336',1551231609,0.8750000
'7c6c59','TGG524',144.6281,-37.5734,2392.68,177.96,FALSE,351.35,16.26,'1336',1551231619,0.9375000
'7c6c59','TGG524',144.6286,-37.5554,2583.18,182.85,FALSE,9.06,18.53,'1336',1551231629,1.0000000
'7c6d94','',144.8164,-37.6602,190.5,86.31,FALSE,275.47,13.33,'1254',1551231516,0.0000000
'7c6d94','QFA616',144.8031,-37.6592,365.76,88.92,FALSE,275.64,13.66,'1254',1551231529,0.0588235
'7c6d94','QFA616',144.793,-37.6585,480.06,92.41,FALSE,274.79,11.7,'1254',1551231539,0.1176471
'7c6d94','QFA616',144.7816,-37.6578,571.5,99.04,FALSE,274.17,8.13,'1254',1551231549,0.1764706
'7c6d94','QFA616',144.7708,-37.6573,678.18,104.07,FALSE,273.12,12.68,'1254',1551231559,0.2352941
'7c6d94','QFA616',144.7584,-37.6567,807.72,107.21,FALSE,273.58,12.03,'1254',1551231569,0.2941176
'7c6d94','QFA616',144.7325,-37.6551,1043.94,117.66,FALSE,274.51,12.03,'1254',1551231589,0.3529412
'7c6d94','QFA616',144.719,-37.6543,1165.86,121.76,FALSE,274.36,13.33,'1254',1551231599,0.4117647
'7c6d94','QFA616',144.706,-37.6536,1280.16,126.82,FALSE,273.72,13.33,'1254',1551231608,0.4705882
'7c6d94','QFA616',144.6905,-37.6528,1440.18,128.39,FALSE,273.91,15.61,'1254',1551231619,0.5294118
'7c6d94','QFA616',144.6759,-37.6506,1600.2,130.65,FALSE,287.65,17.88,'1254',1551231629,0.5882353
'7c6d94','QFA616',144.6644,-37.6458,1744.98,133.41,FALSE,304,17.23,'1254',1551231638,0.6470588
'7c6d94','QFA616',144.6522,-37.6359,1889.76,137.39,FALSE,321.84,19.18,'1254',1551231649,0.7058824
'7c6d94','QFA616',144.6454,-37.6244,2065.02,141.2,FALSE,338.86,18.21,'1254',1551231659,0.7647059
'7c6d94','QFA616',144.641,-37.6123,2225.04,142.95,FALSE,343.91,15.93,'1254',1551231669,0.8235294
'7c6d94','QFA616',144.6319,-37.588,2529.84,145.81,FALSE,342.97,16.26,'1254',1551231689,0.8823529
'7c6d94','QFA616',144.6271,-37.575,2682.24,148.68,FALSE,344.14,15.93,'1254',1551231699,0.9411765
'7c6d94','QFA616',144.6248,-37.5627,2804.16,154.83,FALSE,355.43,17.23,'1254',1551231708,1.0000000
'88510b','THA465',144.8185,-37.565,609.6,96.76,FALSE,171.44,-4.88,'2257',1551231689,0.0000000
'88510b','THA465',144.8202,-37.5736,556.26,93.56,FALSE,171.78,-5.2,'2257',1551231699,0.0909091
'88510b','THA465',144.8217,-37.5814,502.92,91.02,FALSE,171.55,-5.85,'2257',1551231709,0.1818182
'88510b','THA465',144.8232,-37.59,449.58,86.29,FALSE,171.77,-4.88,'2257',1551231719,0.2727273
'88510b','THA465',144.8245,-37.5972,411.48,83.67,FALSE,171.87,-3.25,'2257',1551231729,0.3636364
'88510b','THA465',144.826,-37.6052,373.38,81.63,FALSE,171.67,-4.23,'2257',1551231740,0.4545455
'88510b','THA465',144.8271,-37.6107,335.28,78.5,FALSE,171.71,-4.55,'2257',1551231747,0.5454545
'88510b','THA465',144.8284,-37.618,289.56,77.41,FALSE,171.98,-4.23,'2257',1551231758,0.6363636
'88510b','THA465',144.8295,-37.6237,251.46,75.53,FALSE,170.99,-3.25,'2257',1551231766,0.7272727
'88510b','THA465',144.8323,-37.6388,167.64,75.45,FALSE,171.37,-3.9,'2257',1551231789,0.8181818
'88510b','THA465',144.8332,-37.6438,137.16,74.35,FALSE,171.65,-4.23,'2257',1551231796,0.9090909
'88510b','THA465',144.8346,-37.6516,99.06,76.83,FALSE,172.3,-2.93,'2257',1551231808,1.0000000
'7c4a2b','OXP',145.1032,-37.7254,845.82,60.19,FALSE,269.51,-0.33,'3253',1551231709,0.0000000
'7c4a2b','OXP',145.097,-37.7254,853.44,59.7,FALSE,268.52,0.33,'3253',1551231718,0.0285714
'7c4a2b','OXP',145.0896,-37.7257,853.44,59.78,FALSE,266.55,0.33,'3253',1551231728,0.0571429
'7c4a2b','OXP',145.0822,-37.7261,838.2,58.24,FALSE,266.46,-2.93,'3253',1551231739,0.0857143
'7c4a2b','OXP',145.0764,-37.7264,822.96,57.22,FALSE,266.39,-1.95,'3253',1551231748,0.1142857
'7c4a2b','OXP',145.0693,-37.7268,784.86,57.76,FALSE,265.91,-2.6,'3253',1551231759,0.1428571
'7c4a2b','OXP',145.0631,-37.7271,739.14,59.76,FALSE,267.04,-4.88,'3253',1551231769,0.1714286
'7c4a2b','OXP',145.0495,-37.7276,670.56,57.68,FALSE,267.44,-3.58,'3253',1551231789,0.2000000
'7c4a2b','OXP',145.0428,-37.7278,632.46,59.73,FALSE,267.53,-4.23,'3253',1551231799,0.2285714
'7c4a2b','OXP',145.0363,-37.7281,601.98,61.25,FALSE,268.07,-4.23,'3253',1551231809,0.2571429
'7c4a2b','OXP',145.0289,-37.7281,563.88,60.7,FALSE,270,-2.6,'3253',1551231819,0.2857143
'7c4a2b','OXP',145.0223,-37.728,541.02,60.2,FALSE,270.98,-3.25,'3253',1551231829,0.3142857
'7c4a2b','OXP',145.0152,-37.7279,518.16,60.71,FALSE,270.49,-3.58,'3253',1551231839,0.3428571
'7c4a2b','OXP',145.0084,-37.7279,480.06,62.76,FALSE,269.53,-4.23,'3253',1551231849,0.3714286
'7c4a2b','OXP',145.0011,-37.7281,457.2,61.36,FALSE,266.15,-1.95,'3253',1551231860,0.4000000
'7c4a2b','OXP',144.9946,-37.7284,434.34,61.02,FALSE,264.19,-3.25,'3253',1551231869,0.4285714
'7c4a2b','OXP',144.9804,-37.7298,342.9,63.69,FALSE,263.51,-4.55,'3253',1551231889,0.4571429
'7c4a2b','OXP',144.9734,-37.7299,304.8,62.81,FALSE,272.35,-2.28,'3253',1551231899,0.4857143
'7c4a2b','OXP',144.9668,-37.7297,289.56,60.81,FALSE,273.39,-3.58,'3253',1551231908,0.5142857
'7c4a2b','OXP',144.9595,-37.7294,251.46,60.24,FALSE,272.45,-2.6,'3253',1551231919,0.5428571
'7c4a2b','OXP',144.9526,-37.7294,228.6,60.24,FALSE,267.55,-2.93,'3253',1551231929,0.5714286
'7c4a2b','OXP',144.9461,-37.7298,205.74,60.51,FALSE,264.14,-0.98,'3253',1551231939,0.6000000
'7c4a2b','OXP',144.9384,-37.7302,152.4,63.89,FALSE,266.77,-5.53,'3253',1551231949,0.6285714
'7c4a2b','OXP',144.9336,-37.7303,152.4,62.28,FALSE,268.11,-1.95,'3253',1551231956,0.6571429
'7c4a2b','OXP',144.9254,-37.7318,167.64,56.39,FALSE,234.28,6.18,'3253',1551231969,0.6857143
'7c4a2b','OXP',144.9233,-37.741,297.18,56.66,FALSE,159.26,6.5,'3253',1551231989,0.7142857
'7c4a2b','OXP',144.9269,-37.7454,350.52,59.57,FALSE,143.43,4.88,'3253',1551231999,0.7428571
'7c4a2b','OXP',144.9312,-37.7498,426.72,58.17,FALSE,141.1,8.13,'3253',1551232009,0.7714286
'7c4a2b','OXP',144.9353,-37.7537,495.3,56.25,FALSE,140.19,6.18,'3253',1551232019,0.8000000
'7c4a2b','OXP',144.9396,-37.7577,541.02,57.77,FALSE,140.78,2.28,'3253',1551232030,0.8285714
'7c4a2b','OXP',144.9432,-37.7615,571.5,58.97,FALSE,141.73,3.9,'3253',1551232038,0.8571429
'7c4a2b','OXP',144.9478,-37.766,624.84,59.82,FALSE,139.18,3.9,'3253',1551232049,0.8857143
'7c4a2b','OXP',144.9522,-37.7701,640.08,63.56,FALSE,140.25,0.33,'3253',1551232059,0.9142857
'7c4a2b','OXP',144.9571,-37.7749,662.94,66.86,FALSE,140.31,4.55,'3253',1551232069,0.9428571
'7c4a2b','OXP',144.9662,-37.7833,762,62.33,FALSE,138.68,5.53,'3253',1551232088,0.9714286
'7c4a2b','OXP',144.9711,-37.7877,815.34,61.95,FALSE,138.37,4.55,'3253',1551232099,1.0000000
'7c6d31','',144.8101,-37.6597,281.94,89.48,FALSE,275.94,15.93,'1324',1551231718,0.0000000
'7c6d31','VOZ741',144.7995,-37.6587,441.96,90.87,FALSE,277.81,14.63,'1324',1551231729,0.0625000
'7c6d31','VOZ741',144.7889,-37.6577,548.64,94.7,FALSE,276.24,8.45,'1324',1551231739,0.1250000
'7c6d31','VOZ741',144.7781,-37.6571,609.6,104.17,FALSE,273.96,6.18,'1324',1551231749,0.1875000
'7c6d31','VOZ741',144.7651,-37.6563,670.56,113.13,FALSE,275.22,5.2,'1324',1551231759,0.2500000
'7c6d31','VOZ741',144.7522,-37.6555,815.34,117.11,FALSE,274.28,20.48,'1324',1551231769,0.3125000
'7c6d31','VOZ741',144.7243,-37.6539,1089.66,125.25,FALSE,273.53,11.7,'1324',1551231789,0.3750000
'7c6d31','VOZ741',144.7092,-37.6533,1249.68,128.3,FALSE,273.22,16.58,'1324',1551231799,0.4375000
'7c6d31','VOZ741',144.6957,-37.6527,1402.08,129.81,FALSE,272.95,17.56,'1324',1551231809,0.5000000
'7c6d31','VOZ741',144.6801,-37.6512,1569.72,133.08,FALSE,280.92,13.66,'1324',1551231819,0.5625000
'7c6d31','VOZ741',144.6674,-37.6473,1653.54,139.56,FALSE,299.12,15.93,'1324',1551231828,0.6250000
'7c6d31','VOZ741',144.6548,-37.6376,1866.9,139.78,FALSE,319.63,23.08,'1324',1551231839,0.6875000
'7c6d31','VOZ741',144.6474,-37.627,2065.02,139.7,FALSE,334.94,22.11,'1324',1551231849,0.7500000
'7c6d31','VOZ741',144.6424,-37.6143,2247.9,142.75,FALSE,343.46,16.91,'1324',1551231860,0.8125000
'7c6d31','VOZ741',144.6378,-37.6024,2369.82,146.45,FALSE,342.84,12.35,'1324',1551231869,0.8750000
'7c6d31','VOZ741',144.6296,-37.5742,2628.9,156.69,FALSE,354.16,13.98,'1324',1551231890,0.9375000
'7c6d31','VOZ741',144.6302,-37.5607,2712.72,163.03,FALSE,4.34,12.35,'1324',1551231899,1.0000000
'7c6dbb','QFA432',144.8172,-37.6604,175.26,87.16,FALSE,274.06,15.61,'4245',1551231808,0.0000000
'7c6dbb','QFA432',144.8048,-37.6596,342.9,88.22,FALSE,274.35,13.33,'4245',1551231820,0.0625000
'7c6dbb','QFA432',144.7948,-37.659,464.82,91.34,FALSE,274.52,9.43,'4245',1551231830,0.1250000
'7c6dbb','QFA432',144.7834,-37.6582,548.64,100.7,FALSE,274.98,6.5,'4245',1551231840,0.1875000
'7c6dbb','QFA432',144.7722,-37.6575,640.08,105.74,FALSE,274.18,10.08,'4245',1551231850,0.2500000
'7c6dbb','QFA432',144.759,-37.6566,739.14,113.56,FALSE,274.68,10.4,'4245',1551231860,0.3125000
'7c6dbb','QFA432',144.7465,-37.6558,853.44,118.21,FALSE,274.74,12.35,'4245',1551231870,0.3750000
'7c6dbb','QFA432',144.7188,-37.6542,1066.8,128.43,FALSE,274.13,11.38,'4245',1551231890,0.4375000
'7c6dbb','QFA432',144.7058,-37.6535,1165.86,132.54,FALSE,274.01,11.38,'4245',1551231898,0.5000000
'7c6dbb','QFA432',144.6879,-37.6515,1264.92,140.56,FALSE,282.26,9.75,'4245',1551231910,0.5625000
'7c6dbb','QFA432',144.6757,-37.6475,1310.64,147.1,FALSE,294.59,10.08,'4245',1551231918,0.6250000
'7c6dbb','QFA432',144.6611,-37.6393,1402.08,155.25,FALSE,311.51,14.63,'4245',1551231929,0.6875000
'7c6dbb','QFA432',144.6483,-37.6272,1531.62,159.53,FALSE,325.64,18.86,'4245',1551231939,0.7500000
'7c6dbb','QFA432',144.6406,-37.614,1691.64,161.93,FALSE,337.59,21.46,'4245',1551231949,0.8125000
'7c6dbb','QFA432',144.635,-37.5992,1859.28,165.22,FALSE,343.54,17.88,'4245',1551231960,0.8750000
'7c6dbb','QFA432',144.6298,-37.584,2042.16,165.57,FALSE,345.79,19.51,'4245',1551231970,0.9375000
'7c6dbb','QFA432',144.6306,-37.5549,2301.24,174.9,FALSE,9.82,16.58,'4245',1551231989,1.0000000
'c820f2','ANZ124',144.8426,-37.6953,220.98,97.64,FALSE,172.13,10.4,'1355',1551231999,0.0000000
'c820f2','ANZ124',144.8445,-37.7048,342.9,98.53,FALSE,170.69,12.68,'1355',1551232010,0.1428571
'c820f2','ANZ124',144.8462,-37.7135,464.82,99.75,FALSE,172,11.05,'1355',1551232020,0.2857143
'c820f2','ANZ124',144.848,-37.723,525.78,106.15,FALSE,171.36,6.18,'1355',1551232030,0.4285714
'c820f2','ANZ124',144.8498,-37.7325,571.5,114.52,FALSE,171.21,2.93,'1355',1551232040,0.5714286
'c820f2','ANZ124',144.852,-37.744,609.6,124.34,FALSE,171.43,4.23,'1355',1551232050,0.7142857
'c820f2','ANZ124',144.8542,-37.7551,647.7,133.73,FALSE,171.37,3.58,'1355',1551232060,0.8571429
'c820f2','ANZ124',144.8567,-37.7683,723.9,142.02,FALSE,171.46,11.38,'1355',1551232070,1.0000000
'7c7802','QFA855',144.8166,-37.5541,647.7,101.35,FALSE,171.83,-5.53,'4246',1551232149,0.0000000
'7c7802','QFA855',144.8182,-37.5628,594.36,98.8,FALSE,171.62,-5.85,'4246',1551232159,0.0833333
'7c7802','QFA855',144.8197,-37.5712,541.02,95.16,FALSE,171.61,-5.53,'4246',1551232169,0.1666667
'7c7802','QFA855',144.8214,-37.5805,495.3,90.51,FALSE,171.5,-4.55,'4246',1551232180,0.2500000
'7c7802','QFA855',144.8242,-37.5956,396.24,82.65,FALSE,171.77,-5.2,'4246',1551232200,0.3333333
'7c7802','QFA855',144.8255,-37.6024,365.76,79.59,FALSE,171.45,-3.9,'4246',1551232210,0.4166667
'7c7802','QFA855',144.8269,-37.6096,320.04,79.09,FALSE,171.4,-4.55,'4246',1551232220,0.5000000
'7c7802','QFA855',144.828,-37.616,289.56,78.5,FALSE,171.71,-3.58,'4246',1551232229,0.5833333
'7c7802','QFA855',144.8294,-37.6231,243.84,76.97,FALSE,171.54,-4.55,'4246',1551232239,0.6666667
'7c7802','QFA855',144.8306,-37.63,205.74,76.97,FALSE,171.54,-3.9,'4246',1551232249,0.7500000
'7c7802','QFA855',144.8319,-37.6374,167.64,77.48,FALSE,171.6,-3.25,'4246',1551232260,0.8333333
'7c7802','QFA855',144.8332,-37.6438,129.54,76.97,FALSE,171.54,-3.25,'4246',1551232269,0.9166667
'7c7802','QFA855',144.8338,-37.6472,95.25,76.97,TRUE,171.54,-3.25,'4246',1551232275,1.0000000
'7c62ab','RXA3561',144.8427,-37.6927,213.36,73.45,FALSE,168.69,9.75,None,1551232199,0.0000000
'7c62ab','RXA3561',144.8444,-37.6993,304.8,75.06,FALSE,168.54,9.75,'3272',1551232209,0.0833333
'7c62ab','RXA3561',144.8462,-37.7063,396.24,76.68,FALSE,168.39,9.75,'3272',1551232220,0.1666667
'7c62ab','RXA3561',144.8476,-37.7126,480.06,78.74,FALSE,170.6,7.15,'3272',1551232229,0.2500000
'7c62ab','RXA3561',144.8491,-37.72,563.88,81.2,FALSE,171.25,9.43,'3272',1551232239,0.3333333
'7c62ab','RXA3561',144.8504,-37.7268,640.08,80.26,FALSE,170.78,5.85,'3272',1551232249,0.4166667
'7c62ab','RXA3561',144.8525,-37.7348,693.42,82.93,FALSE,168.55,4.55,'3272',1551232260,0.5000000
'7c62ab','RXA3561',144.8543,-37.7425,769.62,83.44,FALSE,168.62,8.45,'3272',1551232270,0.5833333
'7c62ab','RXA3561',144.8562,-37.7496,838.2,84.15,FALSE,168,6.83,'3272',1551232280,0.6666667
'7c62ab','RXA3561',144.8603,-37.7636,982.98,84.22,FALSE,166.22,6.5,'3272',1551232299,0.7500000
'7c62ab','RXA3561',144.8626,-37.7712,1013.46,89.34,FALSE,166.68,2.93,'3272',1551232308,0.8333333
'7c62ab','RXA3561',144.8651,-37.7795,1043.94,94.21,FALSE,166.42,2.93,'3272',1551232319,0.9166667
'7c62ab','RXA3561',144.868,-37.7886,1074.42,98.69,FALSE,165.82,2.6,'3272',1551232329,1.0000000
'7c531e','QFA153',144.8065,-37.6598,373.38,84.12,FALSE,274.56,15.61,'1463',1551232200,0.0000000
'7c531e','QFA153',144.7973,-37.6592,502.92,86.17,FALSE,274.45,11.05,'1463',1551232209,0.0476190
'7c531e','QFA153',144.7864,-37.6584,571.5,90.4,FALSE,275.22,3.25,'1463',1551232220,0.0952381
'7c531e','QFA153',144.7776,-37.6577,601.98,97.11,FALSE,275.17,3.25,'1463',1551232228,0.1428571
'7c531e','QFA153',144.7644,-37.6568,647.7,103.82,FALSE,275.12,5.53,'1463',1551232240,0.1904762
'7c531e','QFA153',144.7531,-37.656,685.8,111.04,FALSE,275.05,4.88,'1463',1551232249,0.2380952
'7c531e','QFA153',144.7391,-37.655,807.72,114.67,FALSE,275.15,14.63,'1463',1551232260,0.2857143
'7c531e','QFA153',144.7271,-37.6543,960.12,112.93,FALSE,273.92,18.86,'1463',1551232269,0.3333333
'7c531e','QFA153',144.715,-37.6539,1120.14,112.16,FALSE,269.21,16.91,'1463',1551232279,0.3809524
'7c531e','QFA153',144.6907,-37.6609,1371.6,119.45,FALSE,233.23,6.18,'1463',1551232299,0.4285714
'7c531e','QFA153',144.6805,-37.6695,1432.56,128.92,FALSE,217.05,6.83,'1463',1551232310,0.4761905
'7c531e','QFA153',144.6728,-37.6789,1508.76,135.87,FALSE,210.74,10.73,'1463',1551232319,0.5238095
'7c531e','QFA153',144.6646,-37.6901,1653.54,136.87,FALSE,209.74,17.88,'1463',1551232330,0.5714286
'7c531e','QFA153',144.6579,-37.7008,1805.94,139.19,FALSE,201.92,15.28,'1463',1551232339,0.6190476
'7c531e','QFA153',144.6541,-37.7136,1950.72,143.57,FALSE,187,14.31,'1463',1551232349,0.6666667
'7c531e','QFA153',144.6546,-37.7261,2087.88,147.09,FALSE,173.37,14.63,'1463',1551232359,0.7142857
'7c531e','QFA153',144.6601,-37.7392,2247.9,150.71,FALSE,152.56,17.23,'1463',1551232369,0.7619048
'7c531e','QFA153',144.6695,-37.7502,2415.54,152.11,FALSE,139.25,17.23,'1463',1551232379,0.8095238
'7c531e','QFA153',144.6991,-37.7657,2644.14,162.26,FALSE,114.94,5.85,'1463',1551232399,0.8571429
'7c531e','QFA153',144.7157,-37.7717,2705.1,168.73,FALSE,114.69,6.18,'1463',1551232409,0.9047619
'7c531e','QFA153',144.7332,-37.7782,2758.44,176.06,FALSE,115.07,6.18,'1463',1551232419,0.9523810
'7c531e','QFA153',144.7518,-37.7852,2827.02,182.28,FALSE,115.05,8.78,'1463',1551232429,1.0000000
'7c7fe4','ZJQ',144.9015,-37.7337,91.44,44.39,FALSE,175.35,3.58,'0100',1551232248,0.0000000
'7c7fe4','ZJQ',144.9015,-37.7341,160.02,44.29,FALSE,177.34,5.2,'0100',1551232249,0.0344828
'7c7fe4','ZJQ',144.9025,-37.742,190.5,44.86,FALSE,176.05,2.6,'0100',1551232270,0.0689655
'7c7fe4','ZJQ',144.9026,-37.7458,243.84,41.72,FALSE,177.17,6.18,'0100',1551232280,0.1034483
'7c7fe4','ZJQ',144.9037,-37.7527,312.42,43.73,FALSE,171.2,3.9,'0100',1551232299,0.1379310
'7c7fe4','ZJQ',144.904,-37.7569,365.76,40.65,FALSE,178.55,4.88,'0100',1551232309,0.1724138
'7c7fe4','ZJQ',144.904,-37.7604,403.86,41.67,FALSE,180,4.23,'0100',1551232319,0.2068966
'7c7fe4','ZJQ',144.9039,-37.7649,403.86,49.92,FALSE,181.77,0.33,'0100',1551232329,0.2413793
'7c7fe4','ZJQ',144.9036,-37.7693,403.86,51.54,FALSE,183.43,0.65,'0100',1551232339,0.2758621
'7c7fe4','ZJQ',144.9032,-37.7741,411.48,52,FALSE,182.27,-0.33,'0100',1551232349,0.3103448
'7c7fe4','ZJQ',144.9029,-37.7785,411.48,52.05,FALSE,183.4,-0.33,'0100',1551232359,0.3448276
'7c7fe4','ZJQ',144.9024,-37.7835,403.86,54.17,FALSE,184.36,0.33,'0100',1551232369,0.3793103
'7c7fe4','ZJQ',144.9019,-37.7882,419.1,51.61,FALSE,184.57,2.6,'0100',1551232379,0.4137931
'7c7fe4','ZJQ',144.9517,-37.7857,419.1,52.3,FALSE,320.99,1.3,'0100',1551233209,0.4482759
'7c7fe4','ZJQ',144.9478,-37.7817,411.48,54.24,FALSE,324.65,-1.3,'0100',1551233219,0.4827586
'7c7fe4','ZJQ',144.9445,-37.7777,388.62,52.68,FALSE,328.17,-2.6,'0100',1551233229,0.5172414
'7c7fe4','ZJQ',144.9417,-37.7736,350.52,53.5,FALSE,337.38,-3.58,'0100',1551233239,0.5517241
'7c7fe4','ZJQ',144.9398,-37.7692,335.28,52.29,FALSE,344.6,-0.33,'0100',1551233249,0.5862069
'7c7fe4','ZJQ',144.9384,-37.7644,335.28,49.94,FALSE,348.11,-0.98,'0100',1551233259,0.6206897
'7c7fe4','ZJQ',144.9373,-37.7602,320.04,49.65,FALSE,349.85,-0.98,'0100',1551233269,0.6551724
'7c7fe4','ZJQ',144.9364,-37.7556,320.04,49.05,FALSE,350.34,-0.98,'0100',1551233280,0.6896552
'7c7fe4','ZJQ',144.9355,-37.7517,312.42,46.61,FALSE,349.19,-1.63,'0100',1551233289,0.7241379
'7c7fe4','ZJQ',144.934,-37.7439,266.7,39.37,FALSE,353.25,-1.63,'0100',1551233309,0.7586207
'7c7fe4','ZJQ',144.9335,-37.7405,236.22,38.74,FALSE,349.29,-3.58,'0100',1551233319,0.7931034
'7c7fe4','ZJQ',144.9327,-37.7368,205.74,36.33,FALSE,347.74,-0.33,'0100',1551233329,0.8275862
'7c7fe4','ZJQ',144.9319,-37.7341,190.5,36.61,FALSE,340.29,-2.6,'0100',1551233338,0.8620690
'7c7fe4','ZJQ',144.9258,-37.7301,114.3,33.96,FALSE,269.13,-4.55,'0100',1551233359,0.8965517
'7c7fe4','ZJQ',144.9218,-37.7304,76.2,33.07,FALSE,264.64,-1.3,'0100',1551233369,0.9310345
'7c7fe4','ZJQ',144.9195,-37.7306,53.34,32.48,FALSE,266.37,-3.25,'0100',1551233375,0.9655172
'7c7fe4','ZJQ',144.916,-37.7308,30.48,36.03,FALSE,268.36,-1.3,'0100',1551233385,1.0000000
'7c195c','FAM',144.9012,-37.7318,30.48,33.45,FALSE,178.24,1.3,'0100',1551232379,0.0000000
'7c195c','FAM',144.9016,-37.7378,60.96,33.96,FALSE,179.13,2.28,'0100',1551232398,0.0666667
'7c195c','FAM',144.9015,-37.7412,60.96,36.01,FALSE,180.82,1.63,'0100',1551232409,0.1333333
'7c195c','FAM',144.9014,-37.7439,91.44,37.21,FALSE,185.55,2.93,'0100',1551232418,0.2000000
'7c195c','FAM',144.9011,-37.7477,121.92,38.07,FALSE,180,1.95,'0100',1551232428,0.2666667
'7c195c','FAM',144.9011,-37.7514,121.92,37.59,FALSE,182.35,1.63,'0100',1551232439,0.3333333
'7c195c','FAM',144.9009,-37.7542,152.4,37.64,FALSE,183.92,3.25,'0100',1551232448,0.4000000
'7c195c','FAM',144.9005,-37.7581,182.88,37.1,FALSE,183.18,0.98,'0100',1551232459,0.4666667
'7c195c','FAM',144.9002,-37.7613,182.88,38.24,FALSE,185.4,1.3,'0100',1551232468,0.5333333
'7c195c','FAM',144.8998,-37.7641,213.36,37.21,FALSE,185.55,2.28,'0100',1551232477,0.6000000
'7c195c','FAM',144.899,-37.7712,243.84,34.61,FALSE,185.12,3.58,'0100',1551232498,0.6666667
'7c195c','FAM',144.8987,-37.7749,274.32,38.07,FALSE,180.77,0,'0100',1551232510,0.7333333
'7c195c','FAM',144.8987,-37.7784,274.32,40.13,FALSE,179.27,1.63,'0100',1551232519,0.8000000
'7c195c','FAM',144.8989,-37.7822,304.8,39.7,FALSE,176.28,1.3,'0100',1551232530,0.8666667
'7c195c','FAM',144.8992,-37.7856,335.28,39.13,FALSE,177.74,3.9,'0100',1551232540,0.9333333
'7c195c','FAM',144.8993,-37.7888,365.76,38.61,FALSE,177.71,2.6,'0100',1551232549,1.0000000
'7c34c2','KPG',144.9008,-37.7336,121.92,44.78,FALSE,181.97,4.23,'0100',1551232447,0.0000000
'7c34c2','KPG',144.9006,-37.7382,182.88,44.32,FALSE,183.33,5.2,'0100',1551232459,0.0909091
'7c34c2','KPG',144.9002,-37.7419,213.36,43.36,FALSE,184.76,3.58,'0100',1551232469,0.1818182
'7c34c2','KPG',144.8996,-37.7461,243.84,46.58,FALSE,186.34,2.93,'0100',1551232479,0.2727273
'7c34c2','KPG',144.8988,-37.7542,304.8,47.47,FALSE,184.35,2.93,'0100',1551232498,0.3636364
'7c34c2','KPG',144.8984,-37.759,335.28,47.89,FALSE,182.46,4.55,'0100',1551232509,0.4545455
'7c34c2','KPG',144.8983,-37.7634,365.76,47.85,FALSE,181.23,1.3,'0100',1551232520,0.5454545
'7c34c2','KPG',144.8982,-37.7677,396.24,47.87,FALSE,181.85,2.93,'0100',1551232529,0.6363636
'7c34c2','KPG',144.8981,-37.772,426.72,47.87,FALSE,181.85,1.95,'0100',1551232540,0.7272727
'7c34c2','KPG',144.898,-37.7762,457.2,49.9,FALSE,179.41,3.9,'0100',1551232549,0.8181818
'7c34c2','KPG',144.8982,-37.7809,487.68,47.43,FALSE,176.27,3.58,'0100',1551232560,0.9090909
'7c34c2','KPG',144.8986,-37.7846,518.16,49.45,FALSE,177.02,2.6,'0100',1551232568,1.0000000
'7c6ddf','QFA1013',144.8108,-37.6599,274.32,87.75,FALSE,274.71,15.28,'3767',1551232479,0.0000000
'7c6ddf','QFA1013',144.7913,-37.6588,495.3,94.93,FALSE,274.35,8.13,'3767',1551232498,0.0526316
'7c6ddf','QFA1013',144.7797,-37.658,556.26,104.8,FALSE,274.79,6.18,'3767',1551232508,0.1052632
'7c6ddf','QFA1013',144.7657,-37.6571,632.46,114.03,FALSE,274.4,6.18,'3767',1551232520,0.1578947
'7c6ddf','QFA1013',144.7531,-37.6564,701.04,120.22,FALSE,274.42,11.38,'3767',1551232529,0.2105263
'7c6ddf','QFA1013',144.7384,-37.6555,853.44,124.37,FALSE,274.51,15.28,'3767',1551232540,0.2631579
'7c6ddf','QFA1013',144.7258,-37.6551,998.22,126.57,FALSE,270.93,15.28,'3767',1551232548,0.3157895
'7c6ddf','QFA1013',144.7108,-37.6566,1165.86,128.17,FALSE,257.25,13.33,'3767',1551232559,0.3684211
'7c6ddf','QFA1013',144.6972,-37.662,1325.88,131.46,FALSE,239.42,17.23,'3767',1551232569,0.4210526
'7c6ddf','QFA1013',144.6849,-37.6682,1493.52,132.79,FALSE,238.47,17.56,'3767',1551232579,0.4736842
'7c6ddf','QFA1013',144.6582,-37.6807,1851.66,134.9,FALSE,239.52,17.56,'3767',1551232599,0.5263158
'7c6ddf','QFA1013',144.6452,-37.6868,2019.3,135.61,FALSE,239.45,18.21,'3767',1551232609,0.5789474
'7c6ddf','QFA1013',144.6323,-37.6928,2186.94,136.05,FALSE,239.56,19.18,'3767',1551232619,0.6315789
'7c6ddf','QFA1013',144.6189,-37.7001,2385.06,136.5,FALSE,231.27,16.58,'3767',1551232629,0.6842105
'7c6ddf','QFA1013',144.6097,-37.7083,2545.08,138.28,FALSE,216.53,18.21,'3767',1551232638,0.7368421
'7c6ddf','QFA1013',144.602,-37.721,2743.2,141.09,FALSE,199.82,20.16,'3767',1551232649,0.7894737
'7c6ddf','QFA1013',144.5992,-37.7329,2918.46,142.37,FALSE,186.43,20.48,'3767',1551232659,0.8421053
'7c6ddf','QFA1013',144.6005,-37.7467,3093.72,146.67,FALSE,171.53,19.83,'3767',1551232669,0.8947368
'7c6ddf','QFA1013',144.6056,-37.7587,3215.64,150.18,FALSE,158.71,11.7,'3767',1551232679,0.9473684
'7c6ddf','QFA1013',144.6193,-37.7856,3329.94,165.94,FALSE,157.97,5.2,'3767',1551232699,1.0000000
'7c6a8d','VOZ322',144.8166,-37.5564,647.7,93.86,FALSE,172.76,-5.53,'1175',1551232509,0.0000000
'7c6a8d','VOZ322',144.8181,-37.565,594.36,89.85,FALSE,172.1,-4.55,'1175',1551232520,0.0833333
'7c6a8d','VOZ322',144.8196,-37.5725,548.64,86.01,FALSE,170.71,-4.88,'1175',1551232529,0.1666667
'7c6a8d','VOZ322',144.8211,-37.5802,518.16,79.84,FALSE,170.36,-6.5,'1175',1551232540,0.2500000
'7c6a8d','VOZ322',144.8224,-37.5864,464.82,77.39,FALSE,169.66,-4.55,'1175',1551232549,0.3333333
'7c6a8d','VOZ322',144.824,-37.594,419.1,76.12,FALSE,170.67,-4.88,'1175',1551232560,0.4166667
'7c6a8d','VOZ322',144.8251,-37.6002,381,75.68,FALSE,172.97,-3.9,'1175',1551232569,0.5000000
'7c6a8d','VOZ322',144.8262,-37.6068,350.52,72.62,FALSE,172.67,-2.93,'1175',1551232579,0.5833333
'7c6a8d','VOZ322',144.8279,-37.6157,281.94,72.99,FALSE,170.67,-2.28,'1175',1551232593,0.6666667
'7c6a8d','VOZ322',144.8295,-37.6238,251.46,72.4,FALSE,171.01,-4.23,'1175',1551232605,0.7500000
'7c6a8d','VOZ322',144.8311,-37.6325,190.5,73.7,FALSE,172.38,-2.28,'1175',1551232619,0.8333333
'7c6a8d','VOZ322',144.8324,-37.6396,152.4,72.48,FALSE,170.6,-4.23,'1175',1551232630,0.9166667
'7c6a8d','VOZ322',144.8332,-37.6437,129.54,72.83,FALSE,171.47,-3.58,'1175',1551232636,1.0000000
'7c6ac0','VDE',144.5755,-37.7882,1470.66,80.56,FALSE,106.7,0.33,'3722',1551232509,0.0000000
'7c6ac0','VDE',145.1024,-37.7261,838.2,56.59,FALSE,270,0.33,'3722',1551233450,0.0169492
'7c6ac0','VDE',145.0971,-37.7261,845.82,52.99,FALSE,270.56,1.3,'3722',1551233458,0.0338983
'7c6ac0','VDE',145.092,-37.7261,853.44,49.4,FALSE,268.81,0,'3722',1551233467,0.0508475
'7c6ac0','VDE',145.0852,-37.7262,822.96,49.9,FALSE,269.41,-3.9,'3722',1551233480,0.0677966
'7c6ac0','VDE',145.0797,-37.7262,792.48,50.93,FALSE,269.42,-2.6,'3722',1551233489,0.0847458
'7c6ac0','VDE',145.0678,-37.7264,731.52,52.47,FALSE,270,-2.6,'3722',1551233509,0.1016949
'7c6ac0','VDE',145.062,-37.7264,701.04,53.01,FALSE,268.33,-3.25,'3722',1551233519,0.1186441
'7c6ac0','VDE',145.0559,-37.7266,662.94,53.01,FALSE,268.33,-3.9,'3722',1551233529,0.1355932
'7c6ac0','VDE',145.0499,-37.7265,617.22,51.51,FALSE,272.86,-5.85,'3722',1551233539,0.1525424
'7c6ac0','VDE',145.0442,-37.7263,579.12,48.97,FALSE,273.61,-2.93,'3722',1551233549,0.1694915
'7c6ac0','VDE',145.0386,-37.7264,563.88,47.37,FALSE,267.51,-1.3,'3722',1551233560,0.1864407
'7c6ac0','VDE',145.0332,-37.7264,541.02,48.38,FALSE,268.17,-1.3,'3722',1551233569,0.2033898
'7c6ac0','VDE',145.0275,-37.7267,525.78,49.45,FALSE,267.02,-1.3,'3722',1551233580,0.2203390
'7c6ac0','VDE',145.0222,-37.7269,510.54,49.9,FALSE,269.41,-1.95,'3722',1551233589,0.2372881
'7c6ac0','VDE',145.0158,-37.7269,480.06,52.99,FALSE,269.44,-3.25,'3722',1551233600,0.2542373
'7c6ac0','VDE',145.0044,-37.7274,441.96,55.05,FALSE,269.46,-2.6,'3722',1551233619,0.2711864
'7c6ac0','VDE',144.998,-37.7274,411.48,55.07,FALSE,268.39,-3.25,'3722',1551233629,0.2881356
'7c6ac0','VDE',144.9918,-37.7277,388.62,55.29,FALSE,264.66,-2.28,'3722',1551233639,0.3050847
'7c6ac0','VDE',144.9853,-37.7282,350.52,56.47,FALSE,263.2,-4.88,'3722',1551233649,0.3220339
'7c6ac0','VDE',144.9793,-37.7289,335.28,54.06,FALSE,261.79,-0.98,'3722',1551233659,0.3389831
'7c6ac0','VDE',144.9731,-37.7293,304.8,53.24,FALSE,264.45,-2.93,'3722',1551233670,0.3559322
'7c6ac0','VDE',144.9669,-37.7297,274.32,54.14,FALSE,266.19,-2.93,'3722',1551233679,0.3728814
'7c6ac0','VDE',144.9604,-37.7298,236.22,55.05,FALSE,269.46,-3.9,'3722',1551233690,0.3898305
'7c6ac0','VDE',144.9485,-37.7299,182.88,55.05,FALSE,269.46,-2.93,'3722',1551233709,0.4067797
'7c6ac0','VDE',144.9425,-37.7298,205.74,50.03,FALSE,274.13,2.6,'3722',1551233719,0.4237288
'7c6ac0','VDE',144.938,-37.7286,228.6,48.88,FALSE,300.34,1.3,'3722',1551233728,0.4406780
'7c6ac0','VDE',144.9321,-37.7207,236.22,51.49,FALSE,357.71,0,'3722',1551233749,0.4576271
'7c6ac0','VDE',144.9332,-37.7157,281.94,52.22,FALSE,18.97,4.88,'3722',1551233759,0.4745763
'7c6ac0','VDE',144.936,-37.7115,327.66,53.22,FALSE,29.54,4.23,'3722',1551233770,0.4915254
'7c6ac0','VDE',144.9391,-37.7074,365.76,55.68,FALSE,31.78,3.25,'3722',1551233779,0.5084746
'7c6ac0','VDE',144.9423,-37.7027,396.24,57.18,FALSE,30.26,3.58,'3722',1551233790,0.5254237
'7c6ac0','VDE',144.9485,-37.695,502.92,51.1,FALSE,32.25,5.2,'3722',1551233809,0.5423729
'7c6ac0','VDE',144.9519,-37.6911,548.64,50.12,FALSE,35.81,3.58,'3722',1551233819,0.5593220
'7c6ac0','VDE',144.9551,-37.6874,571.5,51.51,FALSE,34.01,2.28,'3722',1551233829,0.5762712
'7c6ac0','VDE',144.9586,-37.6832,594.36,53.23,FALSE,32.77,2.6,'3722',1551233840,0.5932203
'7c6ac0','VDE',144.9616,-37.6797,632.46,50.83,FALSE,35.94,4.23,'3722',1551233849,0.6101695
'7c6ac0','VDE',144.9652,-37.6756,670.56,53.43,FALSE,38.75,2.28,'3722',1551233859,0.6271186
'7c6ac0','VDE',144.969,-37.672,693.42,55.2,FALSE,39.33,2.6,'3722',1551233869,0.6440678
'7c6ac0','VDE',144.9731,-37.6678,723.9,56.7,FALSE,36.14,2.93,'3722',1551233880,0.6610169
'7c6ac0','VDE',144.9765,-37.664,746.76,57.53,FALSE,35.54,2.93,'3722',1551233889,0.6779661
'7c6ac0','VDE',144.9796,-37.6591,784.86,54.82,FALSE,18.6,3.25,'3722',1551233900,0.6949153
'7c6ac0','VDE',144.9831,-37.6497,838.2,55.69,FALSE,11.73,2.28,'3722',1551233920,0.7118644
'7c6ac0','VDE',144.9843,-37.6451,853.44,56.6,FALSE,11,2.28,'3722',1551233929,0.7288136
'7c6ac0','VDE',144.9856,-37.6398,899.16,55.19,FALSE,11.83,4.55,'3722',1551233940,0.7457627
'7c6ac0','VDE',144.987,-37.6352,929.64,56.41,FALSE,12.64,2.6,'3722',1551233949,0.7627119
'7c6ac0','VDE',144.9884,-37.6298,960.12,56.6,FALSE,11,3.25,'3722',1551233960,0.7796610
'7c6ac0','VDE',144.9897,-37.625,990.6,57.21,FALSE,11.41,2.93,'3722',1551233969,0.7966102
'7c6ac0','VDE',144.9906,-37.6206,1021.08,57.05,FALSE,7.25,2.6,'3722',1551233978,0.8135593
'7c6ac0','VDE',144.9916,-37.6147,1043.94,59.04,FALSE,10.04,1.95,'3722',1551233990,0.8305085
'7c6ac0','VDE',144.9927,-37.6099,1074.42,59.22,FALSE,11.02,3.25,'3722',1551233999,0.8474576
'7c6ac0','VDE',144.9955,-37.5992,1127.76,61.55,FALSE,12.06,2.93,'3722',1551234019,0.8644068
'7c6ac0','VDE',144.9969,-37.5936,1165.86,60.44,FALSE,11.79,3.58,'3722',1551234029,0.8813559
'7c6ac0','VDE',144.9982,-37.5885,1203.96,59.93,FALSE,11.89,3.9,'3722',1551234039,0.8983051
'7c6ac0','VDE',144.9997,-37.5828,1242.06,58.93,FALSE,12.09,3.58,'3722',1551234050,0.9152542
'7c6ac0','VDE',145.001,-37.5779,1272.54,58.72,FALSE,11.11,3.25,'3722',1551234059,0.9322034
'7c6ac0','VDE',145.0024,-37.5723,1303.02,59.63,FALSE,10.44,2.6,'3722',1551234070,0.9491525
'7c6ac0','VDE',145.0035,-37.5672,1333.5,60.14,FALSE,10.35,2.93,'3722',1551234079,0.9661017
'7c6ac0','VDE',145.0049,-37.5621,1371.6,59.54,FALSE,12.48,3.58,'3722',1551234089,0.9830508
'7c6ac0','VDE',145.0063,-37.5568,1409.7,59.13,FALSE,10.53,3.25,'3722',1551234099,1.0000000
'7c7cc6','HM5',144.9014,-37.7337,182.88,45.3,FALSE,178.05,5.2,'0045',1551232528,0.0000000
'7c7cc6','HM5',144.9015,-37.7386,243.84,47.33,FALSE,180,5.53,'0045',1551232540,0.1000000
'7c7cc6','HM5',144.9016,-37.7426,289.56,47.34,FALSE,178.75,5.2,'0045',1551232549,0.2000000
'7c7cc6','HM5',144.9016,-37.7471,335.28,47.33,FALSE,180.62,2.93,'0045',1551232560,0.3000000
'7c7cc6','HM5',144.9017,-37.7514,365.76,48.87,FALSE,180,3.25,'0045',1551232570,0.4000000
'7c7cc6','HM5',144.9017,-37.7557,388.62,50.43,FALSE,178.83,0.33,'0045',1551232579,0.5000000
'7c7cc6','HM5',144.902,-37.7653,388.62,54.06,FALSE,177.82,-0.33,'0045',1551232599,0.6000000
'7c7cc6','HM5',144.9022,-37.7703,396.24,55.08,FALSE,177.86,-1.3,'0045',1551232610,0.7000000
'7c7cc6','HM5',144.9023,-37.7753,388.62,60.76,FALSE,182.43,-0.65,'0045',1551232619,0.8000000
'7c7cc6','HM5',144.9018,-37.7813,388.62,67.04,FALSE,183.96,0.98,'0045',1551232630,0.9000000
'7c7cc6','HM5',144.9013,-37.787,388.62,70.09,FALSE,183.37,0.33,'0045',1551232639,1.0000000
'7c6b39','JST512',144.817,-37.6604,220.98,82.67,FALSE,275.36,15.61,None,1551232550,0.0000000
'7c6b39','JST512',144.8079,-37.6597,373.38,81.6,FALSE,275.06,14.96,'4312',1551232559,0.0625000
'7c6b39','JST512',144.7981,-37.659,464.82,87.28,FALSE,275.07,7.8,'4312',1551232570,0.1250000
'7c6b39','JST512',144.7882,-37.6584,525.78,93.39,FALSE,274.42,6.83,'4312',1551232579,0.1875000
'7c6b39','JST512',144.7659,-37.6572,647.7,106.22,FALSE,273.89,6.83,'4312',1551232599,0.2500000
'7c6b39','JST512',144.7525,-37.6564,701.04,114.54,FALSE,274.38,7.15,'4312',1551232610,0.3125000
'7c6b39','JST512',144.7399,-37.6556,792.48,120.74,FALSE,274.4,10.08,'4312',1551232619,0.3750000
'7c6b39','JST512',144.7277,-37.6549,868.68,126.38,FALSE,274.2,10.4,'4312',1551232628,0.4375000
'7c6b39','JST512',144.7133,-37.6541,975.36,133.05,FALSE,273.99,9.43,'4312',1551232638,0.5000000
'7c6b39','JST512',144.6951,-37.6529,1066.8,140.67,FALSE,275.88,8.45,'4312',1551232649,0.5625000
'7c6b39','JST512',144.6811,-37.6505,1120.14,147.58,FALSE,287.23,6.83,'4312',1551232658,0.6250000
'7c6b39','JST512',144.6631,-37.6429,1188.72,157.25,FALSE,304.47,5.53,'4312',1551232670,0.6875000
'7c6b39','JST512',144.6533,-37.6353,1242.06,164.33,FALSE,322.38,10.4,'4312',1551232677,0.7500000
'7c6b39','JST512',144.6375,-37.6053,1546.86,169.61,FALSE,344.7,16.91,'4312',1551232699,0.8125000
'7c6b39','JST512',144.6321,-37.5899,1706.88,170.6,FALSE,344.79,16.58,'4312',1551232709,0.8750000
'7c6b39','JST512',144.6282,-37.5757,1844.04,173.39,FALSE,351.12,13,'4312',1551232719,0.9375000
'7c6b39','JST512',144.6277,-37.5587,1943.1,180.12,FALSE,4.59,7.48,'4312',1551232729,1.0000000
'7c6ca9','JST604',144.7549,-37.7834,4914.9,198.27,FALSE,29.03,10.73,'4046',1551232579,0.0000000
'7c6ca9','JST604',144.776,-37.7534,5158.74,198.52,FALSE,29.16,14.96,'4046',1551232598,0.0714286
'7c6ca9','JST604',144.7882,-37.736,5295.9,198.97,FALSE,29.08,11.05,'4046',1551232609,0.1428571
'7c6ca9','JST604',144.799,-37.7205,5394.96,200.82,FALSE,29.13,11.05,'4046',1551232619,0.2142857
'7c6ca9','JST604',144.8101,-37.7047,5516.88,201.52,FALSE,29.18,12.68,'4046',1551232629,0.2857143
'7c6ca9','JST604',144.8203,-37.6901,5608.32,201.97,FALSE,29.11,10.4,'4046',1551232638,0.3571429
'7c6ca9','JST604',144.8332,-37.6721,5722.62,204.26,FALSE,30.25,9.43,'4046',1551232649,0.4285714
'7c6ca9','JST604',144.8462,-37.6582,5814.06,206.24,FALSE,40.24,10.73,'4046',1551232659,0.5000000
'7c6ca9','JST604',144.864,-37.6447,5920.74,208.08,FALSE,49.81,10.4,'4046',1551232669,0.5714286
'7c6ca9','JST604',144.8817,-37.6334,6019.8,209.05,FALSE,51.49,10.73,'4046',1551232679,0.6428571
'7c6ca9','JST604',144.9191,-37.6098,6210.3,211.62,FALSE,51.51,9.43,'4046',1551232699,0.7142857
'7c6ca9','JST604',144.9384,-37.5976,6309.36,213.07,FALSE,51.47,10.08,'4046',1551232709,0.7857143
'7c6ca9','JST604',144.9565,-37.5861,6393.18,214.11,FALSE,51.34,9.1,'4046',1551232719,0.8571429
'7c6ca9','JST604',144.9762,-37.5734,6477,215.48,FALSE,51.11,8.78,'4046',1551232729,0.9285714
'7c6ca9','JST604',144.9945,-37.5617,6553.2,217.25,FALSE,50.96,7.48,'4046',1551232739,1.0000000
'7c6d9b','',144.8113,-37.6601,243.84,86.68,FALSE,274.42,13.33,'4335',1551232730,0.0000000
'7c6d9b','QFA812',144.8067,-37.6598,297.18,86.17,FALSE,274.45,12.68,'4335',1551232735,0.0625000
'7c6d9b','QFA812',144.7913,-37.6587,487.68,89.94,FALSE,275.58,13.33,'4335',1551232750,0.1250000
'7c6d9b','QFA812',144.7812,-37.658,601.98,95.57,FALSE,275.25,10.73,'4335',1551232760,0.1875000
'7c6d9b','QFA812',144.7704,-37.6573,693.42,104.2,FALSE,274.25,10.08,'4335',1551232769,0.2500000
'7c6d9b','QFA812',144.7572,-37.6564,800.1,111.55,FALSE,275.03,11.05,'4335',1551232780,0.3125000
'7c6d9b','QFA812',144.7447,-37.6555,944.88,115.09,FALSE,274.61,18.53,'4335',1551232790,0.3750000
'7c6d9b','QFA812',144.7187,-37.6542,1287.78,120.11,FALSE,273.68,12.35,'4335',1551232809,0.4375000
'7c6d9b','QFA812',144.7045,-37.6534,1402.08,127.44,FALSE,274.4,11.38,'4335',1551232819,0.5000000
'7c6d9b','QFA812',144.6902,-37.6524,1539.24,131.72,FALSE,275.15,16.58,'4335',1551232829,0.5625000
'7c6d9b','QFA812',144.6745,-37.6492,1744.98,132.47,FALSE,289.98,18.21,'4335',1551232840,0.6250000
'7c6d9b','QFA812',144.663,-37.6437,1912.62,134.2,FALSE,305.64,19.51,'4335',1551232849,0.6875000
'7c6d9b','QFA812',144.6516,-37.6335,2118.36,138.21,FALSE,324.24,18.53,'4335',1551232860,0.7500000
'7c6d9b','QFA812',144.645,-37.6222,2278.38,143.01,FALSE,338.7,16.58,'4335',1551232870,0.8125000
'7c6d9b','QFA812',144.64,-37.6091,2377.44,151.52,FALSE,343.23,7.15,'4335',1551232880,0.8750000
'7c6d9b','QFA812',144.6302,-37.5824,2567.94,165.09,FALSE,345.01,15.28,'4335',1551232899,0.9375000
'7c6d9b','QFA812',144.6276,-37.5671,2651.76,175.55,FALSE,357.82,8.13,'4335',1551232909,1.0000000
'7c1c54','',144.8107,-37.6601,236.22,66.95,FALSE,272.64,10.4,'4075',1551233010,0.0000000
'7c1c54','VOZ269',144.8033,-37.6598,312.42,67,FALSE,273.52,7.48,'4075',1551233019,0.0476190
'7c1c54','VOZ269',144.7955,-37.6594,388.62,70.06,FALSE,272.95,6.83,'4075',1551233030,0.0952381
'7c1c54','VOZ269',144.7874,-37.6588,441.96,73.34,FALSE,278.47,4.88,'4075',1551233039,0.1428571
'7c1c54','VOZ269',144.779,-37.6567,464.82,79.14,FALSE,296.23,2.93,'4075',1551233050,0.1904762
'7c1c54','VOZ269',144.7713,-37.6529,487.68,85.78,FALSE,302.26,2.93,'4075',1551233059,0.2380952
'7c1c54','VOZ269',144.7623,-37.6484,518.16,90.91,FALSE,302.52,2.6,'4075',1551233070,0.2857143
'7c1c54','VOZ269',144.7538,-37.644,579.12,91.78,FALSE,302.18,7.15,'4075',1551233079,0.3333333
'7c1c54','VOZ269',144.7448,-37.6396,655.32,90.43,FALSE,300.8,7.15,'4075',1551233090,0.3809524
'7c1c54','VOZ269',144.7267,-37.6312,807.72,88.32,FALSE,300.45,7.15,'4075',1551233110,0.4285714
'7c1c54','VOZ269',144.7188,-37.6274,876.3,86.21,FALSE,300.08,7.15,'4075',1551233120,0.4761905
'7c1c54','VOZ269',144.7102,-37.6235,944.88,85.76,FALSE,300.26,7.15,'4075',1551233130,0.5238095
'7c1c54','VOZ269',144.702,-37.6196,1013.46,84.96,FALSE,301.38,6.83,'4075',1551233140,0.5714286
'7c1c54','VOZ269',144.694,-37.6156,1074.42,84.91,FALSE,302.63,6.18,'4075',1551233149,0.6190476
'7c1c54','VOZ269',144.6855,-37.6113,1143,84.48,FALSE,302.82,5.85,'4075',1551233160,0.6666667
'7c1c54','VOZ269',144.6784,-37.6071,1196.34,85.52,FALSE,316.71,5.53,'4075',1551233169,0.7142857
'7c1c54','VOZ269',144.6739,-37.5998,1249.68,89.06,FALSE,351.03,5.2,'4075',1551233180,0.7619048
'7c1c54','VOZ269',144.6748,-37.592,1295.4,91.46,FALSE,13.33,5.2,'4075',1551233189,0.8095238
'7c1c54','VOZ269',144.6806,-37.5759,1394.46,92.79,FALSE,16.43,4.88,'4075',1551233209,0.8571429
'7c1c54','VOZ269',144.6838,-37.5673,1455.42,93.43,FALSE,16.64,4.88,'4075',1551233220,0.9047619
'7c1c54','VOZ269',144.6868,-37.5595,1501.14,95.05,FALSE,16.67,4.88,'4075',1551233230,0.9523810
'7c1c54','VOZ269',144.6901,-37.5509,1554.48,95.69,FALSE,16.88,4.88,'4075',1551233240,1.0000000
'7c16d6','ESO',144.571,-37.7838,419.1,47.82,FALSE,121.81,2.28,'0100',1551233089,0.0000000
'7c16d6','ESO',144.5813,-37.7883,426.72,50.85,FALSE,115.79,-0.65,'0100',1551233110,0.0625000
'7c16d6','ESO',144.9352,-37.7833,396.24,47.4,FALSE,3.11,0.33,'0100',1551233920,0.1250000
'7c16d6','ESO',144.9353,-37.7795,396.24,47.35,FALSE,1.87,0,'0100',1551233929,0.1875000
'7c16d6','ESO',144.9357,-37.7747,388.62,48.02,FALSE,4.92,-0.65,'0100',1551233940,0.2500000
'7c16d6','ESO',144.9361,-37.7706,388.62,48.63,FALSE,6.07,0,'0100',1551233949,0.3125000
'7c16d6','ESO',144.9368,-37.766,381,48.69,FALSE,6.67,-0.98,'0100',1551233960,0.3750000
'7c16d6','ESO',144.9376,-37.7618,365.76,46.86,FALSE,8.84,-2.93,'0100',1551233970,0.4375000
'7c16d6','ESO',144.9384,-37.7578,342.9,46.01,FALSE,10.3,-3.58,'0100',1551233979,0.5000000
'7c16d6','ESO',144.9392,-37.7534,312.42,47.94,FALSE,3.69,-1.63,'0100',1551233990,0.5625000
'7c16d6','ESO',144.9394,-37.7497,297.18,44.25,FALSE,1.33,-1.63,'0100',1551233999,0.6250000
'7c16d6','ESO',144.9392,-37.7418,251.46,40.72,FALSE,356.38,0,'0100',1551234020,0.6875000
'7c16d6','ESO',144.9387,-37.7386,220.98,36.45,FALSE,351.07,-2.28,'0100',1551234029,0.7500000
'7c16d6','ESO',144.937,-37.7321,198.12,35.12,FALSE,328.17,-0.65,'0100',1551234049,0.8125000
'7c16d6','ESO',144.9344,-37.7305,152.4,37.51,FALSE,295.16,-3.58,'0100',1551234057,0.8750000
'7c16d6','ESO',144.9244,-37.7305,99.06,40.13,FALSE,269.27,-3.25,'0100',1551234079,0.9375000
'7c16d6','ESO',144.9211,-37.7305,83.82,39.62,FALSE,269.26,-3.58,'0100',1551234086,1.0000000
'7c6d9a','QFA615',144.8171,-37.5576,624.84,89.34,FALSE,172.06,-5.2,'1126',1551233105,0.0000000
'7c6d9a','QFA615',144.8191,-37.5684,563.88,83.74,FALSE,171.52,-4.88,'1126',1551233119,0.0909091
'7c6d9a','QFA615',144.8204,-37.5752,525.78,81.12,FALSE,171.61,-4.55,'1126',1551233129,0.1818182
'7c6d9a','QFA615',144.8218,-37.5825,487.68,79.52,FALSE,171.82,-4.55,'1126',1551233139,0.2727273
'7c6d9a','QFA615',144.8231,-37.5894,441.96,79.52,FALSE,171.82,-4.55,'1126',1551233149,0.3636364
'7c6d9a','QFA615',144.8245,-37.597,396.24,81.12,FALSE,171.61,-4.55,'1126',1551233159,0.4545455
'7c6d9a','QFA615',144.8256,-37.6035,358.14,80.54,FALSE,171.92,-4.55,'1126',1551233168,0.5454545
'7c6d9a','QFA615',144.827,-37.6112,312.42,79.01,FALSE,171.76,-3.9,'1126',1551233179,0.6363636
'7c6d9a','QFA615',144.8283,-37.6182,274.32,79.59,FALSE,171.45,-3.58,'1126',1551233189,0.7272727
'7c6d9a','QFA615',144.831,-37.6321,190.5,77.13,FALSE,170.79,-5.2,'1126',1551233209,0.8181818
'7c6d9a','QFA615',144.8323,-37.6393,160.02,78.07,FALSE,171.28,-3.58,'1126',1551233219,0.9090909
'7c6d9a','QFA615',144.8331,-37.6437,145.68,78.5,FALSE,171.71,-3.9,'1126',1551233226,1.0000000
'7c6dd5','QFA434',144.8178,-37.6605,175.26,88.74,FALSE,274.32,13.98,'4324',1551233179,0.0000000
'7c6dd5','QFA434',144.8072,-37.6598,312.42,89.29,FALSE,274.63,16.26,'4324',1551233189,0.0625000
'7c6dd5','QFA434',144.7861,-37.6585,525.78,97.97,FALSE,273.91,5.85,'4324',1551233210,0.1250000
'7c6dd5','QFA434',144.774,-37.6578,594.36,106.81,FALSE,274.42,6.83,'4324',1551233220,0.1875000
'7c6dd5','QFA434',144.7616,-37.657,670.56,115.53,FALSE,274.09,8.45,'4324',1551233230,0.2500000
'7c6dd5','QFA434',144.748,-37.6562,792.48,120.7,FALSE,274.16,13.66,'4324',1551233240,0.3125000
'7c6dd5','QFA434',144.7342,-37.6555,914.4,125.35,FALSE,274.24,12.03,'4324',1551233249,0.3750000
'7c6dd5','QFA434',144.7192,-37.6546,1043.94,129.49,FALSE,274.33,13.66,'4324',1551233260,0.4375000
'7c6dd5','QFA434',144.7052,-37.6527,1188.72,131.02,FALSE,283.16,12.68,'4324',1551233270,0.5000000
'7c6dd5','QFA434',144.6924,-37.6484,1333.5,131.83,FALSE,296.67,11.7,'4324',1551233279,0.5625000
'7c6dd5','QFA434',144.681,-37.6407,1508.76,133.15,FALSE,315.63,14.96,'4324',1551233289,0.6250000
'7c6dd5','QFA434',144.6629,-37.6214,1836.42,135.82,FALSE,323.78,16.91,'4324',1551233309,0.6875000
'7c6dd5','QFA434',144.6529,-37.6106,2019.3,136.96,FALSE,323.86,16.58,'4324',1551233319,0.7500000
'7c6dd5','QFA434',144.644,-37.5999,2171.7,139.31,FALSE,329.36,12.35,'4324',1551233330,0.8125000
'7c6dd5','QFA434',144.6391,-37.5888,2308.86,143.03,FALSE,344.56,14.31,'4324',1551233339,0.8750000
'7c6dd5','QFA434',144.6381,-37.5751,2468.88,147.7,FALSE,1.6,16.58,'4324',1551233350,0.9375000
'7c6dd5','QFA434',144.6393,-37.5619,2613.66,149.62,FALSE,4.34,15.28,'4324',1551233359,1.0000000
'7c7c98','VOZ218',144.8167,-37.5557,647.7,101.85,FALSE,171.87,-4.88,'4342',1551233239,0.0000000
'7c7c98','VOZ218',144.8183,-37.5646,594.36,98.29,FALSE,171.57,-5.53,'4342',1551233249,0.1000000
'7c7c98','VOZ218',144.82,-37.5734,541.02,94.73,FALSE,171.25,-5.2,'4342',1551233259,0.2000000
'7c7c98','VOZ218',144.8215,-37.5809,495.3,91.17,FALSE,170.91,-4.55,'4342',1551233269,0.3000000
'7c7c98','VOZ218',144.823,-37.5893,449.58,86.14,FALSE,172.45,-4.55,'4342',1551233279,0.4000000
'7c7c98','VOZ218',144.8242,-37.596,411.48,82.14,FALSE,171.72,-3.58,'4342',1551233288,0.5000000
'7c7c98','VOZ218',144.8267,-37.6088,335.28,75.81,FALSE,172.2,-3.25,'4342',1551233306,0.6000000
'7c7c98','VOZ218',144.8279,-37.6151,251.46,73.85,FALSE,171.59,-5.53,'4342',1551233316,0.7000000
'7c7c98','VOZ218',144.8306,-37.63,213.36,74.35,FALSE,171.65,-4.23,'4342',1551233338,0.8000000
'7c7c98','VOZ218',144.832,-37.6371,167.64,74.43,FALSE,171.25,-2.93,'4342',1551233349,0.9000000
'7c7c98','VOZ218',144.833,-37.6424,137.16,75.88,FALSE,171.81,-3.58,'4342',1551233357,1.0000000
'7c4343','NKL',144.5693,-37.6354,701.04,49.47,FALSE,163.07,1.3,'1200',1551233378,0.0000000
'7c4343','NKL',144.5708,-37.64,701.04,48.29,FALSE,165.82,-0.65,'1200',1551233389,0.0270270
'7c4343','NKL',144.574,-37.648,701.04,48.24,FALSE,158.09,0,'1200',1551233408,0.0540541
'7c4343','NKL',144.5763,-37.6522,670.56,49.05,FALSE,155.85,-1.3,'1200',1551233419,0.0810811
'7c4343','NKL',144.5785,-37.6565,670.56,49.2,FALSE,158.53,-0.33,'1200',1551233429,0.1081081
'7c4343','NKL',144.5806,-37.6604,670.56,50.63,FALSE,154.74,-0.33,'1200',1551233439,0.1351351
'7c4343','NKL',144.5837,-37.6645,670.56,49.4,FALSE,144.32,0.33,'1200',1551233450,0.1621622
'7c4343','NKL',144.5869,-37.6679,670.56,48.05,FALSE,142.39,-0.33,'1200',1551233459,0.1891892
'7c4343','NKL',144.5901,-37.671,670.56,46.92,FALSE,142.13,0.33,'1200',1551233469,0.2162162
'7c4343','NKL',144.5939,-37.6744,670.56,48.02,FALSE,135,-2.93,'1200',1551233479,0.2432432
'7c4343','NKL',144.5973,-37.677,640.08,50.93,FALSE,135,-0.65,'1200',1551233488,0.2702703
'7c4343','NKL',144.604,-37.6847,670.56,47.87,FALSE,151.78,-0.33,'1200',1551233509,0.2972973
'7c4343','NKL',144.6061,-37.6886,670.56,47.51,FALSE,160.39,0.65,'1200',1551233519,0.3243243
'7c4343','NKL',144.6079,-37.6927,640.08,47.03,FALSE,160.18,-0.98,'1200',1551233529,0.3513514
'7c4343','NKL',144.6099,-37.6967,640.08,50.06,FALSE,157.65,-0.98,'1200',1551233539,0.3783784
'7c4343','NKL',144.612,-37.7009,640.08,48.53,FALSE,158.88,1.63,'1200',1551233549,0.4054054
'7c4343','NKL',144.6139,-37.7049,640.08,46.86,FALSE,160.77,0,'1200',1551233559,0.4324324
'7c4343','NKL',144.6156,-37.7088,640.08,46.72,FALSE,159.37,-0.33,'1200',1551233569,0.4594595
'7c4343','NKL',144.6178,-37.7127,640.08,45.12,FALSE,151.39,0.65,'1200',1551233579,0.4864865
'7c4343','NKL',144.6202,-37.7161,640.08,42.18,FALSE,150,1.95,'1200',1551233589,0.5135135
'7c4343','NKL',144.623,-37.7194,640.08,45.39,FALSE,141.44,-2.28,'1200',1551233599,0.5405405
'7c4343','NKL',144.629,-37.7261,640.08,46.14,FALSE,149.15,0.98,'1200',1551233619,0.5675676
'7c4343','NKL',144.6317,-37.7299,640.08,46.48,FALSE,152.3,-0.33,'1200',1551233629,0.5945946
'7c4343','NKL',144.6337,-37.7337,609.6,49.62,FALSE,160.63,-2.93,'1200',1551233639,0.6216216
'7c4343','NKL',144.6356,-37.7378,640.08,47.1,FALSE,158.2,2.6,'1200',1551233649,0.6486486
'7c4343','NKL',144.638,-37.7415,640.08,44.42,FALSE,151.65,0.33,'1200',1551233659,0.6756757
'7c4343','NKL',144.6405,-37.7453,640.08,46.03,FALSE,152,-0.98,'1200',1551233670,0.7027027
'7c4343','NKL',144.6427,-37.7487,640.08,46.01,FALSE,153.43,0.33,'1200',1551233679,0.7297297
'7c4343','NKL',144.6448,-37.7527,640.08,45.4,FALSE,160.13,0.33,'1200',1551233689,0.7567568
'7c4343','NKL',144.6493,-37.7596,640.08,46.72,FALSE,151.74,-0.65,'1200',1551233708,0.7837838
'7c4343','NKL',144.6522,-37.7634,609.6,46.52,FALSE,147.19,-2.93,'1200',1551233719,0.8108108
'7c4343','NKL',144.655,-37.7666,579.12,48.15,FALSE,143.25,-0.65,'1200',1551233728,0.8378378
'7c4343','NKL',144.6585,-37.7704,579.12,46.23,FALSE,145.43,-0.98,'1200',1551233739,0.8648649
'7c4343','NKL',144.6612,-37.7738,579.12,45.97,FALSE,148.27,-2.28,'1200',1551233748,0.8918919
'7c4343','NKL',144.6639,-37.7772,548.64,46.8,FALSE,146.66,-2.28,'1200',1551233758,0.9189189
'7c4343','NKL',144.6675,-37.7813,518.16,46.23,FALSE,145.43,-1.3,'1200',1551233770,0.9459459
'7c4343','NKL',144.6701,-37.7848,518.16,46.03,FALSE,152,-0.98,'1200',1551233780,0.9729730
'7c4343','NKL',144.6723,-37.7882,487.68,46.03,FALSE,152,-0.98,'1200',1551233789,1.0000000
'780f39','CES739',144.816,-37.5521,685.8,88.32,FALSE,171.96,-4.55,'5026',1551233416,0.0000000
'780f39','CES739',144.8176,-37.5613,624.84,85.19,FALSE,172.02,-4.55,'5026',1551233429,0.0833333
'780f39','CES739',144.8191,-37.569,586.74,83.82,FALSE,171.17,-2.93,'5026',1551233439,0.1666667
'780f39','CES739',144.8206,-37.5769,541.02,84.25,FALSE,171.57,-4.88,'5026',1551233450,0.2500000
'780f39','CES739',144.822,-37.5842,502.92,83.31,FALSE,171.12,-4.23,'5026',1551233459,0.3333333
'780f39','CES739',144.8233,-37.5913,457.2,83.74,FALSE,171.52,-4.23,'5026',1551233469,0.4166667
'780f39','CES739',144.8247,-37.599,403.86,82.65,FALSE,171.77,-5.53,'5026',1551233480,0.5000000
'780f39','CES739',144.8256,-37.6032,381,80.35,FALSE,170.42,-4.55,'5026',1551233485,0.5833333
'780f39','CES739',144.8282,-37.6161,289.56,80.1,FALSE,171.51,-4.55,'5026',1551233503,0.6666667
'780f39','CES739',144.8302,-37.627,243.84,80.54,FALSE,171.92,-2.93,'5026',1551233518,0.7500000
'780f39','CES739',144.8317,-37.6347,198.12,79.09,FALSE,171.4,-3.58,'5026',1551233529,0.8333333
'780f39','CES739',144.8329,-37.6415,160.02,80.03,FALSE,171.87,-3.9,'5026',1551233539,0.9166667
'780f39','CES739',144.8332,-37.6437,99.06,80.03,FALSE,171.87,-4.55,'5026',1551233542,1.0000000
'7c6a57','AM319',144.9039,-37.7865,464.82,79.39,FALSE,3.72,-3.9,'4350',1551233519,0.0000000
'7c6a57','AM319',144.9039,-37.7798,426.72,79.27,FALSE,358.14,-3.25,'4350',1551233528,0.1111111
'7c6a57','AM319',144.9035,-37.7718,381,80.42,FALSE,356.33,-5.53,'4350',1551233539,0.2222222
'7c6a57','AM319',144.9029,-37.7654,320.04,76.28,FALSE,356.52,-7.48,'4350',1551233548,0.3333333
'7c6a57','AM319',144.9024,-37.7584,259.08,71.06,FALSE,357.51,-4.23,'4350',1551233559,0.4444444
'7c6a57','AM319',144.9022,-37.7525,213.36,63.82,FALSE,358.15,-6.5,'4350',1551233569,0.5555556
'7c6a57','AM319',144.902,-37.7475,144.78,61.25,FALSE,358.07,-6.5,'4350',1551233578,0.6666667
'7c6a57','AM319',144.9018,-37.7423,99.06,58.68,FALSE,357.99,-5.53,'4350',1551233587,0.7777778
'7c6a57','AM319',144.9015,-37.7376,60.96,56.7,FALSE,356.36,-2.6,'4350',1551233597,0.8888889
'7c6a57','AM319',144.9014,-37.7343,38.1,56.7,FALSE,356.36,-2.6,'4350',1551233603,1.0000000
'7c6b0f','JST793',144.8182,-37.563,624.84,92.62,FALSE,171.37,-3.9,'1166',1551233619,0.0000000
'7c6b0f','JST793',144.8196,-37.5704,563.88,90.43,FALSE,171.82,-5.85,'1166',1551233629,0.0909091
'7c6b0f','JST793',144.8211,-37.5786,525.78,85.85,FALSE,171.38,-3.58,'1166',1551233638,0.1818182
'7c6b0f','JST793',144.8228,-37.5871,472.44,81.2,FALSE,171.25,-4.88,'1166',1551233649,0.2727273
'7c6b0f','JST793',144.8239,-37.5931,434.34,76.97,FALSE,171.54,-4.88,'1166',1551233659,0.3636364
'7c6b0f','JST793',144.8252,-37.6003,388.62,74.35,FALSE,171.65,-3.9,'1166',1551233669,0.4545455
'7c6b0f','JST793',144.8258,-37.6038,373.38,72.91,FALSE,171.07,-2.93,'1166',1551233674,0.5454545
'7c6b0f','JST793',144.8274,-37.613,320.04,72.1,FALSE,172.62,-3.9,'1166',1551233689,0.6363636
'7c6b0f','JST793',144.8282,-37.6175,266.7,72.17,FALSE,172.22,-3.58,'1166',1551233695,0.7272727
'7c6b0f','JST793',144.8311,-37.6327,205.74,72.17,FALSE,172.22,-3.58,'1166',1551233719,0.8181818
'7c6b0f','JST793',144.8321,-37.6385,175.26,72.75,FALSE,171.87,-2.6,'1166',1551233729,0.9090909
'7c6b0f','JST793',144.8328,-37.6418,152.4,73.34,FALSE,171.53,-4.23,'1166',1551233734,1.0000000
'7c6cda','VSC',144.5697,-37.757,358.14,49.34,FALSE,129.5,-0.33,'1200',1551233709,0.0000000
'7c6cda','VSC',144.5739,-37.7598,373.38,47.38,FALSE,131.48,0.98,'1200',1551233719,0.0344828
'7c6cda','VSC',144.5782,-37.7629,381,49.22,FALSE,131.19,1.63,'1200',1551233730,0.0689655
'7c6cda','VSC',144.5824,-37.7658,381,50,FALSE,130.41,0.33,'1200',1551233739,0.1034483
'7c6cda','VSC',144.5869,-37.7689,388.62,50.28,FALSE,131.68,0.98,'1200',1551233750,0.1379310
'7c6cda','VSC',144.5908,-37.7718,396.24,50.63,FALSE,132.12,-0.65,'1200',1551233759,0.1724138
'7c6cda','VSC',144.5955,-37.7752,381,53.53,FALSE,132.27,-1.95,'1200',1551233770,0.2068966
'7c6cda','VSC',144.5998,-37.7781,388.62,52.63,FALSE,129.45,0.33,'1200',1551233779,0.2413793
'7c6cda','VSC',144.6046,-37.7812,388.62,53.11,FALSE,128.31,-1.63,'1200',1551233790,0.2758621
'7c6cda','VSC',144.6139,-37.7865,388.62,54.53,FALSE,121.89,3.9,'1200',1551233808,0.3103448
'7c6cda','VSC',144.6197,-37.7892,411.48,52.07,FALSE,119.6,0,'1200',1551233820,0.3448276
'7c6cda','VSC',144.9331,-37.7877,396.24,47.33,FALSE,0.62,-1.3,'0100',1551234619,0.3793103
'7c6cda','VSC',144.9331,-37.7834,396.24,47.33,FALSE,0,-0.33,'0100',1551234630,0.4137931
'7c6cda','VSC',144.9332,-37.7794,396.24,46.33,FALSE,1.91,0.33,'0100',1551234639,0.4482759
'7c6cda','VSC',144.9335,-37.775,403.86,46.48,FALSE,5.08,0,'0100',1551234650,0.4827586
'7c6cda','VSC',144.934,-37.7709,403.86,47.04,FALSE,5.65,0,'0100',1551234659,0.5172414
'7c6cda','VSC',144.9345,-37.7667,396.24,47.47,FALSE,4.35,0,'0100',1551234670,0.5517241
'7c6cda','VSC',144.9349,-37.7623,388.62,45.89,FALSE,3.86,-0.98,'0100',1551234679,0.5862069
'7c6cda','VSC',144.9352,-37.7586,381,38.6,FALSE,1.53,0.33,'0100',1551234689,0.6206897
'7c6cda','VSC',144.9353,-37.7552,358.14,37.56,FALSE,0.78,-3.25,'0100',1551234700,0.6551724
'7c6cda','VSC',144.9355,-37.7482,304.8,41.16,FALSE,0.72,-3.9,'0100',1551234720,0.6896552
'7c6cda','VSC',144.9359,-37.7444,266.7,40.34,FALSE,5.86,-3.25,'0100',1551234730,0.7241379
'7c6cda','VSC',144.9364,-37.7409,236.22,38.75,FALSE,5.33,-2.93,'0100',1551234740,0.7586207
'7c6cda','VSC',144.9365,-37.7379,213.36,40.13,FALSE,359.27,-2.93,'0100',1551234749,0.7931034
'7c6cda','VSC',144.9362,-37.7339,182.88,41.18,FALSE,357.85,-3.9,'0100',1551234759,0.8275862
'7c6cda','VSC',144.9344,-37.7309,167.64,35.66,FALSE,316.17,-0.33,'0100',1551234769,0.8620690
'7c6cda','VSC',144.9309,-37.7299,144.78,33.95,FALSE,270,-2.28,'0100',1551234779,0.8965517
'7c6cda','VSC',144.9264,-37.7303,114.3,38.24,FALSE,264.6,-2.6,'0100',1551234790,0.9310345
'7c6cda','VSC',144.9211,-37.7306,68.58,34.5,FALSE,267.44,-3.58,'0100',1551234803,0.9655172
'7c6cda','VSC',144.9155,-37.7307,38.1,34.47,FALSE,269.14,-2.93,'0100',1551234817,1.0000000
'7c5cda','SMK',144.9319,-37.7811,350.52,62.76,FALSE,0,-3.9,'0100',1551233708,0.0000000
'7c5cda','SMK',144.9321,-37.7746,297.18,64.31,FALSE,0.92,-5.85,'0100',1551233719,0.0909091
'7c5cda','SMK',144.9325,-37.7686,266.7,63.75,FALSE,6.95,-4.23,'0100',1551233729,0.1818182
'7c5cda','SMK',144.9336,-37.7632,228.6,62.16,FALSE,10.01,-3.58,'0100',1551233739,0.2727273
'7c5cda','SMK',144.9349,-37.7584,213.36,60.39,FALSE,13.8,-0.98,'0100',1551233748,0.3636364
'7c5cda','SMK',144.9365,-37.7526,190.5,59.54,FALSE,9.95,-1.3,'0100',1551233759,0.4545455
'7c5cda','SMK',144.9374,-37.7475,190.5,52.9,FALSE,7.26,-0.65,'0100',1551233769,0.5454545
'7c5cda','SMK',144.938,-37.743,182.88,46.37,FALSE,3.18,0,'0100',1551233779,0.6363636
'7c5cda','SMK',144.938,-37.7415,175.26,42.5,FALSE,353.05,-0.65,'0100',1551233783,0.7272727
'7c5cda','SMK',144.9351,-37.732,106.68,40.85,FALSE,319.09,-3.58,'0100',1551233809,0.8181818
'7c5cda','SMK',144.9266,-37.7305,76.2,40.67,FALSE,267.83,-2.93,'0100',1551233828,0.9090909
'7c5cda','SMK',144.9214,-37.7306,53.34,40.64,FALSE,269.27,-3.9,'0100',1551233839,1.0000000
'7c7fe8','ZJU',144.9008,-37.7309,83.82,39.13,FALSE,182.26,2.93,'0100',1551233730,0.0000000
'7c7fe8','ZJU',144.9007,-37.7337,106.68,39.13,FALSE,182.26,3.9,'0100',1551233738,0.0769231
'7c7fe8','ZJU',144.9003,-37.7378,167.64,37.84,FALSE,187.03,4.23,'0100',1551233750,0.1538462
'7c7fe8','ZJU',144.8998,-37.7407,198.12,38.29,FALSE,186.17,2.93,'0100',1551233758,0.2307692
'7c7fe8','ZJU',144.8994,-37.7445,228.6,38.19,FALSE,184.64,2.6,'0100',1551233770,0.3076923
'7c7fe8','ZJU',144.8991,-37.7481,251.46,40.29,FALSE,185.13,3.58,'0100',1551233779,0.3846154
'7c7fe8','ZJU',144.8987,-37.7519,289.56,39.7,FALSE,183.72,2.93,'0100',1551233790,0.4615385
'7c7fe8','ZJU',144.8982,-37.7585,365.76,38.19,FALSE,184.64,3.58,'0100',1551233809,0.5384615
'7c7fe8','ZJU',144.8978,-37.7622,388.62,41.7,FALSE,182.12,-0.98,'0100',1551233820,0.6153846
'7c7fe8','ZJU',144.8976,-37.766,396.24,46.4,FALSE,183.81,0.65,'0100',1551233829,0.6923077
'7c7fe8','ZJU',144.8971,-37.7707,396.24,52.21,FALSE,185.65,0.33,'0100',1551233839,0.7692308
'7c7fe8','ZJU',144.8966,-37.7753,403.86,52.6,FALSE,183.93,0.33,'0100',1551233849,0.8461538
'7c7fe8','ZJU',144.8961,-37.7803,411.48,55.71,FALSE,184.24,0.65,'0100',1551233859,0.9230769
'7c7fe8','ZJU',144.8957,-37.785,411.48,57.7,FALSE,183.07,-1.3,'0100',1551233869,1.0000000
'a09fc4','UAL99',144.8425,-37.6933,213.36,100.4,FALSE,171.45,13.33,'1323',1551233727,0.0000000
'a09fc4','UAL99',144.8445,-37.7042,373.38,99.75,FALSE,172,13.33,'1323',1551233739,0.0303030
'a09fc4','UAL99',144.8461,-37.7136,480.06,100.69,FALSE,172.37,7.15,'1323',1551233750,0.0606061
'a09fc4','UAL99',144.8476,-37.7224,533.4,104.77,FALSE,172.67,5.85,'1323',1551233759,0.0909091
'a09fc4','UAL99',144.8492,-37.7324,579.12,111.61,FALSE,172.32,3.58,'1323',1551233770,0.1212121
'a09fc4','UAL99',144.8503,-37.7422,601.98,117.83,FALSE,179,1.95,'1323',1551233779,0.1515152
'a09fc4','UAL99',144.848,-37.7537,647.7,123.34,FALSE,197.23,6.18,'1323',1551233790,0.1818182
'a09fc4','UAL99',144.8318,-37.77,746.76,126.84,FALSE,236.25,6.5,'1323',1551233809,0.2121212
'a09fc4','UAL99',144.8177,-37.7747,830.58,127.52,FALSE,255.52,9.43,'1323',1551233820,0.2424242
'a09fc4','UAL99',144.8041,-37.7753,922.02,129.11,FALSE,275.03,9.43,'1323',1551233829,0.2727273
'a09fc4','UAL99',144.7885,-37.7719,1013.46,132.41,FALSE,291.18,9.75,'1323',1551233840,0.3030303
'a09fc4','UAL99',144.7756,-37.7679,1104.9,134.04,FALSE,291.15,11.38,'1323',1551233849,0.3333333
'a09fc4','UAL99',144.7598,-37.7633,1234.44,135.38,FALSE,289.54,13.33,'1323',1551233860,0.3636364
'a09fc4','UAL99',144.7469,-37.7597,1356.36,135.69,FALSE,289.26,13.66,'1323',1551233869,0.3939394
'a09fc4','UAL99',144.7314,-37.7555,1485.9,136.49,FALSE,288.91,13,'1323',1551233880,0.4242424
'a09fc4','UAL99',144.7173,-37.7516,1607.82,136.98,FALSE,288.84,13,'1323',1551233889,0.4545455
'a09fc4','UAL99',144.7015,-37.7473,1737.36,137.8,FALSE,289.18,12.68,'1323',1551233900,0.4848485
'a09fc4','UAL99',144.6723,-37.7383,1973.58,139.69,FALSE,297.89,12.03,'1323',1551233920,0.5151515
'a09fc4','UAL99',144.6603,-37.7303,2087.88,141.52,FALSE,315.74,12.35,'1323',1551233930,0.5454545
'a09fc4','UAL99',144.6523,-37.7194,2202.18,145.03,FALSE,337.26,11.05,'1323',1551233939,0.5757576
'a09fc4','UAL99',144.649,-37.7063,2293.62,150.06,FALSE,356.07,9.1,'1323',1551233949,0.6060606
'a09fc4','UAL99',144.6511,-37.6926,2346.96,158.87,FALSE,15.21,3.25,'1323',1551233960,0.6363636
'a09fc4','UAL99',144.6583,-37.6793,2385.06,165.65,FALSE,29.59,4.55,'1323',1551233969,0.6666667
'a09fc4','UAL99',144.6683,-37.669,2430.78,172.07,FALSE,44.39,5.2,'1323',1551233978,0.6969697
'a09fc4','UAL99',144.6859,-37.6571,2476.5,178.51,FALSE,52.96,2.93,'1323',1551233990,0.7272727
'a09fc4','UAL99',144.7018,-37.6476,2499.36,184.9,FALSE,52.46,4.23,'1323',1551233999,0.7575758
'a09fc4','UAL99',144.7355,-37.6273,2621.28,192.92,FALSE,53.13,7.8,'1323',1551234019,0.7878788
'a09fc4','UAL99',144.7551,-37.6157,2712.72,196.31,FALSE,53.31,8.45,'1323',1551234030,0.8181818
'a09fc4','UAL99',144.7711,-37.6062,2788.92,198.47,FALSE,53.22,9.1,'1323',1551234039,0.8484848
'a09fc4','UAL99',144.791,-37.5944,2887.98,200.63,FALSE,53.13,11.05,'1323',1551234050,0.8787879
'a09fc4','UAL99',144.8085,-37.584,2994.66,201.77,FALSE,53.19,12.35,'1323',1551234059,0.9090909
'a09fc4','UAL99',144.8269,-37.5729,3116.58,202.6,FALSE,52.64,12.35,'1323',1551234069,0.9393939
'a09fc4','UAL99',144.8449,-37.5619,3230.88,203.22,FALSE,52.4,11.7,'1323',1551234079,0.9696970
'a09fc4','UAL99',144.8633,-37.5506,3337.56,203.82,FALSE,52.9,12.35,'1323',1551234090,1.0000000
'7c6d2e','VOZ838',144.8433,-37.5526,731.52,90.22,FALSE,245.04,-3.9,'3613',1551233758,0.0000000
'7c6d2e','VOZ838',144.8332,-37.5562,685.8,87.02,FALSE,245.56,-5.2,'3613',1551233769,0.0909091
'7c6d2e','VOZ838',144.8252,-37.5606,655.32,85.01,FALSE,231.88,-5.85,'3613',1551233779,0.1818182
'7c6d2e','VOZ838',144.8205,-37.5677,609.6,82.98,FALSE,199.56,-6.5,'3613',1551233790,0.2727273
'7c6d2e','VOZ838',144.8215,-37.5812,518.16,79.16,FALSE,171.03,-3.9,'3613',1551233809,0.3636364
'7c6d2e','VOZ838',144.8229,-37.5887,472.44,79.16,FALSE,171.03,-4.23,'3613',1551233820,0.4545455
'7c6d2e','VOZ838',144.8242,-37.5951,441.96,76.9,FALSE,171.92,-3.58,'3613',1551233829,0.5454545
'7c6d2e','VOZ838',144.8255,-37.6024,388.62,74.35,FALSE,171.65,-3.25,'3613',1551233840,0.6363636
'7c6d2e','VOZ838',144.8264,-37.6079,358.14,74.21,FALSE,172.43,-4.88,'3613',1551233848,0.7272727
'7c6d2e','VOZ838',144.828,-37.6159,312.42,75.45,FALSE,171.37,-4.23,'3613',1551233860,0.8181818
'7c6d2e','VOZ838',144.8317,-37.6358,182.88,75.88,FALSE,171.81,-4.55,'3613',1551233889,0.9090909
'7c6d2e','VOZ838',144.8329,-37.6425,137.16,76.47,FALSE,171.49,-3.9,'3613',1551233899,1.0000000
'7c4923','QFA35',144.8429,-37.6962,243.84,80.69,FALSE,171.2,7.48,'1377',1551233919,0.0000000
'7c4923','QFA35',144.8443,-37.7035,312.42,81.12,FALSE,171.61,6.83,'1377',1551233929,0.0434783
'7c4923','QFA35',144.8457,-37.7109,373.38,82.8,FALSE,171.06,4.55,'1377',1551233939,0.0869565
'7c4923','QFA35',144.8472,-37.7183,419.1,84.83,FALSE,171.28,5.2,'1377',1551233949,0.1304348
'7c4923','QFA35',144.8486,-37.7264,472.44,88.83,FALSE,172.01,1.95,'1377',1551233960,0.1739130
'7c4923','QFA35',144.8499,-37.7342,487.68,95.33,FALSE,173.18,2.6,'1377',1551233969,0.2173913
'7c4923','QFA35',144.8498,-37.7429,518.16,101.41,FALSE,190.23,3.58,'1377',1551233979,0.2608696
'7c4923','QFA35',144.8452,-37.7525,571.5,107.81,FALSE,211.34,5.2,'1377',1551233990,0.3043478
'7c4923','QFA35',144.8381,-37.7594,601.98,112.48,FALSE,227.04,2.93,'1377',1551233999,0.3478261
'7c4923','QFA35',144.8142,-37.7651,754.38,112.5,FALSE,277.09,12.68,'1377',1551234019,0.3913043
'7c4923','QFA35',144.8022,-37.7626,883.92,110.82,FALSE,287,13.33,'1377',1551234029,0.4347826
'7c4923','QFA35',144.7902,-37.7598,1013.46,110.73,FALSE,285.91,12.68,'1377',1551234039,0.4782609
'7c4923','QFA35',144.7775,-37.757,1135.38,112.08,FALSE,285.44,9.43,'1377',1551234049,0.5217391
'7c4923','QFA35',144.7651,-37.7543,1211.58,116.42,FALSE,284.59,5.2,'1377',1551234059,0.5652174
'7c4923','QFA35',144.7509,-37.7514,1264.92,123.41,FALSE,284.73,4.88,'1377',1551234070,0.6086957
'7c4923','QFA35',144.7375,-37.7486,1318.26,129.14,FALSE,284.53,5.53,'1377',1551234079,0.6521739
'7c4923','QFA35',144.7231,-37.7457,1371.6,135.51,FALSE,284.51,4.55,'1377',1551234089,0.6956522
'7c4923','QFA35',144.7101,-37.743,1409.7,141.87,FALSE,284.49,4.55,'1377',1551234098,0.7391304
'7c4923','QFA35',144.6753,-37.7356,1516.38,154.27,FALSE,285.47,4.23,'1377',1551234119,0.7826087
'7c4923','QFA35',144.6578,-37.7318,1554.48,159.86,FALSE,285.11,4.23,'1377',1551234129,0.8260870
'7c4923','QFA35',144.6409,-37.7282,1600.2,166.22,FALSE,285.07,3.9,'1377',1551234139,0.8695652
'7c4923','QFA35',144.6231,-37.7244,1645.92,170.46,FALSE,285.04,8.78,'1377',1551234148,0.9130435
'7c4923','QFA35',144.603,-37.7196,1767.84,171.82,FALSE,289.41,11.7,'1377',1551234159,0.9565217
'7c4923','QFA35',144.5863,-37.714,1874.52,172.57,FALSE,295.8,13.33,'1377',1551234168,1.0000000
'7c6db1','QFA431',144.8328,-37.5574,655.32,104.1,FALSE,246.1,-5.53,'3702',1551233920,0.0000000
'7c6db1','QFA431',144.8245,-37.5619,609.6,99.95,FALSE,231.48,-3.58,'3702',1551233929,0.0909091
'7c6db1','QFA431',144.8194,-37.5703,579.12,96.22,FALSE,200.66,-1.63,'3702',1551233940,0.1818182
'7c6db1','QFA431',144.82,-37.5785,518.16,93.93,FALSE,168.63,-5.53,'3702',1551233950,0.2727273
'7c6db1','QFA431',144.8224,-37.5865,464.82,88.68,FALSE,168.62,-5.53,'3702',1551233960,0.3636364
'7c6db1','QFA431',144.824,-37.5941,411.48,84.69,FALSE,171.97,-5.2,'3702',1551233970,0.4545455
'7c6db1','QFA431',144.825,-37.6003,373.38,80.79,FALSE,173.42,-5.53,'3702',1551233978,0.5454545
'7c6db1','QFA431',144.8261,-37.6073,335.28,80.98,FALSE,172.33,-4.23,'3702',1551233988,0.6363636
'7c6db1','QFA431',144.8278,-37.6151,297.18,78.5,FALSE,171.71,-3.58,'3702',1551233999,0.7272727
'7c6db1','QFA431',144.8292,-37.6231,251.46,79.52,FALSE,171.82,-3.25,'3702',1551234011,0.8181818
'7c6db1','QFA431',144.8317,-37.6362,182.88,80.61,FALSE,171.56,-4.23,'3702',1551234029,0.9090909
'7c6db1','QFA431',144.8329,-37.6427,144.78,81.71,FALSE,171.31,-3.9,'3702',1551234038,1.0000000
'7c1467','',144.8202,-37.6606,129.54,82.26,FALSE,276.1,14.31,'3635',1551234049,0.0000000
'7c1467','',144.8172,-37.6603,274.32,79.45,FALSE,277.82,12.68,'3635',1551234052,0.0625000
'7c1467','',144.8014,-37.6585,411.48,79.67,FALSE,278.91,12.03,'3635',1551234070,0.1250000
'7c1467','QFA769',144.7925,-37.6575,495.3,82.95,FALSE,277.13,4.55,'3635',1551234080,0.1875000
'7c1467','QFA769',144.7837,-37.6566,525.78,90.87,FALSE,277.81,2.93,'3635',1551234089,0.2500000
'7c1467','QFA769',144.7729,-37.6555,563.88,98.74,FALSE,275.68,6.18,'3635',1551234099,0.3125000
'7c1467','QFA769',144.7491,-37.6545,739.14,107.64,FALSE,272.74,12.03,'3635',1551234119,0.3750000
'7c1467','QFA769',144.7363,-37.6541,883.92,108.61,FALSE,271.9,15.28,'3635',1551234129,0.4375000
'7c1467','QFA769',144.7238,-37.6537,1021.08,110.13,FALSE,271.61,12.03,'3635',1551234139,0.5000000
'7c1467','QFA769',144.7121,-37.6534,1104.9,115.82,FALSE,272.04,8.45,'3635',1551234148,0.5625000
'7c1467','QFA769',144.6968,-37.6528,1165.86,126.68,FALSE,272.56,5.53,'3635',1551234159,0.6250000
'7c1467','QFA769',144.6833,-37.6523,1211.58,134.9,FALSE,272.4,5.85,'3635',1551234168,0.6875000
'7c1467','QFA769',144.6673,-37.6532,1249.68,146.06,FALSE,260.47,1.95,'3635',1551234178,0.7500000
'7c1467','QFA769',144.6501,-37.6569,1280.16,151.3,FALSE,250.95,3.25,'3635',1551234189,0.8125000
'7c1467','QFA769',144.6342,-37.6616,1303.02,152.34,FALSE,249.85,2.6,'3635',1551234199,0.8750000
'7c1467','QFA769',144.6008,-37.6712,1356.36,152.34,FALSE,249.85,2.93,'3635',1551234219,0.9375000
'7c1467','QFA769',144.5859,-37.6757,1379.22,152.52,FALSE,249.67,2.6,'3635',1551234229,1.0000000
'7c6a58','AM317',145.0945,-37.7264,906.78,113.69,FALSE,270.26,-6.18,'4337',1551234049,0.0000000
'7c6a58','AM317',145.0829,-37.7266,853.44,108.06,FALSE,268.64,-5.53,'4337',1551234059,0.0526316
'7c6a58','AM317',145.0691,-37.7268,792.48,103.42,FALSE,268.86,-6.5,'4337',1551234070,0.1052632
'7c6a58','AM317',145.0589,-37.727,739.14,100.88,FALSE,268.25,-6.18,'4337',1551234079,0.1578947
'7c6a58','AM317',145.0475,-37.7273,678.18,97.28,FALSE,268.18,-5.53,'4337',1551234089,0.2105263
'7c6a58','AM317',145.0374,-37.7276,647.7,92.16,FALSE,267.76,-3.58,'4337',1551234098,0.2631579
'7c6a58','AM317',145.0164,-37.7282,525.78,87.48,FALSE,268.65,-4.88,'4337',1551234119,0.3157895
'7c6a58','AM317',145.0067,-37.7284,480.06,81.81,FALSE,268.92,-3.9,'4337',1551234129,0.3684211
'7c6a58','AM317',144.9981,-37.7285,434.34,76.17,FALSE,268.45,-3.9,'4337',1551234139,0.4210526
'7c6a58','AM317',144.9901,-37.7287,396.24,73.59,FALSE,268.4,-3.58,'4337',1551234149,0.4736842
'7c6a58','AM317',144.982,-37.729,365.76,65.92,FALSE,267.32,-2.6,'4337',1551234159,0.5263158
'7c6a58','AM317',144.9748,-37.7292,327.66,62.8,FALSE,268.12,-5.2,'4337',1551234169,0.5789474
'7c6a58','AM317',144.9679,-37.7294,281.94,61.77,FALSE,268.09,-4.88,'4337',1551234179,0.6315789
'7c6a58','AM317',144.9612,-37.7296,243.84,59.2,FALSE,268.01,-3.9,'4337',1551234189,0.6842105
'7c6a58','AM317',144.9543,-37.7298,213.36,57.65,FALSE,267.95,-3.58,'4337',1551234199,0.7368421
'7c6a58','AM317',144.9413,-37.7301,160.02,57.12,FALSE,268.45,-3.58,'4337',1551234219,0.7894737
'7c6a58','AM317',144.9347,-37.7303,121.92,55.6,FALSE,267.88,-3.25,'4337',1551234230,0.8421053
'7c6a58','AM317',144.9311,-37.7304,106.68,54.06,FALSE,267.82,-3.9,'4337',1551234236,0.8947368
'7c6a58','AM317',144.9228,-37.7306,68.58,53.05,FALSE,267.22,-0.65,'4337',1551234249,0.9473684
'7c6a58','AM317',144.9214,-37.7306,38.1,52.51,FALSE,267.75,-3.25,'4337',1551234251,1.0000000
'7c4a1c','OXA',144.9346,-37.7887,396.24,65.34,FALSE,0.9,0.33,'0100',1551234098,0.0000000
'7c4a1c','OXA',144.9344,-37.7768,388.62,66.38,FALSE,358.67,0,'0100',1551234118,0.0322581
'7c4a1c','OXA',144.9343,-37.7704,388.62,67.44,FALSE,357.81,-0.65,'0100',1551234129,0.0645161
'7c4a1c','OXA',144.9341,-37.7654,388.62,66.3,FALSE,6.68,1.3,'0100',1551234137,0.0967742
'7c4a1c','OXA',144.937,-37.7597,411.48,64.62,FALSE,40.16,0.33,'0100',1551234148,0.1290323
'7c4a1c','OXA',144.9438,-37.7563,403.86,65.65,FALSE,74.55,0.33,'0100',1551234159,0.1612903
'7c4a1c','OXA',144.9509,-37.7564,403.86,65.93,FALSE,106.31,0.33,'0100',1551234168,0.1935484
'7c4a1c','OXA',144.9574,-37.7597,403.86,66.79,FALSE,139.69,0,'0100',1551234179,0.2258065
'7c4a1c','OXA',144.9604,-37.7652,396.24,67.32,FALSE,173.42,0,'0100',1551234189,0.2580645
'7c4a1c','OXA',144.9589,-37.771,403.86,67.21,FALSE,208.33,-0.33,'0100',1551234199,0.2903226
'7c4a1c','OXA',144.9447,-37.7753,396.24,68.98,FALSE,288.71,-0.33,'0100',1551234220,0.3225806
'7c4a1c','OXA',144.9396,-37.7723,396.24,65.97,FALSE,321.97,0,'0100',1551234229,0.3548387
'7c4a1c','OXA',144.9371,-37.7663,381,63.02,FALSE,354.85,0,'0100',1551234239,0.3870968
'7c4a1c','OXA',144.9371,-37.7612,350.52,60.27,FALSE,2.94,-2.93,'0100',1551234249,0.4193548
'7c4a1c','OXA',144.9376,-37.7556,312.42,58.32,FALSE,4.55,-4.55,'0100',1551234259,0.4516129
'7c4a1c','OXA',144.9382,-37.7508,289.56,56.41,FALSE,6.28,-2.6,'0100',1551234269,0.4838710
'7c4a1c','OXA',144.9391,-37.7455,266.7,51.81,FALSE,6.84,-2.28,'0100',1551234279,0.5161290
'7c4a1c','OXA',144.9396,-37.7414,251.46,48.58,FALSE,5.47,-1.3,'0100',1551234289,0.5483871
'7c4a1c','OXA',144.9402,-37.7365,259.08,52.12,FALSE,4.53,0.33,'0100',1551234300,0.5806452
'7c4a1c','OXA',144.9407,-37.728,281.94,54.54,FALSE,358.92,0.98,'0100',1551234317,0.6129032
'7c4a1c','OXA',144.9405,-37.7223,312.42,54.57,FALSE,357.84,1.3,'0100',1551234329,0.6451613
'7c4a1c','OXA',144.9402,-37.7176,312.42,56.19,FALSE,356.33,-0.98,'0100',1551234338,0.6774194
'7c4a1c','OXA',144.9396,-37.7124,320.04,56.31,FALSE,354.76,0.98,'0100',1551234349,0.7096774
'7c4a1c','OXA',144.9393,-37.7077,327.66,56.63,FALSE,357.92,0.98,'0100',1551234358,0.7419355
'7c4a1c','OXA',144.9381,-37.7033,335.28,54.85,FALSE,339.7,0.98,'0100',1551234367,0.7741935
'7c4a1c','OXA',144.937,-37.7022,335.28,52.58,FALSE,286.48,-0.98,'0100',1551234370,0.8064516
'7c4a1c','OXA',144.9261,-37.6998,289.56,56.1,FALSE,271.58,-4.23,'0100',1551234389,0.8387097
'7c4a1c','OXA',144.9198,-37.6999,281.94,53.52,FALSE,268.35,-0.98,'0100',1551234399,0.8709677
'7c4a1c','OXA',144.9084,-37.7009,236.22,51.08,FALSE,260.73,-1.95,'0100',1551234419,0.9032258
'7c4a1c','OXA',144.906,-37.7013,228.6,50.66,FALSE,260.06,-1.95,'0100',1551234423,0.9354839
'7c4a1c','OXA',144.9,-37.7059,167.64,45.7,FALSE,191.69,-4.55,'0100',1551234440,0.9677419
'7c4a1c','OXA',144.9001,-37.7096,137.16,45.93,FALSE,175.5,-3.9,'0100',1551234449,1.0000000
'7c7a3e','VOZ1368',144.8179,-37.6605,152.4,87.67,FALSE,274.04,14.63,'7206',1551234173,0.0000000
'7c7a3e','VOZ1368',144.8026,-37.6595,358.14,88.87,FALSE,275.31,11.38,'7206',1551234189,0.0555556
'7c7a3e','VOZ1368',144.792,-37.6588,487.68,91.48,FALSE,275.49,10.4,'7206',1551234199,0.1111111
'7c7a3e','VOZ1368',144.7692,-37.6575,617.22,107.36,FALSE,274.67,5.2,'7206',1551234219,0.1666667
'7c7a3e','VOZ1368',144.7573,-37.6569,678.18,115.49,FALSE,273.83,7.8,'7206',1551234229,0.2222222
'7c7a3e','VOZ1368',144.7428,-37.656,822.96,118.21,FALSE,274.74,14.31,'7206',1551234239,0.2777778
'7c7a3e','VOZ1368',144.7299,-37.6552,922.02,122.31,FALSE,274.58,9.43,'7206',1551234249,0.3333333
'7c7a3e','VOZ1368',144.7147,-37.6552,1028.7,127.82,FALSE,266.54,12.68,'7206',1551234260,0.3888889
'7c7a3e','VOZ1368',144.7018,-37.6583,1150.62,131.83,FALSE,248.24,16.58,'7206',1551234269,0.4444444
'7c7a3e','VOZ1368',144.6882,-37.6653,1310.64,135.82,FALSE,229.92,18.21,'7206',1551234279,0.5000000
'7c7a3e','VOZ1368',144.679,-37.6743,1447.8,138.55,FALSE,214.1,18.86,'7206',1551234289,0.5555556
'7c7a3e','VOZ1368',144.671,-37.6859,1623.06,138.57,FALSE,208.37,15.28,'7206',1551234300,0.6111111
'7c7a3e','VOZ1368',144.6552,-37.7059,1920.24,138.97,FALSE,213.98,14.31,'7206',1551234319,0.6666667
'7c7a3e','VOZ1368',144.646,-37.7171,2080.26,141.25,FALSE,211.14,18.86,'7206',1551234329,0.7222222
'7c7a3e','VOZ1368',144.6407,-37.7284,2225.04,143.74,FALSE,196.42,20.48,'7206',1551234338,0.7777778
'7c7a3e','VOZ1368',144.6397,-37.7416,2407.92,146.69,FALSE,178.19,19.18,'7206',1551234349,0.8333333
'7c7a3e','VOZ1368',144.6436,-37.7547,2575.56,149.34,FALSE,161.94,18.53,'7206',1551234359,0.8888889
'7c7a3e','VOZ1368',144.6517,-37.7665,2750.82,150.18,FALSE,148.16,18.53,'7206',1551234369,0.9444444
'7c7a3e','VOZ1368',144.6609,-37.7781,2926.08,149.2,FALSE,148.39,16.58,'7206',1551234379,1.0000000
'7c6d23','',144.8192,-37.6606,182.88,88.22,FALSE,274.35,13,'1361',1551234230,0.0000000
'7c6d23','',144.8093,-37.6599,312.42,90.92,FALSE,275.19,15.61,'1361',1551234239,0.0588235
'7c6d23','TGG562',144.7997,-37.6592,464.82,91.3,FALSE,274.2,13.33,'1361',1551234249,0.1176471
'7c6d23','TGG562',144.7882,-37.6585,579.12,98.52,FALSE,274.19,6.18,'1361',1551234260,0.1764706
'7c6d23','TGG562',144.7778,-37.6579,640.08,107.32,FALSE,274.4,10.08,'1361',1551234269,0.2352941
'7c6d23','TGG562',144.7638,-37.657,723.9,116.63,FALSE,274.55,9.1,'1361',1551234279,0.2941176
'7c6d23','TGG562',144.7513,-37.6562,876.3,119.24,FALSE,274.7,17.88,'1361',1551234289,0.3529412
'7c6d23','TGG562',144.7368,-37.6553,1013.46,124.96,FALSE,274.96,11.7,'1361',1551234299,0.4117647
'7c6d23','TGG562',144.7091,-37.6534,1325.88,130.01,FALSE,274.31,20.16,'1361',1551234318,0.4705882
'7c6d23','TGG562',144.6941,-37.6526,1516.38,131.44,FALSE,273.59,18.53,'1361',1551234329,0.5294118
'7c6d23','TGG562',144.6794,-37.6516,1684.02,133.58,FALSE,278.19,19.83,'1361',1551234338,0.5882353
'7c6d23','TGG562',144.6628,-37.6467,1920.24,134.63,FALSE,295.1,19.83,'1361',1551234350,0.6470588
'7c6d23','TGG562',144.6518,-37.6393,2087.88,138.7,FALSE,317.25,17.56,'1361',1551234360,0.7058824
'7c6d23','TGG562',144.6437,-37.6289,2255.52,143.28,FALSE,336.29,18.86,'1361',1551234369,0.7647059
'7c6d23','TGG562',144.6394,-37.617,2446.02,144.41,FALSE,347.45,23.08,'1361',1551234379,0.8235294
'7c6d23','TGG562',144.6358,-37.6043,2628.9,146.76,FALSE,347.04,16.58,'1361',1551234389,0.8823529
'7c6d23','TGG562',144.6314,-37.5897,2781.3,151.35,FALSE,346.44,13.33,'1361',1551234400,0.9411765
'7c6d23','TGG562',144.6264,-37.5622,3093.72,159.72,FALSE,3.14,14.96,'1361',1551234420,1.0000000
'7c752b','VOZ685',144.8189,-37.6605,190.5,82.03,FALSE,274.32,14.96,'3277',1551234297,0.0000000
'7c752b','VOZ685',144.8003,-37.6593,441.96,79.04,FALSE,275.23,8.13,'3277',1551234318,0.0666667
'7c752b','VOZ685',144.7898,-37.6585,487.68,87.33,FALSE,275.41,3.25,'3277',1551234329,0.1333333
'7c752b','VOZ685',144.7809,-37.6579,510.54,92.97,FALSE,275.08,1.63,'3277',1551234338,0.2000000
'7c752b','VOZ685',144.7688,-37.6571,533.4,102.7,FALSE,274.6,1.63,'3277',1551234349,0.2666667
'7c752b','VOZ685',144.7571,-37.6563,571.5,111.98,FALSE,274.48,3.58,'3277',1551234359,0.3333333
'7c752b','VOZ685',144.7442,-37.6555,640.08,118.68,FALSE,274.47,7.48,'3277',1551234369,0.4000000
'7c752b','VOZ685',144.731,-37.6547,701.04,125.43,FALSE,274.71,5.85,'3277',1551234378,0.4666667
'7c752b','VOZ685',144.7159,-37.6539,784.86,130.96,FALSE,273.83,9.43,'3277',1551234388,0.5333333
'7c752b','VOZ685',144.6997,-37.653,853.44,138.73,FALSE,274.04,7.48,'3277',1551234399,0.6000000
'7c752b','VOZ685',144.6668,-37.6512,998.22,150.25,FALSE,274.91,9.75,'3277',1551234419,0.6666667
'7c752b','VOZ685',144.6504,-37.6489,1082.04,154.47,FALSE,281.72,9.43,'3277',1551234429,0.7333333
'7c752b','VOZ685',144.6328,-37.6443,1165.86,159.02,FALSE,290.25,10.08,'3277',1551234439,0.8000000
'7c752b','VOZ685',144.6146,-37.6383,1264.92,164.03,FALSE,292.3,11.05,'3277',1551234449,0.8666667
'7c752b','VOZ685',144.5988,-37.6331,1424.94,164.03,FALSE,292.3,18.86,'3277',1551234459,0.9333333
'7c752b','VOZ685',144.5814,-37.6274,1600.2,162.8,FALSE,292.68,18.86,'3277',1551234469,1.0000000
'7c4a46','',144.8719,-37.736,243.84,83.07,FALSE,231.28,7.8,'3603',1551234418,0.0000000
'7c4a46','SH805',144.8673,-37.7413,304.8,83.9,FALSE,203.11,10.4,'3603',1551234427,0.1250000
'7c4a46','SH805',144.8661,-37.7506,441.96,82.23,FALSE,169.18,9.75,'3603',1551234440,0.2500000
'7c4a46','SH805',144.8702,-37.7576,533.4,83.2,FALSE,145.33,11.38,'3603',1551234450,0.3750000
'7c4a46','SH805',144.8756,-37.7638,601.98,86.19,FALSE,145.46,5.85,'3603',1551234460,0.5000000
'7c4a46','SH805',144.8806,-37.7698,655.32,89.46,FALSE,146.49,6.5,'3603',1551234469,0.6250000
'7c4a46','SH805',144.8872,-37.7768,731.52,91.76,FALSE,140.69,9.43,'3603',1551234480,0.7500000
'7c4a46','SH805',144.8938,-37.783,830.58,90.17,FALSE,139.86,10.73,'3603',1551234489,0.8750000
'7c4a46','SH805',144.9002,-37.7893,937.26,88.81,FALSE,144.19,9.43,'3603',1551234500,1.0000000
'7c7a49','',144.82,-37.6605,160.02,85.75,FALSE,275.16,14.63,'3627',1551234419,0.0000000
'7c7a49','VOZ845',144.8101,-37.6599,312.42,86.17,FALSE,274.45,14.31,'3627',1551234429,0.0555556
'7c7a49','VOZ845',144.7999,-37.6591,457.2,87.33,FALSE,275.41,13.33,'3627',1551234440,0.1111111
'7c7a49','VOZ845',144.7892,-37.6584,556.26,92.92,FALSE,274.76,9.75,'3627',1551234450,0.1666667
'7c7a49','VOZ845',144.7788,-37.6577,624.84,100.14,FALSE,274.71,6.83,'3627',1551234460,0.2222222
'7c7a49','VOZ845',144.7674,-37.6569,701.04,106.29,FALSE,274.44,9.1,'3627',1551234469,0.2777778
'7c7a49','VOZ845',144.7546,-37.6562,800.1,110.91,FALSE,274.26,9.1,'3627',1551234480,0.3333333
'7c7a49','VOZ845',144.7415,-37.6555,883.92,117.55,FALSE,273.76,7.8,'3627',1551234490,0.3888889
'7c7a49','VOZ845',144.7275,-37.6548,975.36,124.7,FALSE,273.31,10.4,'3627',1551234500,0.4444444
'7c7a49','VOZ845',144.7003,-37.6534,1226.82,130.01,FALSE,274.31,17.23,'3627',1551234518,0.5000000
'7c7a49','VOZ845',144.6861,-37.6523,1402.08,129.47,FALSE,276.62,17.56,'3627',1551234528,0.5555556
'7c7a49','VOZ845',144.6722,-37.6489,1546.86,131.07,FALSE,292.14,13,'3627',1551234538,0.6111111
'7c7a49','VOZ845',144.6592,-37.6413,1722.12,132.14,FALSE,310.26,18.53,'3627',1551234549,0.6666667
'7c7a49','VOZ845',144.6498,-37.6313,1897.38,134.41,FALSE,325.76,16.58,'3627',1551234559,0.7222222
'7c7a49','VOZ845',144.6438,-37.6199,2042.16,138.63,FALSE,340.49,15.61,'3627',1551234569,0.7777778
'7c7a49','VOZ845',144.6391,-37.608,2186.94,140.25,FALSE,342.5,14.96,'3627',1551234579,0.8333333
'7c7a49','VOZ845',144.6344,-37.5959,2346.96,141.76,FALSE,343.34,16.58,'3627',1551234589,0.8888889
'7c7a49','VOZ845',144.6299,-37.5837,2484.12,143.74,FALSE,343.58,14.31,'3627',1551234599,0.9444444
'7c7a49','VOZ845',144.625,-37.5581,2735.58,152.8,FALSE,0.77,13.98,'3627',1551234618,1.0000000
'7c6d81','JST945',144.8169,-37.5561,662.94,102.01,FALSE,171.3,-4.88,'1005',1551234480,0.0000000
'7c6d81','JST945',144.8186,-37.5648,601.98,100.33,FALSE,171.75,-6.83,'1005',1551234489,0.1111111
'7c6d81','JST945',144.8202,-37.5737,556.26,96.69,FALSE,171.74,-5.53,'1005',1551234499,0.2222222
'7c6d81','JST945',144.8234,-37.5903,441.96,85.85,FALSE,171.38,-4.88,'1005',1551234520,0.3333333
'7c6d81','JST945',144.8246,-37.5973,403.86,81.63,FALSE,171.67,-4.23,'1005',1551234529,0.4444444
'7c6d81','JST945',144.8256,-37.6029,373.38,79.59,FALSE,171.45,-4.23,'1005',1551234537,0.5555556
'7c6d81','JST945',144.8263,-37.6063,350.52,76.9,FALSE,171.92,-3.58,'1005',1551234543,0.6666667
'7c6d81','JST945',144.8284,-37.6177,289.56,76.97,FALSE,171.54,-3.9,'1005',1551234559,0.7777778
'7c6d81','JST945',144.8318,-37.637,167.64,75.96,FALSE,171.43,-3.9,'1005',1551234587,0.8888889
'7c6d81','JST945',144.8326,-37.6412,144.78,75.96,FALSE,171.43,-2.6,'1005',1551234593,1.0000000
'7c6c96','JST706',145.1057,-37.716,2034.54,156.72,FALSE,332,-15.93,'4340',1551234619,0.0000000
'7c6c96','JST706',145.0975,-37.7035,1905,155.29,FALSE,333.43,-9.43,'4340',1551234629,0.0476190
'7c6c96','JST706',145.0897,-37.6905,1836.42,150.73,FALSE,334.75,-6.5,'4340',1551234639,0.0952381
'7c6c96','JST706',145.0825,-37.6783,1790.7,148,FALSE,335.13,-4.88,'4340',1551234650,0.1428571
'7c6c96','JST706',145.0757,-37.6666,1744.98,145.01,FALSE,335.25,-5.2,'4340',1551234659,0.1904762
'7c6c96','JST706',145.0687,-37.6546,1699.26,142.25,FALSE,335.2,-3.58,'4340',1551234670,0.2380952
'7c6c96','JST706',145.0619,-37.6428,1668.78,140.16,FALSE,335.03,-4.88,'4340',1551234680,0.2857143
'7c6c96','JST706',145.0552,-37.6314,1600.2,139.7,FALSE,334.94,-7.8,'4340',1551234690,0.3333333
'7c6c96','JST706',145.0487,-37.6202,1531.62,139.23,FALSE,334.86,-7.15,'4340',1551234700,0.3809524
'7c6c96','JST706',145.0357,-37.5981,1394.46,137.22,FALSE,335.64,-7.15,'4340',1551234719,0.4285714
'7c6c96','JST706',145.0295,-37.5871,1333.5,136.28,FALSE,335.47,-5.53,'4340',1551234729,0.4761905
'7c6c96','JST706',145.0227,-37.5756,1303.02,134.42,FALSE,335.1,-2.93,'4340',1551234739,0.5238095
'7c6c96','JST706',145.0162,-37.5645,1295.4,130.94,FALSE,334.64,-0.65,'4340',1551234750,0.5714286
'7c6c96','JST706',145.0103,-37.5561,1287.78,125.42,FALSE,326.38,-0.33,'4340',1551234759,0.6190476
'7c6c96','JST706',144.8446,-37.5504,716.28,93.86,FALSE,225.89,-5.2,'4340',1551234929,0.6666667
'7c6c96','JST706',144.8399,-37.5545,670.56,92.88,FALSE,219.16,-5.2,'4340',1551234936,0.7142857
'7c6c96','JST706',144.8349,-37.5602,624.84,91.03,FALSE,213.24,-5.53,'4340',1551234944,0.7619048
'7c6c96','JST706',144.8285,-37.5703,579.12,86.28,FALSE,200.6,-5.53,'4340',1551234959,0.8095238
'7c6c96','JST706',144.8258,-37.5778,533.4,83.48,FALSE,193.18,-2.93,'4340',1551234969,0.8571429
'7c6c96','JST706',144.8243,-37.5848,487.68,78.74,FALSE,186.75,-5.2,'4340',1551234979,0.9047619
'7c6c96','JST706',144.8239,-37.5922,441.96,74.1,FALSE,178.81,-3.9,'4340',1551234990,0.9523810
'7c6c96','JST706',144.8257,-37.6035,373.38,69.86,FALSE,170.68,-3.9,'4340',1551235007,1.0000000
'7c6d7b','',144.8172,-37.6605,213.36,85.62,FALSE,274.13,14.31,'3762',1551234687,0.0000000
'7c6d7b','',144.8057,-37.6598,388.62,85.66,FALSE,274.48,13.66,'3762',1551234699,0.0555556
'7c6d7b','JST713',144.7854,-37.6587,556.26,93.32,FALSE,273.79,6.83,'3762',1551234719,0.1111111
'7c6d7b','JST713',144.774,-37.658,640.08,98.09,FALSE,274.81,9.43,'3762',1551234730,0.1666667
'7c6d7b','JST713',144.7639,-37.6572,716.28,101.82,FALSE,275.51,7.15,'3762',1551234738,0.2222222
'7c6d7b','JST713',144.7505,-37.6562,777.24,107.96,FALSE,275.19,5.85,'3762',1551234750,0.2777778
'7c6d7b','JST713',144.7389,-37.6555,830.58,113.6,FALSE,274.94,5.85,'3762',1551234759,0.3333333
'7c6d7b','JST713',144.7245,-37.6545,906.78,120.66,FALSE,273.91,7.48,'3762',1551234770,0.3888889
'7c6d7b','JST713',144.7116,-37.6549,967.74,126.86,FALSE,263.48,6.18,'3762',1551234779,0.4444444
'7c6d7b','JST713',144.6975,-37.6586,1043.94,133.7,FALSE,244.72,7.8,'3762',1551234789,0.5000000
'7c6d7b','JST713',144.6748,-37.676,1173.48,147.98,FALSE,214.52,7.8,'3762',1551234809,0.5555556
'7c6d7b','JST713',144.6656,-37.6876,1257.3,154.49,FALSE,211.52,8.13,'3762',1551234819,0.6111111
'7c6d7b','JST713',144.657,-37.6991,1325.88,160.13,FALSE,210.93,7.8,'3762',1551234829,0.6666667
'7c6d7b','JST713',144.647,-37.7125,1424.94,164.39,FALSE,208.81,11.05,'3762',1551234839,0.7222222
'7c6d7b','JST713',144.6406,-37.7246,1539.24,168.18,FALSE,196.16,13.98,'3762',1551234848,0.7777778
'7c6d7b','JST713',144.6372,-37.7426,1722.12,170.89,FALSE,181.9,17.88,'3762',1551234860,0.8333333
'7c6d7b','JST713',144.6393,-37.757,1874.52,172.43,FALSE,168.12,16.26,'3762',1551234869,0.8888889
'7c6d7b','JST713',144.6458,-37.7722,2034.54,174.53,FALSE,158.2,17.56,'3762',1551234879,0.9444444
'7c6d7b','JST713',144.6529,-37.7857,2194.56,173.88,FALSE,157.38,17.23,'3762',1551234889,1.0000000
'43e97b','MGGBL',144.815,-37.6597,480.06,75.32,FALSE,274.31,10.4,'4344',1551234790,0.0000000
'43e97b','MGGBL',144.7969,-37.6587,739.14,88.15,FALSE,273.68,22.11,'4344',1551234809,0.0588235
'43e97b','MGGBL',144.7864,-37.6581,990.6,88.19,FALSE,274.01,20.81,'4344',1551234819,0.1176471
'43e97b','MGGBL',144.7766,-37.6575,1143,95.89,FALSE,273.69,11.7,'4344',1551234829,0.1764706
'43e97b','MGGBL',144.7644,-37.6569,1249.68,108.27,FALSE,273.81,8.13,'4344',1551234839,0.2352941
'43e97b','MGGBL',144.7523,-37.6562,1325.88,118.09,FALSE,274,10.08,'4344',1551234849,0.2941176
'43e97b','MGGBL',144.7377,-37.6555,1478.28,125.83,FALSE,273.99,16.26,'4344',1551234860,0.3529412
'43e97b','MGGBL',144.7235,-37.6547,1630.68,130.48,FALSE,274.07,15.93,'4344',1551234869,0.4117647
'43e97b','MGGBL',144.7074,-37.6538,1813.56,131,FALSE,274.05,17.88,'4344',1551234880,0.4705882
'43e97b','MGGBL',144.6941,-37.6531,1981.2,131.51,FALSE,274.04,17.88,'4344',1551234889,0.5294118
'43e97b','MGGBL',144.6658,-37.6463,2331.72,136.84,FALSE,303.03,17.88,'4344',1551234909,0.5882353
'43e97b','MGGBL',144.6532,-37.6366,2529.84,141.16,FALSE,323.3,17.88,'4344',1551234920,0.6470588
'43e97b','MGGBL',144.6465,-37.6268,2689.86,145.68,FALSE,338.24,18.53,'4344',1551234929,0.7058824
'43e97b','MGGBL',144.6409,-37.6124,2918.46,148.96,FALSE,343.76,21.13,'4344',1551234940,0.7647059
'43e97b','MGGBL',144.6366,-37.6007,3116.58,150.73,FALSE,343.54,21.78,'4344',1551234949,0.8235294
'43e97b','MGGBL',144.6317,-37.5876,3284.22,156.25,FALSE,343.35,13,'4344',1551234959,0.8823529
'43e97b','MGGBL',144.6265,-37.5729,3390.9,166.9,FALSE,347.72,8.78,'4344',1551234970,0.9411765
'43e97b','MGGBL',144.6255,-37.5596,3467.1,175.9,FALSE,4.19,9.43,'4344',1551234978,1.0000000
'7c6d7c','',144.8233,-37.6608,137.16,85.15,FALSE,274.5,13.66,None,1551234869,0.0000000
'7c6d7c','JST436',144.8163,-37.6603,228.6,84.26,FALSE,275.61,13.66,'1251',1551234876,0.0833333
'7c6d7c','JST436',144.8034,-37.6593,411.48,84.21,FALSE,275.26,12.03,'1251',1551234889,0.1666667
'7c6d7c','JST436',144.784,-37.6578,571.5,91.94,FALSE,275.14,6.18,'1251',1551234909,0.2500000
'7c6d7c','JST436',144.7727,-37.6572,640.08,97.5,FALSE,274.24,8.45,'1251',1551234919,0.3333333
'7c6d7c','JST436',144.7617,-37.6564,723.9,102.23,FALSE,274.91,8.78,'1251',1551234929,0.4166667
'7c6d7c','JST436',144.7491,-37.6555,807.72,105.82,FALSE,274.74,7.15,'1251',1551234940,0.5000000
'7c6d7c','JST436',144.7372,-37.6548,853.44,112.53,FALSE,274.72,3.58,'1251',1551234950,0.5833333
'7c6d7c','JST436',144.7253,-37.654,899.16,120.74,FALSE,274.4,5.53,'1251',1551234959,0.6666667
'7c6d7c','JST436',144.7114,-37.6532,952.5,129.02,FALSE,274.57,5.85,'1251',1551234968,0.7500000
'7c6d7c','JST436',144.6955,-37.6522,1036.32,134.11,FALSE,274.18,10.73,'1251',1551234979,0.8333333
'7c6d7c','JST436',144.6793,-37.6509,1181.1,135.33,FALSE,278.75,15.93,'1251',1551234990,0.9166667
'7c6d7c','JST436',144.6542,-37.6392,1485.9,134.64,FALSE,319.49,18.21,'1251',1551235009,1.0000000
'7c3361','KFN',144.9326,-37.7836,388.62,52,FALSE,2.27,-0.65,'0100',1551234919,0.0000000
'7c3361','KFN',144.9329,-37.779,388.62,52.02,FALSE,2.83,0.65,'0100',1551234929,0.1250000
'7c3361','KFN',144.9329,-37.7742,381,52.48,FALSE,359.44,-1.3,'0100',1551234939,0.2500000
'7c3361','KFN',144.933,-37.7696,365.76,51.57,FALSE,4,-2.6,'0100',1551234949,0.3750000
'7c3361','KFN',144.9335,-37.765,342.9,51.14,FALSE,5.19,-1.95,'0100',1551234959,0.5000000
'7c3361','KFN',144.9341,-37.7607,335.28,49.05,FALSE,4.81,0,'0100',1551234969,0.6250000
'7c3361','KFN',144.9344,-37.7562,320.04,44.9,FALSE,4.6,-0.65,'0100',1551234979,0.7500000
'7c3361','KFN',144.9349,-37.7523,312.42,39.22,FALSE,4.51,-3.25,'0100',1551234989,0.8750000
'7c3361','KFN',144.9357,-37.7452,243.84,39.31,FALSE,6.01,-3.25,'0100',1551235009,1.0000000
'7c3a47','LSP',145.104,-37.6175,548.64,56.48,FALSE,290.25,0.65,'0007',1551234940,0.0000000
'7c3a47','LSP',145.0988,-37.6159,548.64,56.3,FALSE,289.76,-0.98,'0007',1551234948,0.2500000
'7c3a47','LSP',145.0891,-37.6135,548.64,56.3,FALSE,289.76,-0.98,'0007',1551234964,0.5000000
'7c3a47','LSP',145.0802,-37.611,548.64,56.27,FALSE,292.58,0,'0007',1551234979,0.7500000
'7c3a47','LSP',145.0766,-37.6097,548.64,61.91,FALSE,274.29,-0.98,'0007',1551234986,1.0000000
'781321','GCR7946',144.8418,-37.6909,251.46,88.4,FALSE,171.63,11.05,None,1551234949,0.0000000
'781321','GCR7946',144.8433,-37.6986,350.52,90.58,FALSE,171.18,11.38,'1447',1551234959,0.2000000
'781321','GCR7946',144.8451,-37.707,464.82,91.34,FALSE,170.27,11.7,'1447',1551234969,0.4000000
'781321','GCR7946',144.8467,-37.7153,563.88,93.49,FALSE,172.09,8.45,'1447',1551234979,0.6000000
'781321','GCR7946',144.8483,-37.7238,655.32,94.22,FALSE,171.21,3.58,'1447',1551234989,0.8000000
'781321','GCR7946',144.8432,-37.7405,723.9,94.74,FALSE,213.26,8.45,'1447',1551235009,1.0000000
