icao24,callsign,longitude,latitude,baro_altitude,velocity,on_ground,heading,vertical_rate,squawk,time,trajectory_number
'7c6d28','VOZ1508',144.8276,-37.614,320.04,73.19,FALSE,172.33,-4.88,'1110',1551238630,0.0000000
'7c6d28','VOZ1508',144.8279,-37.616,304.8,75.1,FALSE,170.54,-2.93,'1110',1551238633,0.2000000
'7c6d28','VOZ1508',144.8294,-37.6234,274.32,74.21,FALSE,172.43,-4.55,'1110',1551238644,0.4000000
'7c6d28','VOZ1508',144.8312,-37.6334,205.74,73.92,FALSE,171.19,-5.85,'1110',1551238659,0.6000000
'7c6d28','VOZ1508',144.8326,-37.6405,160.02,74.35,FALSE,171.65,-4.23,'1110',1551238670,0.8000000
'7c6d28','VOZ1508',144.8329,-37.6425,124.8,74.28,TRUE,172.04,-3.58,'1110',1551238673,1.0000000
'7c7fe8','ZJU',144.9007,-37.7187,60.96,31.91,FALSE,178.15,-4.88,'0100',1551238422,0.0000000
'7c5e89','CHOP42',144.9137,-37.7345,91.44,41.39,FALSE,302.31,-2.28,'0100',1551238621,0.0000000
'7c52f9','QLK54D',145.0438,-37.6081,2567.94,139.27,FALSE,335.33,-2.6,'4321',1551238630,0.0000000
'7c52f9','QLK54D',145.0377,-37.5976,2529.84,136.25,FALSE,334.98,-5.85,'4321',1551238639,0.0555556
'7c52f9','QLK54D',145.0307,-37.586,2461.26,135.74,FALSE,333.92,-6.18,'7311',1551238649,0.1111111
'7c52f9','QLK54D',145.0243,-37.5756,2362.2,135.76,FALSE,334.41,-11.05,'4321',1551238659,0.1666667
'7c52f9','QLK54D',145.0182,-37.5653,2255.52,136.03,FALSE,335.18,-11.05,'4321',1551238668,0.2222222
'7c52f9','QLK54D',145.0116,-37.5537,2171.7,134.2,FALSE,335.3,-6.5,'4321',1551238679,0.2777778
'7c52f9','QLK54D',144.8154,-37.5505,693.42,95.67,FALSE,171.65,-4.88,'4321',1551238970,0.3333333
'7c52f9','QLK54D',144.8167,-37.558,647.7,89.85,FALSE,172.1,-4.55,'4321',1551238979,0.3888889
'7c52f9','QLK54D',144.8183,-37.5664,601.98,82.29,FALSE,171.01,-0.98,'4321',1551238990,0.4444444
'7c52f9','QLK54D',144.821,-37.5793,533.4,72.91,FALSE,171.07,-3.9,'4321',1551239009,0.5000000
'7c52f9','QLK54D',144.8222,-37.5857,495.3,69.12,FALSE,171.87,-1.63,'4321',1551239019,0.5555556
'7c52f9','QLK54D',144.8234,-37.5917,457.2,67.24,FALSE,170.75,-2.6,'4321',1551239029,0.6111111
'7c52f9','QLK54D',144.8246,-37.5979,426.72,66.06,FALSE,171.49,-2.93,'4321',1551239040,0.6666667
'7c52f9','QLK54D',144.8257,-37.6035,388.62,65.55,FALSE,171.42,-3.25,'4321',1551239049,0.7222222
'7c52f9','QLK54D',144.8268,-37.6092,358.14,64.03,FALSE,171.22,-3.25,'4321',1551239059,0.7777778
'7c52f9','QLK54D',144.8279,-37.6151,320.04,63.95,FALSE,171.67,-4.23,'4321',1551239069,0.8333333
'7c52f9','QLK54D',144.8281,-37.6166,266.7,63.3,FALSE,172.53,-4.88,'4321',1551239072,0.8888889
'7c52f9','QLK54D',144.832,-37.6376,190.5,65.55,FALSE,171.42,-4.55,'4321',1551239109,0.9444444
'7c52f9','QLK54D',144.8331,-37.6433,160.02,64.9,FALSE,172.26,-4.23,'4321',1551239119,1.0000000
'7c7f25','ZEF',144.9159,-37.7307,38.1,41.7,FALSE,267.88,-0.98,'0100',1551238527,0.0000000
'7c7f25','',144.9008,-37.7314,114.3,36.62,FALSE,184.03,4.23,'0324',1551239859,0.0178571
'7c7f25','ZEF',144.9007,-37.7334,137.16,36.58,FALSE,183.22,4.23,'0324',1551239865,0.0357143
'7c7f25','ZEF',144.9002,-37.7379,182.88,37.13,FALSE,183.97,2.93,'0324',1551239879,0.0535714
'7c7f25','ZEF',144.8999,-37.7414,213.36,37.33,FALSE,187.13,5.2,'0324',1551239889,0.0714286
'7c7f25','ZEF',144.899,-37.7481,281.94,39.22,FALSE,184.51,5.53,'0324',1551239909,0.0892857
'7c7f25','ZEF',144.8984,-37.7518,327.66,38.94,FALSE,195.32,3.25,'0324',1551239919,0.1071429
'7c7f25','ZEF',144.8954,-37.7545,342.9,44.17,FALSE,243.73,1.63,'0324',1551239930,0.1250000
'7c7f25','ZEF',144.8906,-37.7555,381,44.3,FALSE,257.25,3.58,'0324',1551239939,0.1428571
'7c7f25','ZEF',144.8858,-37.7563,419.1,44.32,FALSE,260.65,2.93,'0324',1551239949,0.1607143
'7c7f25','ZEF',144.8803,-37.7568,449.58,45.05,FALSE,263.44,2.6,'0324',1551239960,0.1785714
'7c7f25','ZEF',144.8755,-37.7573,487.68,43.01,FALSE,263.13,5.2,'0324',1551239969,0.1964286
'7c7f25','ZEF',144.8706,-37.7578,533.4,41.93,FALSE,263.66,3.9,'0324',1551239980,0.2142857
'7c7f25','ZEF',144.8662,-37.7582,563.88,43.65,FALSE,261.87,1.63,'0324',1551239989,0.2321429
'7c7f25','ZEF',144.8561,-37.7593,647.7,42.5,FALSE,263.05,4.55,'0324',1551240009,0.2500000
'7c7f25','ZEF',144.8512,-37.7598,670.56,44.54,FALSE,263.37,2.28,'0324',1551240020,0.2678571
'7c7f25','ZEF',144.8461,-37.7603,701.04,44.03,FALSE,263.29,3.25,'0324',1551240029,0.2857143
'7c7f25','ZEF',144.8411,-37.7608,731.52,45.05,FALSE,263.44,2.28,'0324',1551240039,0.3035714
'7c7f25','ZEF',144.836,-37.7612,754.38,45.46,FALSE,264.81,2.6,'0324',1551240049,0.3214286
'7c7f25','ZEF',144.8306,-37.7615,784.86,45.86,FALSE,266.78,2.93,'0324',1551240060,0.3392857
'7c7f25','ZEF',144.8258,-37.7617,807.72,45.86,FALSE,266.78,2.93,'0324',1551240069,0.3571429
'7c7f25','ZEF',144.8204,-37.7618,845.82,45.27,FALSE,269.35,3.25,'0324',1551240079,0.3750000
'7c7f25','ZEF',144.8152,-37.762,853.44,49.71,FALSE,263.46,1.3,'0324',1551240089,0.3928571
'7c7f25','ZEF',144.8036,-37.7637,876.3,51.28,FALSE,256.66,0.33,'0324',1551240110,0.4107143
'7c7f25','ZEF',144.798,-37.7645,861.06,53.62,FALSE,261.17,0,'0324',1551240119,0.4285714
'7c7f25','ZEF',144.7917,-37.7652,861.06,54.57,FALSE,261.87,0,'0324',1551240129,0.4464286
'7c7f25','ZEF',144.7858,-37.7659,861.06,54.64,FALSE,261.34,0,'0324',1551240139,0.4642857
'7c7f25','ZEF',144.7794,-37.7667,861.06,54.72,FALSE,260.8,0,'0324',1551240149,0.4821429
'7c7f25','ZEF',144.7735,-37.7674,861.06,54.72,FALSE,260.8,0,'0324',1551240159,0.5000000
'7c7f25','ZEF',144.7672,-37.7682,861.06,54.8,FALSE,260.27,0,'0324',1551240169,0.5178571
'7c7f25','ZEF',144.7611,-37.7691,861.06,54.8,FALSE,260.27,0,'0324',1551240179,0.5357143
'7c7f25','ZEF',144.7546,-37.7699,861.06,54.72,FALSE,260.8,0,'0324',1551240190,0.5535714
'7c7f25','ZEF',144.7427,-37.7715,861.06,54.3,FALSE,260.18,0,'0324',1551240209,0.5714286
'7c7f25','ZEF',144.7369,-37.7723,861.06,54.3,FALSE,260.18,0,'0324',1551240219,0.5892857
'7c7f25','ZEF',144.7302,-37.7731,861.06,54.21,FALSE,260.72,0,'0324',1551240230,0.6071429
'7c7f25','ZEF',144.7246,-37.7739,861.06,53.62,FALSE,261.17,0,'0324',1551240239,0.6250000
'7c7f25','ZEF',144.7189,-37.7745,861.06,53.55,FALSE,261.71,0,'0324',1551240249,0.6428571
'7c7f25','ZEF',144.7126,-37.7752,861.06,53.47,FALSE,262.26,-0.33,'0324',1551240259,0.6607143
'7c7f25','ZEF',144.7068,-37.7758,861.06,52.9,FALSE,262.74,0,'0324',1551240269,0.6785714
'7c7f25','ZEF',144.7005,-37.7764,861.06,51.37,FALSE,262.52,-0.33,'0324',1551240280,0.6964286
'7c7f25','ZEF',144.6951,-37.777,861.06,50.28,FALSE,262.95,0,'0324',1551240289,0.7142857
'7c7f25','ZEF',144.6842,-37.7781,861.06,48.24,FALSE,262.65,0,'0324',1551240309,0.7321429
'7c7f25','ZEF',144.6784,-37.7787,861.06,48.31,FALSE,262.04,0,'0324',1551240320,0.7500000
'7c7f25','ZEF',144.6735,-37.7792,861.06,47.87,FALSE,261.35,0,'0324',1551240329,0.7678571
'7c7f25','ZEF',144.6677,-37.78,861.06,47.45,FALSE,260.64,0,'0324',1551240339,0.7857143
'7c7f25','ZEF',144.6627,-37.7806,861.06,47.45,FALSE,260.64,0,'0324',1551240349,0.8035714
'7c7f25','ZEF',144.657,-37.7814,861.06,47.95,FALSE,260.74,0,'0324',1551240360,0.8214286
'7c7f25','ZEF',144.6517,-37.782,861.06,47.95,FALSE,260.74,0,'0324',1551240369,0.8392857
'7c7f25','ZEF',144.6461,-37.7828,861.06,48.46,FALSE,260.84,0,'0324',1551240380,0.8571429
'7c7f25','ZEF',144.641,-37.7834,861.06,48.97,FALSE,260.93,0,'0324',1551240389,0.8750000
'7c7f25','ZEF',144.6299,-37.7845,876.3,48.31,FALSE,262.04,1.63,'0324',1551240410,0.8928571
'7c7f25','ZEF',144.6249,-37.7852,914.4,46.31,FALSE,257.82,4.55,'0324',1551240419,0.9107143
'7c7f25','ZEF',144.6197,-37.7862,952.5,44.3,FALSE,257.25,3.25,'0324',1551240430,0.9285714
'7c7f25','ZEF',144.615,-37.787,982.98,44.81,FALSE,257.4,2.93,'0324',1551240439,0.9464286
'7c7f25','ZEF',144.6099,-37.7878,1013.46,43.59,FALSE,258.42,2.93,'0324',1551240449,0.9642857
'7c7f25','ZEF',144.6051,-37.7886,1036.32,44.59,FALSE,258.69,2.28,'0324',1551240459,0.9821429
'7c7f25','ZEF',144.6,-37.7893,1066.8,43.39,FALSE,259.76,2.93,'0324',1551240470,1.0000000
'7c6d9c','',144.818,-37.6604,167.64,88.31,FALSE,275.01,12.35,'3254',1551238639,0.0000000
'7c6d9c','',144.8071,-37.6596,320.04,89.48,FALSE,275.94,15.61,'3254',1551238650,0.0588235
'7c6d9c','QFA440',144.7972,-37.6589,457.2,90.32,FALSE,274.57,14.63,'3254',1551238659,0.1176471
'7c6d9c','QFA440',144.7862,-37.6582,548.64,97.07,FALSE,274.86,7.8,'3254',1551238670,0.1764706
'7c6d9c','QFA440',144.7744,-37.6575,624.84,106.38,FALSE,274.99,8.78,'3254',1551238680,0.2352941
'7c6d9c','QFA440',144.7628,-37.6567,693.42,113,FALSE,274.44,7.48,'3254',1551238689,0.2941176
'7c6d9c','QFA440',144.7348,-37.655,861.06,127.96,FALSE,274.38,11.38,'3254',1551238709,0.3529412
'7c6d9c','QFA440',144.7189,-37.6541,990.6,133.01,FALSE,273.77,14.63,'3254',1551238720,0.4117647
'7c6d9c','QFA440',144.705,-37.6534,1158.24,133.01,FALSE,273.77,19.18,'3254',1551238729,0.4705882
'7c6d9c','QFA440',144.6887,-37.6525,1325.88,135.69,FALSE,274.35,15.61,'3254',1551238740,0.5294118
'7c6d9c','QFA440',144.6745,-37.6499,1493.52,135.52,FALSE,289.05,20.16,'3254',1551238749,0.5882353
'7c6d9c','QFA440',144.661,-37.6431,1684.02,134.69,FALSE,306.3,19.83,'3254',1551238760,0.6470588
'7c6d9c','QFA440',144.6518,-37.6347,1851.66,134.89,FALSE,323.22,19.51,'3254',1551238769,0.7058824
'7c6d9c','QFA440',144.645,-37.6222,2042.16,136.82,FALSE,342.04,18.53,'3254',1551238780,0.7647059
'7c6d9c','QFA440',144.6409,-37.6107,2186.94,139.21,FALSE,343.91,13.98,'3254',1551238790,0.8235294
'7c6d9c','QFA440',144.6314,-37.586,2308.86,155.41,FALSE,343.06,6.5,'3254',1551238809,0.8823529
'7c6d9c','QFA440',144.6275,-37.5711,2369.82,162.47,FALSE,351.07,7.8,'3254',1551238820,0.9411765
'7c6d9c','QFA440',144.6284,-37.5568,2506.98,167.71,FALSE,6.34,16.58,'3254',1551238829,1.0000000
'7c6d9e','QFA881',144.8171,-37.5575,632.46,98.73,FALSE,171.91,-5.2,'1027',1551238659,0.0000000
'7c6d9e','QFA881',144.8187,-37.5658,579.12,93.56,FALSE,171.78,-5.53,'1027',1551238669,0.0833333
'7c6d9e','QFA881',144.8202,-37.5741,541.02,87.89,FALSE,171.59,-4.88,'1027',1551238679,0.1666667
'7c6d9e','QFA881',144.8216,-37.5816,495.3,83.82,FALSE,171.17,-4.55,'1027',1551238689,0.2500000
'7c6d9e','QFA881',144.8241,-37.5952,419.1,74.35,FALSE,171.65,-3.9,'1027',1551238709,0.3333333
'7c6d9e','QFA881',144.8254,-37.6023,381,73.85,FALSE,171.59,-3.9,'1027',1551238719,0.4166667
'7c6d9e','QFA881',144.826,-37.6059,358.14,73.92,FALSE,171.19,-3.9,'1027',1551238725,0.5000000
'7c6d9e','QFA881',144.8279,-37.6152,304.8,73.85,FALSE,171.59,-3.9,'1027',1551238739,0.5833333
'7c6d9e','QFA881',144.828,-37.6162,297.18,73.85,FALSE,171.59,-3.9,'1027',1551238741,0.6666667
'7c6d9e','QFA881',144.8294,-37.6234,259.08,74.35,FALSE,171.65,-3.9,'1027',1551238752,0.7500000
'7c6d9e','QFA881',144.8315,-37.635,190.5,73.92,FALSE,171.19,-3.58,'1027',1551238769,0.8333333
'7c6d9e','QFA881',144.8327,-37.6415,152.4,75.88,FALSE,171.81,-4.23,'1027',1551238779,0.9166667
'7c6d9e','QFA881',144.833,-37.6429,100.24,75.88,FALSE,171.81,-3.25,'1027',1551238781,1.0000000
'7c6ac5','VDJ',144.9329,-37.7878,365.76,54.88,FALSE,6.46,-1.95,'0100',1551238709,0.0000000
'7c6ac5','VDJ',144.9337,-37.7827,350.52,55.23,FALSE,9.11,-0.65,'0100',1551238719,0.0384615
'7c6ac5','VDJ',144.9344,-37.778,350.52,54.43,FALSE,7.06,0.33,'0100',1551238729,0.0769231
'7c6ac5','VDJ',144.9352,-37.773,350.52,53.47,FALSE,7.74,0,'0100',1551238739,0.1153846
'7c6ac5','VDJ',144.9361,-37.7684,350.52,53.98,FALSE,7.67,-0.33,'0100',1551238749,0.1538462
'7c6ac5','VDJ',144.9371,-37.7633,342.9,54.89,FALSE,10.26,-0.98,'0100',1551238759,0.1923077
'7c6ac5','VDJ',144.9381,-37.7588,335.28,54.89,FALSE,10.26,-0.33,'0100',1551238769,0.2307692
'7c6ac5','VDJ',144.9395,-37.7535,327.66,56.7,FALSE,11.51,-1.63,'0100',1551238779,0.2692308
'7c6ac5','VDJ',144.9405,-37.7488,297.18,57.26,FALSE,8.79,-3.25,'0100',1551238789,0.3076923
'7c6ac5','VDJ',144.9421,-37.7386,236.22,55.8,FALSE,5.29,-2.28,'0100',1551238809,0.3461538
'7c6ac5','VDJ',144.942,-37.7341,213.36,54.72,FALSE,350.8,-1.95,'0100',1551238818,0.3846154
'7c6ac5','VDJ',144.9402,-37.7311,198.12,54.26,FALSE,317.69,-2.93,'0100',1551238825,0.4230769
'7c6ac5','VDJ',144.9338,-37.7299,167.64,51.37,FALSE,262.52,-1.63,'0100',1551238837,0.4615385
'7c6ac5','VDJ',144.9273,-37.7303,129.54,48.49,FALSE,265.74,-3.58,'0100',1551238848,0.5000000
'7c6ac5','VDJ',144.9211,-37.7305,45.72,45.86,FALSE,266.78,-3.9,'0100',1551238859,0.5384615
'7c6ac5','VDJ',144.915,-37.7308,45.72,45.86,FALSE,266.78,-3.9,'0100',1551238871,0.5769231
'7c6ac5','',144.9011,-37.7305,83.82,46.33,FALSE,181.91,3.58,None,1551239959,0.6153846
'7c6ac5','VDJ',144.9008,-37.7335,114.3,48.63,FALSE,186.07,4.55,'0100',1551239966,0.6538462
'7c6ac5','VDJ',144.9,-37.7393,190.5,48.63,FALSE,186.07,5.85,'0100',1551239979,0.6923077
'7c6ac5','VDJ',144.8993,-37.7434,236.22,48.97,FALSE,189.07,4.23,'0100',1551239989,0.7307692
'7c6ac5','VDJ',144.8975,-37.7526,312.42,50.03,FALSE,184.13,5.2,'0100',1551240009,0.7692308
'7c6ac5','VDJ',144.8971,-37.7571,358.14,50.17,FALSE,185.89,4.55,'0100',1551240019,0.8076923
'7c6ac5','VDJ',144.897,-37.7617,388.62,54.06,FALSE,177.82,2.6,'0100',1551240029,0.8461538
'7c6ac5','VDJ',144.8971,-37.7671,411.48,58.65,FALSE,179.5,1.63,'0100',1551240039,0.8846154
'7c6ac5','VDJ',144.8972,-37.7725,426.72,62.27,FALSE,178.58,1.95,'0100',1551240049,0.9230769
'7c6ac5','VDJ',144.8972,-37.7784,419.1,66.38,FALSE,181.33,-0.33,'0100',1551240059,0.9615385
'7c6ac5','VDJ',144.8968,-37.7845,426.72,68.14,FALSE,184.76,0.33,'0100',1551240069,1.0000000
'7c77f6','QFA762',144.8163,-37.5531,662.94,98.8,FALSE,171.62,-5.53,'7233',1551238780,0.0000000
'7c77f6','QFA762',144.8176,-37.56,617.22,95.16,FALSE,171.61,-5.2,'7233',1551238788,0.0909091
'7c77f6','QFA762',144.8208,-37.5775,525.78,87.89,FALSE,171.59,-4.55,'7233',1551238809,0.1818182
'7c77f6','QFA762',144.8224,-37.5855,480.06,84.49,FALSE,170.54,-3.58,'7233',1551238820,0.2727273
'7c77f6','QFA762',144.8236,-37.5924,441.96,79.89,FALSE,172.6,-3.58,'7233',1551238829,0.3636364
'7c77f6','QFA762',144.8249,-37.5997,396.24,77.56,FALSE,171.22,-4.55,'7233',1551238840,0.4545455
'7c77f6','QFA762',144.8257,-37.6039,373.38,77.56,FALSE,171.22,-4.55,'7233',1551238846,0.5454545
'7c77f6','QFA762',144.8273,-37.6126,320.04,78.43,FALSE,172.08,-4.23,'7233',1551238859,0.6363636
'7c77f6','QFA762',144.828,-37.6165,297.18,77.99,FALSE,171.66,-3.9,'7233',1551238864,0.7272727
'7c77f6','QFA762',144.8298,-37.6258,243.84,78.07,FALSE,171.28,-5.2,'7233',1551238878,0.8181818
'7c77f6','QFA762',144.8314,-37.6343,198.12,77.05,FALSE,171.17,-3.9,'7233',1551238890,0.9090909
'7c77f6','QFA762',144.8329,-37.6425,152.4,77.48,FALSE,171.6,-3.25,'7233',1551238902,1.0000000
'7c6d75','JST973',144.5759,-37.7688,4373.88,166.19,FALSE,80.92,-6.83,'4236',1551238809,0.0000000
'7c6d75','JST973',144.5948,-37.7663,4297.68,165.18,FALSE,80.86,-8.78,'4236',1551238819,0.0232558
'7c6d75','JST973',144.6126,-37.7641,4206.24,165.68,FALSE,80.89,-9.43,'4236',1551238829,0.0465116
'7c6d75','JST973',144.6316,-37.7617,4122.42,165.77,FALSE,80.71,-8.78,'4236',1551238839,0.0697674
'7c6d75','JST973',144.649,-37.7594,4046.22,165.77,FALSE,80.71,-7.8,'4236',1551238849,0.0930233
'7c6d75','JST973',144.6675,-37.757,3970.02,165.18,FALSE,80.86,-8.45,'4236',1551238859,0.1162791
'7c6d75','JST973',144.6864,-37.7546,3878.58,165.77,FALSE,80.71,-9.1,'4236',1551238869,0.1395349
'7c6d75','JST973',144.7041,-37.7523,3825.24,164.75,FALSE,80.66,-5.53,'4236',1551238878,0.1627907
'7c6d75','JST973',144.7246,-37.7496,3771.9,162.05,FALSE,80.87,-4.55,'4236',1551238889,0.1860465
'7c6d75','JST973',144.7605,-37.745,3634.74,160.1,FALSE,80.57,-8.13,'4236',1551238909,0.2093023
'7c6d75','JST973',144.777,-37.7429,3550.92,160.1,FALSE,80.57,-8.13,'4236',1551238919,0.2325581
'7c6d75','JST973',144.7959,-37.7404,3482.34,159.51,FALSE,80.72,-6.83,'4236',1551238929,0.2558140
'7c6d75','JST973',144.8131,-37.7383,3421.38,158.76,FALSE,81.24,-7.48,'4236',1551238939,0.2790698
'7c6d75','JST973',144.8315,-37.736,3337.56,158.25,FALSE,81.21,-8.78,'4236',1551238949,0.3023256
'7c6d75','JST973',144.849,-37.7339,3246.12,158.76,FALSE,81.24,-10.08,'4236',1551238959,0.3255814
'7c6d75','JST973',144.8668,-37.7317,3139.44,160.28,FALSE,81.32,-10.4,'4236',1551238970,0.3488372
'7c6d75','JST973',144.8848,-37.7295,3063.24,160.28,FALSE,81.32,-7.15,'4236',1551238979,0.3720930
'7c6d75','JST973',144.9019,-37.7274,2994.66,158.92,FALSE,80.87,-7.48,'4236',1551238989,0.3953488
'7c6d75','JST973',144.936,-37.7163,2796.54,160.53,FALSE,50.85,-9.1,'4236',1551239009,0.4186047
'7c6d75','JST973',144.9474,-37.7061,2735.58,157.71,FALSE,35.04,-5.2,'4236',1551239019,0.4418605
'7c6d75','JST973',144.9554,-37.694,2682.24,154.02,FALSE,20.74,-6.83,'4236',1551239028,0.4651163
'7c6d75','JST973',144.9592,-37.6801,2598.42,150.72,FALSE,6.66,-8.13,'4236',1551239039,0.4883721
'7c6d75','JST973',144.9586,-37.6659,2522.22,148.67,FALSE,355.24,-7.48,'4236',1551239050,0.5116279
'7c6d75','JST973',144.9573,-37.6516,2453.64,147.9,FALSE,356.61,-7.48,'4236',1551239060,0.5348837
'7c6d75','JST973',144.9567,-37.6399,2385.06,147.75,FALSE,357.81,-7.15,'4236',1551239070,0.5581395
'7c6d75','JST973',144.9559,-37.6248,2316.48,146.26,FALSE,357.38,-6.18,'4236',1551239080,0.5813953
'7c6d75','JST973',144.9552,-37.6135,2255.52,145.28,FALSE,356.96,-6.18,'4236',1551239090,0.6046512
'7c6d75','JST973',144.9535,-37.5887,2133.6,143.25,FALSE,356.71,-7.15,'4236',1551239108,0.6279070
'7c6d75','JST973',144.9525,-37.5748,2049.78,142.74,FALSE,356.69,-7.48,'4236',1551239119,0.6511628
'7c6d75','JST973',144.9516,-37.5617,1981.2,142.74,FALSE,356.69,-7.8,'4236',1551239129,0.6744186
'7c6d75','JST973',144.8159,-37.5499,701.04,97.13,FALSE,172.08,-5.53,'4236',1551239409,0.6976744
'7c6d75','JST973',144.817,-37.5564,662.94,95.67,FALSE,171.65,-5.53,'4236',1551239416,0.7209302
'7c6d75','JST973',144.8189,-37.5666,601.98,91.52,FALSE,171.6,-5.53,'4236',1551239429,0.7441860
'7c6d75','JST973',144.8203,-37.5745,548.64,88.4,FALSE,171.63,-4.55,'4236',1551239438,0.7674419
'7c6d75','JST973',144.8218,-37.582,495.3,82.72,FALSE,171.42,-4.55,'4236',1551239449,0.7906977
'7c6d75','JST973',144.8232,-37.5898,449.58,77.92,FALSE,172.03,-4.23,'4236',1551239459,0.8139535
'7c6d75','JST973',144.8245,-37.5966,411.48,75.45,FALSE,171.37,-3.9,'4236',1551239470,0.8372093
'7c6d75','JST973',144.8257,-37.6025,388.62,74.43,FALSE,171.25,-3.25,'4236',1551239478,0.8604651
'7c6d75','JST973',144.8266,-37.6084,365.76,73.06,FALSE,173.13,-3.58,'4236',1551239487,0.8837209
'7c6d75','JST973',144.8281,-37.617,312.42,73.85,FALSE,171.59,-3.58,'4236',1551239500,0.9069767
'7c6d75','JST973',144.8301,-37.6266,236.22,74.51,FALSE,170.86,-4.55,'4236',1551239514,0.9302326
'7c6d75','JST973',144.8317,-37.6363,190.5,73.77,FALSE,171.98,-3.58,'4236',1551239530,0.9534884
'7c6d75','JST973',144.833,-37.6429,144.78,73.41,FALSE,171.13,-4.55,'4236',1551239539,0.9767442
'7c6d75','JST973',144.8335,-37.6456,121.92,73.77,FALSE,171.98,-3.58,'4236',1551239544,1.0000000
'7c6d9a','QFA820',144.8196,-37.6605,144.78,84.21,FALSE,275.26,11.05,'4345',1551238869,0.0000000
'7c6d9a','QFA820',144.8172,-37.6603,251.46,84.72,FALSE,275.23,10.73,'4345',1551238871,0.0625000
'7c6d9a','QFA820',144.8014,-37.6593,373.38,86.73,FALSE,274.76,13,'4345',1551238888,0.1250000
'7c6d9a','QFA820',144.7798,-37.6578,548.64,100.54,FALSE,273.81,8.13,'4345',1551238909,0.1875000
'7c6d9a','QFA820',144.7673,-37.6572,617.22,110.44,FALSE,274.54,5.85,'4345',1551238919,0.2500000
'7c6d9a','QFA820',144.7537,-37.6562,685.8,121.25,FALSE,274.38,8.78,'4345',1551238929,0.3125000
'7c6d9a','QFA820',144.7393,-37.6551,792.48,129.42,FALSE,276.39,14.96,'4345',1551238939,0.3750000
'7c6d9a','QFA820',144.724,-37.654,929.64,136.24,FALSE,274.55,11.38,'4345',1551238949,0.4375000
'7c6d9a','QFA820',144.7092,-37.6531,1013.46,143.86,FALSE,273.9,9.1,'4345',1551238959,0.5000000
'7c6d9a','QFA820',144.691,-37.6521,1097.28,153.89,FALSE,274.99,7.15,'4345',1551238969,0.5625000
'7c6d9a','QFA820',144.6738,-37.649,1150.62,162.2,FALSE,287.92,1.3,'4345',1551238979,0.6250000
'7c6d9a','QFA820',144.6578,-37.6408,1226.82,170.89,FALSE,308.77,5.85,'4345',1551238989,0.6875000
'7c6d9a','QFA820',144.6396,-37.6143,1577.34,175.37,FALSE,341.35,21.78,'4345',1551239009,0.7500000
'7c6d9a','QFA820',144.6341,-37.5992,1775.46,175.61,FALSE,344.54,19.83,'4345',1551239018,0.8125000
'7c6d9a','QFA820',144.6291,-37.5836,1958.34,177.3,FALSE,345.72,18.53,'4345',1551239029,0.8750000
'7c6d9a','QFA820',144.6248,-37.5654,2148.84,181.54,FALSE,352.67,15.28,'4345',1551239040,0.9375000
'7c6d9a','QFA820',144.6261,-37.5517,2263.14,185.05,FALSE,7.03,16.91,'4345',1551239048,1.0000000
'7c6c2b','',144.8206,-37.6607,205.74,83.1,FALSE,274.62,13.98,'1302',1551238918,0.0000000
'7c6c2b','',144.8114,-37.6601,358.14,84.68,FALSE,274.88,15.28,'1302',1551238929,0.0555556
'7c6c2b','TGG528',144.8011,-37.6593,502.92,84.77,FALSE,275.57,13.33,'1302',1551238939,0.1111111
'7c6c2b','TGG528',144.7905,-37.6584,586.74,88.92,FALSE,275.64,6.5,'1302',1551238949,0.1666667
'7c6c2b','TGG528',144.7811,-37.6577,632.46,96.13,FALSE,275.53,4.55,'1302',1551238958,0.2222222
'7c6c2b','TGG528',144.7685,-37.6568,693.42,103.3,FALSE,275.14,6.83,'1302',1551238970,0.2777778
'7c6c2b','TGG528',144.7568,-37.6561,754.38,109.89,FALSE,274.3,6.18,'1302',1551238979,0.3333333
'7c6c2b','TGG528',144.7429,-37.6552,822.96,118.21,FALSE,274.74,9.1,'1302',1551238989,0.3888889
'7c6c2b','TGG528',144.7169,-37.6536,1013.46,130.01,FALSE,274.31,12.68,'1302',1551239008,0.4444444
'7c6c2b','TGG528',144.7007,-37.6527,1173.48,133.05,FALSE,273.99,16.91,'1302',1551239019,0.5000000
'7c6c2b','TGG528',144.6862,-37.6518,1341.12,133.96,FALSE,275.95,19.18,'1302',1551239028,0.5555556
'7c6c2b','TGG528',144.6706,-37.6485,1539.24,133.48,FALSE,292.91,19.51,'1302',1551239039,0.6111111
'7c6c2b','TGG528',144.6589,-37.6423,1691.64,133.72,FALSE,311.73,19.18,'1302',1551239048,0.6666667
'7c6c2b','TGG528',144.6482,-37.6309,1905,135.78,FALSE,331.98,16.58,'1302',1551239060,0.7222222
'7c6c2b','TGG528',144.6432,-37.6197,2057.4,137.83,FALSE,342.85,18.21,'1302',1551239070,0.7777778
'7c6c2b','TGG528',144.6392,-37.6084,2209.8,139.56,FALSE,344.17,15.93,'1302',1551239079,0.8333333
'7c6c2b','TGG528',144.6355,-37.5981,2331.72,142.81,FALSE,344.11,13.33,'1302',1551239088,0.8888889
'7c6c2b','TGG528',144.6267,-37.5697,2476.5,159.41,FALSE,352.21,6.18,'1302',1551239109,0.9444444
'7c6c2b','TGG528',144.627,-37.5544,2529.84,169.24,FALSE,6.28,5.53,'1302',1551239119,1.0000000
'7c4a1f','OXD',144.575,-37.7878,670.56,69.36,FALSE,299.8,-0.98,'1200',1551238990,0.0000000
'7c7f38','ZEY',144.9404,-37.7869,411.48,49.05,FALSE,9.66,0,'0100',1551239109,0.0000000
'7c7f38','ZEY',144.9412,-37.7824,403.86,49.4,FALSE,8.38,-2.28,'0100',1551239119,0.0178571
'7c7f38','ZEY',144.942,-37.7781,381,50.86,FALSE,7.56,-1.95,'0100',1551239129,0.0357143
'7c7f38','ZEY',144.9425,-37.7738,365.76,50.07,FALSE,4.71,-0.98,'0100',1551239139,0.0535714
'7c7f38','ZEY',144.9427,-37.7695,350.52,48.87,FALSE,0.6,-1.95,'0100',1551239148,0.0714286
'7c7f38','ZEY',144.9427,-37.7646,342.9,49.9,FALSE,359.41,-0.65,'0100',1551239159,0.0892857
'7c7f38','ZEY',144.9426,-37.7611,335.28,49.92,FALSE,358.23,-0.65,'0100',1551239167,0.1071429
'7c7f38','ZEY',144.9425,-37.7561,320.04,46.3,FALSE,0,-2.6,'0100',1551239179,0.1250000
'7c7f38','ZEY',144.9425,-37.7518,289.56,44.24,FALSE,0,-3.25,'0100',1551239189,0.1428571
'7c7f38','ZEY',144.9426,-37.7479,266.7,43.22,FALSE,0.68,-1.95,'0100',1551239199,0.1607143
'7c7f38','ZEY',144.9424,-37.7406,220.98,44.43,FALSE,354.69,-1.95,'0100',1551239218,0.1785714
'7c7f38','ZEY',144.9404,-37.7365,220.98,42.53,FALSE,327.85,-1.63,'0100',1551239229,0.1964286
'7c7f38','ZEY',144.9375,-37.7335,198.12,44.82,FALSE,318.26,-1.95,'0100',1551239239,0.2142857
'7c7f38','ZEY',144.9358,-37.7322,198.12,44.4,FALSE,313.12,-0.65,'0100',1551239243,0.2321429
'7c7f38','ZEY',144.929,-37.7301,152.4,41.72,FALSE,267.17,-5.2,'0100',1551239259,0.2500000
'7c7f38','ZEY',144.9243,-37.7303,129.54,39.78,FALSE,264.81,-2.6,'0100',1551239269,0.2678571
'7c7f38','ZEY',144.9211,-37.7304,99.06,39.1,FALSE,269.25,-3.58,'0100',1551239276,0.2857143
'7c7f38','ZEY',144.916,-37.7307,60.96,39.1,FALSE,269.25,-3.58,'0100',1551239288,0.3035714
'7c7f38','ZEY',144.9011,-37.7322,121.92,36.62,FALSE,175.97,4.55,'0100',1551240519,0.3214286
'7c7f38','ZEY',144.9013,-37.7339,137.16,36.66,FALSE,175.17,3.25,'0100',1551240524,0.3392857
'7c7f38','ZEY',144.9014,-37.7387,205.74,36.53,FALSE,180.81,3.9,'0100',1551240538,0.3571429
'7c7f38','ZEY',144.9018,-37.7421,243.84,37.26,FALSE,162.32,3.25,'0100',1551240549,0.3750000
'7c7f38','ZEY',144.904,-37.7451,274.32,38.97,FALSE,137.68,3.58,'0100',1551240559,0.3928571
'7c7f38','ZEY',144.9072,-37.7472,304.8,38.69,FALSE,125.8,4.23,'0100',1551240568,0.4107143
'7c7f38','ZEY',144.9114,-37.7487,350.52,37.6,FALSE,106.7,3.58,'0100',1551240579,0.4285714
'7c7f38','ZEY',144.9154,-37.7496,388.62,38.44,FALSE,105.52,3.25,'0100',1551240589,0.4464286
'7c7f38','ZEY',144.924,-37.7517,457.2,40.51,FALSE,107.74,3.9,'0100',1551240609,0.4642857
'7c7f38','ZEY',144.9285,-37.7524,495.3,41.19,FALSE,99.34,3.25,'0100',1551240619,0.4821429
'7c7f38','ZEY',144.9331,-37.7532,525.78,42.42,FALSE,104.04,3.25,'0100',1551240629,0.5000000
'7c7f38','ZEY',144.9381,-37.7541,556.26,43.8,FALSE,102.89,3.25,'0100',1551240639,0.5178571
'7c7f38','ZEY',144.9429,-37.7549,563.88,49.44,FALSE,102.01,0,'0100',1551240648,0.5357143
'7c7f38','ZEY',144.9488,-37.756,571.5,49.41,FALSE,104.47,0.65,'0100',1551240659,0.5535714
'7c7f38','ZEY',144.9542,-37.7571,571.5,51.17,FALSE,105.15,0.33,'0100',1551240669,0.5714286
'7c7f38','ZEY',144.96,-37.7584,571.5,50.81,FALSE,105.87,-0.33,'0100',1551240680,0.5892857
'7c7f38','ZEY',144.9651,-37.7594,579.12,49.66,FALSE,103.17,0.33,'0100',1551240689,0.6071429
'7c7f38','ZEY',144.9711,-37.7604,579.12,49.44,FALSE,102.01,0,'0100',1551240700,0.6250000
'7c7f38','ZEY',144.9822,-37.7624,586.74,51.06,FALSE,102.22,0.33,'0100',1551240720,0.6428571
'7c7f38','ZEY',144.9879,-37.7634,594.36,51.56,FALSE,102.09,0,'0100',1551240729,0.6607143
'7c7f38','ZEY',144.9931,-37.7643,586.74,51.17,FALSE,102.78,-0.33,'0100',1551240739,0.6785714
'7c7f38','ZEY',144.9991,-37.7654,586.74,50.17,FALSE,103.04,0.33,'0100',1551240749,0.6964286
'7c7f38','ZEY',145.0043,-37.7663,594.36,49.66,FALSE,103.17,0,'0100',1551240759,0.7142857
'7c7f38','ZEY',145.0098,-37.7673,594.36,50.55,FALSE,102.34,-0.33,'0100',1551240769,0.7321429
'7c7f38','ZEY',145.0155,-37.7683,594.36,50.55,FALSE,102.34,0,'0100',1551240779,0.7500000
'7c7f38','ZEY',145.0214,-37.7693,594.36,49.34,FALSE,101.43,0.33,'0100',1551240789,0.7678571
'7c7f38','ZEY',145.032,-37.7709,586.74,50.45,FALSE,101.77,-0.33,'0100',1551240808,0.7857143
'7c7f38','ZEY',145.0377,-37.7718,586.74,49.74,FALSE,100.73,0.33,'0100',1551240819,0.8035714
'7c7f38','ZEY',145.0432,-37.7726,586.74,50.49,FALSE,98.79,0,'0100',1551240829,0.8214286
'7c7f38','ZEY',145.0491,-37.7733,586.74,50.58,FALSE,99.37,0,'0100',1551240839,0.8392857
'7c7f38','ZEY',145.0548,-37.7742,586.74,50.85,FALSE,101.08,0.33,'0100',1551240849,0.8571429
'7c7f38','ZEY',145.0605,-37.775,586.74,50.49,FALSE,98.79,0,'0100',1551240859,0.8750000
'7c7f38','ZEY',145.0662,-37.7756,586.74,50.35,FALSE,97.63,0.33,'0100',1551240869,0.8928571
'7c7f38','ZEY',145.0714,-37.7763,586.74,49.24,FALSE,100.84,-0.33,'0100',1551240879,0.9107143
'7c7f38','ZEY',145.0776,-37.7773,586.74,48.94,FALSE,102.14,0,'0100',1551240890,0.9285714
'7c7f38','ZEY',145.0881,-37.779,586.74,52.46,FALSE,101.31,-0.65,'0100',1551240909,0.9464286
'7c7f38','ZEY',145.0924,-37.7797,579.12,53.07,FALSE,101.75,-0.98,'0100',1551240916,0.9642857
'7c7f38','ZEY',145.0994,-37.7809,586.74,51.67,FALSE,102.65,1.63,'0100',1551240928,0.9821429
'7c7f38','ZEY',145.1059,-37.7821,579.12,52.29,FALSE,103.08,-1.3,'0100',1551240939,1.0000000
'7c6d78','JST437',144.8159,-37.5508,693.42,84.83,FALSE,171.28,-4.88,'1172',1551239169,0.0000000
'7c6d78','JST437',144.8171,-37.5569,662.94,82.21,FALSE,171.36,-5.2,'1172',1551239177,0.0769231
'7c6d78','JST437',144.8186,-37.5648,601.98,80.1,FALSE,171.51,-3.9,'1172',1551239188,0.1538462
'7c6d78','JST437',144.8199,-37.572,571.5,78.5,FALSE,171.71,-3.25,'1172',1551239198,0.2307692
'7c6d78','JST437',144.8224,-37.5864,480.06,75.88,FALSE,171.81,-4.88,'1172',1551239219,0.3076923
'7c6d78','JST437',144.8237,-37.593,441.96,73.77,FALSE,171.98,-4.55,'1172',1551239229,0.3846154
'7c6d78','JST437',144.8248,-37.5989,403.86,73.34,FALSE,171.53,-4.23,'1172',1551239238,0.4615385
'7c6d78','JST437',144.826,-37.6049,373.38,72.48,FALSE,170.6,-2.93,'1172',1551239247,0.5384615
'7c6d78','JST437',144.8273,-37.6119,335.28,73.77,FALSE,171.98,-4.23,'1172',1551239259,0.6153846
'7c6d78','JST437',144.8279,-37.6159,312.42,74.15,FALSE,172.83,-3.58,'1172',1551239264,0.6923077
'7c6d78','JST437',144.8295,-37.6249,259.08,72.91,FALSE,171.07,-3.9,'1172',1551239278,0.7692308
'7c6d78','JST437',144.8309,-37.632,220.98,73.34,FALSE,171.53,-4.23,'1172',1551239289,0.8461538
'7c6d78','JST437',144.8329,-37.6428,160.02,73.77,FALSE,171.98,-3.9,'1172',1551239306,0.9230769
'7c6d78','JST437',144.8342,-37.6495,106.68,72.32,FALSE,171.41,-4.23,'1172',1551239316,1.0000000
'7c6c60','TGG703',144.8172,-37.5583,662.94,89.85,FALSE,172.1,-3.58,'1065',1551239259,0.0000000
'7c6c60','TGG703',144.8186,-37.5657,609.6,86.1,FALSE,170.37,-6.18,'1065',1551239269,0.0833333
'7c6c60','TGG703',144.8204,-37.5737,563.88,83.82,FALSE,171.17,-4.88,'1065',1551239279,0.1666667
'7c6c60','TGG703',144.8218,-37.581,518.16,82,FALSE,172.43,-2.6,'1065',1551239289,0.2500000
'7c6c60','TGG703',144.8243,-37.5948,441.96,75.81,FALSE,172.2,-5.53,'1065',1551239309,0.3333333
'7c6c60','TGG703',144.8254,-37.6016,388.62,74.21,FALSE,172.43,-5.53,'1065',1551239319,0.4166667
'7c6c60','TGG703',144.8263,-37.6069,358.14,74.15,FALSE,172.83,-4.55,'1065',1551239327,0.5000000
'7c6c60','TGG703',144.8276,-37.6149,312.42,73.85,FALSE,171.59,-4.55,'1065',1551239339,0.5833333
'7c6c60','TGG703',144.8281,-37.6173,297.18,73.85,FALSE,171.59,-4.88,'1065',1551239343,0.6666667
'7c6c60','TGG703',144.8294,-37.6231,259.08,74.59,FALSE,170.47,-3.9,'1065',1551239351,0.7500000
'7c6c60','TGG703',144.8313,-37.6345,205.74,74.15,FALSE,172.83,-3.58,'1065',1551239369,0.8333333
'7c6c60','TGG703',144.8326,-37.6412,160.02,74.51,FALSE,170.86,-3.9,'1065',1551239379,0.9166667
'7c6c60','TGG703',144.8332,-37.644,106.68,73.92,FALSE,171.19,-3.9,'1065',1551239383,1.0000000
'7c1745','',144.9009,-37.732,121.92,40.69,FALSE,182.9,2.28,None,1551239245,0.0000000
'7c1745','EVR',144.9004,-37.7401,190.5,41.24,FALSE,183.58,2.28,None,1551239267,0.0909091
'7c1745','EVR',144.8998,-37.7444,228.6,39.43,FALSE,187.5,4.55,None,1551239279,0.1818182
'7c1745','EVR',144.8995,-37.7481,274.32,40.18,FALSE,182.94,3.9,'0100',1551239289,0.2727273
'7c1745','EVR',144.8987,-37.7556,327.66,44.39,FALSE,184.65,2.6,'0100',1551239310,0.3636364
'7c1745','EVR',144.8984,-37.7593,358.14,44.27,FALSE,182,3.58,'0100',1551239319,0.4545455
'7c1745','EVR',144.8982,-37.7633,396.24,43.84,FALSE,184.04,3.9,'0100',1551239329,0.5454545
'7c1745','EVR',144.8979,-37.7674,411.48,47.91,FALSE,183.08,-0.65,'0100',1551239339,0.6363636
'7c1745','EVR',144.8977,-37.7712,403.86,53.03,FALSE,182.22,0,'0100',1551239347,0.7272727
'7c1745','EVR',144.8975,-37.7768,419.1,52.48,FALSE,181.12,1.3,'0100',1551239359,0.8181818
'7c1745','EVR',144.8974,-37.7814,419.1,51.96,FALSE,180.57,0,'0100',1551239369,0.9090909
'7c1745','EVR',144.8973,-37.786,426.72,51.96,FALSE,180.57,0.65,'0100',1551239379,1.0000000
'7c6d2e','VOZ229',144.804,-37.6592,373.38,91.7,FALSE,276.77,13.66,'3644',1551239310,0.0000000
'7c6d2e','VOZ229',144.7942,-37.6584,502.92,93.99,FALSE,275.02,14.31,'3644',1551239319,0.0666667
'7c6d2e','VOZ229',144.7837,-37.6579,586.74,98.42,FALSE,273.3,7.15,'3644',1551239329,0.1333333
'7c6d2e','VOZ229',144.7712,-37.6573,655.32,107.67,FALSE,273.01,6.18,'3644',1551239340,0.2000000
'7c6d2e','VOZ229',144.7588,-37.6568,723.9,115.37,FALSE,272.81,7.48,'3644',1551239349,0.2666667
'7c6d2e','VOZ229',144.7446,-37.6561,830.58,121.29,FALSE,274.62,14.63,'3644',1551239360,0.3333333
'7c6d2e','VOZ229',144.7322,-37.6551,998.22,120.5,FALSE,275.88,19.51,'3644',1551239369,0.4000000
'7c6d2e','VOZ229',144.7179,-37.654,1127.76,125.06,FALSE,275.43,11.38,'3644',1551239379,0.4666667
'7c6d2e','VOZ229',144.703,-37.653,1234.44,131.03,FALSE,274.28,10.4,'3644',1551239389,0.5333333
'7c6d2e','VOZ229',144.6731,-37.6515,1417.32,144.3,FALSE,275.93,9.75,'3644',1551239408,0.6000000
'7c6d2e','VOZ229',144.655,-37.6491,1516.38,150.84,FALSE,281.81,8.78,'3644',1551239419,0.6666667
'7c6d2e','VOZ229',144.6379,-37.6452,1615.44,155.87,FALSE,287.48,13.66,'3644',1551239430,0.7333333
'7c6d2e','VOZ229',144.621,-37.64,1783.08,157.82,FALSE,292.22,17.56,'3644',1551239440,0.8000000
'7c6d2e','VOZ229',144.6052,-37.6349,1950.72,158.77,FALSE,292.08,19.18,'3644',1551239449,0.8666667
'7c6d2e','VOZ229',144.5874,-37.6292,2141.22,159.44,FALSE,292.18,18.21,'3644',1551239460,0.9333333
'7c6d2e','VOZ229',144.5707,-37.6238,2308.86,160.87,FALSE,291.97,17.88,'3644',1551239470,1.0000000
'7c34c2','KPG',144.5791,-37.7874,579.12,64.97,FALSE,110.87,-2.28,'1200',1551239309,0.0000000
'7c34c2','KPG',144.5861,-37.7892,579.12,63.81,FALSE,106.39,-0.33,'1200',1551239320,0.0555556
'7c34c2','KPG',144.982,-37.7843,396.24,61.01,FALSE,340.8,0.98,'0100',1551240040,0.1111111
'7c34c2','KPG',144.9799,-37.7796,396.24,60.28,FALSE,338.47,0.33,'0100',1551240049,0.1666667
'7c34c2','KPG',144.977,-37.774,396.24,60.95,FALSE,338.2,-1.95,'0100',1551240060,0.2222222
'7c34c2','KPG',144.9744,-37.7689,365.76,62.09,FALSE,338.11,-1.3,'0100',1551240070,0.2777778
'7c34c2','KPG',144.9719,-37.7636,365.76,63.29,FALSE,340.53,-3.25,'0100',1551240080,0.3333333
'7c34c2','KPG',144.9696,-37.7585,335.28,62.32,FALSE,340.22,0.98,'0100',1551240089,0.3888889
'7c34c2','KPG',144.9645,-37.7488,304.8,55.47,FALSE,331.77,-2.6,'0100',1551240109,0.4444444
'7c34c2','KPG',144.9612,-37.7446,274.32,56.22,FALSE,325.44,-1.95,'0100',1551240119,0.5000000
'7c34c2','KPG',144.9575,-37.7404,274.32,55.68,FALSE,324.4,-1.95,'0100',1551240130,0.5555556
'7c34c2','KPG',144.9538,-37.7366,243.84,52.3,FALSE,320.99,-1.63,'0100',1551240139,0.6111111
'7c34c2','KPG',144.95,-37.7335,213.36,47.34,FALSE,312.36,-1.95,'0100',1551240149,0.6666667
'7c34c2','KPG',144.9455,-37.7313,213.36,43.95,FALSE,290.56,-2.6,'0100',1551240159,0.7222222
'7c34c2','KPG',144.9413,-37.7303,182.88,43.81,FALSE,279.46,-1.95,'0100',1551240168,0.7777778
'7c34c2','KPG',144.9361,-37.7301,152.4,41.72,FALSE,267.17,-1.95,'0100',1551240179,0.8333333
'7c34c2','KPG',144.9312,-37.7302,152.4,41.18,FALSE,267.85,-0.65,'0100',1551240189,0.8888889
'7c34c2','KPG',144.9221,-37.7306,91.44,40.16,FALSE,267.8,-2.6,'0100',1551240209,0.9444444
'7c34c2','KPG',144.9214,-37.7306,91.44,40.14,FALSE,268.53,-1.95,'0100',1551240211,1.0000000
'7c7a05','YDZ',144.7872,-37.5551,2057.4,86.94,FALSE,157.38,0,'4047',1551239329,0.0000000
'7c7a05','YDZ',144.791,-37.5624,2057.4,87.42,FALSE,157.51,0,'4047',1551239339,0.0333333
'7c7a05','YDZ',144.7947,-37.5694,2049.78,87.61,FALSE,157.2,0.33,'4047',1551239349,0.0666667
'7c7a05','YDZ',144.7984,-37.5766,2049.78,87.42,FALSE,157.51,0,'4047',1551239359,0.1000000
'7c7a05','YDZ',144.8021,-37.5837,2049.78,87.22,FALSE,157.82,0,'4047',1551239369,0.1333333
'7c7a05','YDZ',144.806,-37.5911,2049.78,87.42,FALSE,157.51,0,'4047',1551239379,0.1666667
'7c7a05','YDZ',144.81,-37.5988,2049.78,87.42,FALSE,157.51,-0.33,'4047',1551239389,0.2000000
'7c7a05','YDZ',144.8174,-37.613,2049.78,85.12,FALSE,157.62,-0.33,'4047',1551239409,0.2333333
'7c7a05','YDZ',144.8213,-37.6204,2026.92,86.27,FALSE,157.56,-2.93,'4047',1551239419,0.2666667
'7c7a05','YDZ',144.8248,-37.6271,1996.44,87.42,FALSE,157.51,-3.25,'4047',1551239429,0.3000000
'7c7a05','YDZ',144.8285,-37.6343,1965.96,88.56,FALSE,157.46,-3.25,'4047',1551239439,0.3333333
'7c7a05','YDZ',144.8325,-37.642,1935.48,88.56,FALSE,157.46,-2.93,'4047',1551239449,0.3666667
'7c7a05','YDZ',144.8363,-37.6493,1905,89.04,FALSE,157.58,-2.93,'4047',1551239459,0.4000000
'7c7a05','YDZ',144.8402,-37.6566,1874.52,89.04,FALSE,157.58,-2.93,'4047',1551239469,0.4333333
'7c7a05','YDZ',144.8449,-37.664,1844.04,90.36,FALSE,148.03,-2.93,'4047',1551239479,0.4666667
'7c7a05','YDZ',144.8502,-37.6706,1821.18,90.2,FALSE,147.58,-2.93,'4047',1551239489,0.5000000
'7c7a05','YDZ',144.8612,-37.6847,1760.22,90.52,FALSE,148.48,-2.6,'4047',1551239509,0.5333333
'7c7a05','YDZ',144.8665,-37.6914,1744.98,88.23,FALSE,148.35,0,'4047',1551239519,0.5666667
'7c7a05','YDZ',144.8719,-37.6983,1737.36,86.65,FALSE,148.1,-2.28,'4047',1551239529,0.6000000
'7c7a05','YDZ',144.877,-37.7048,1699.26,87.8,FALSE,148.17,-3.58,'4047',1551239539,0.6333333
'7c7a05','YDZ',144.8822,-37.7115,1668.78,88.94,FALSE,148.24,-3.25,'4047',1551239549,0.6666667
'7c7a05','YDZ',144.8875,-37.7184,1630.68,90.09,FALSE,148.31,-3.58,'4047',1551239559,0.7000000
'7c7a05','YDZ',144.8935,-37.7261,1592.58,90.36,FALSE,148.03,-3.25,'4047',1551239570,0.7333333
'7c7a05','YDZ',144.8987,-37.7327,1562.1,90.36,FALSE,148.03,-3.58,'4047',1551239580,0.7666667
'7c7a05','YDZ',144.9045,-37.7401,1524,90.36,FALSE,148.03,-3.58,'4047',1551239590,0.8000000
'7c7a05','YDZ',144.9145,-37.7529,1463.04,90.36,FALSE,148.03,-3.58,'4047',1551239609,0.8333333
'7c7a05','YDZ',144.92,-37.7599,1424.94,90.36,FALSE,148.03,-3.58,'4047',1551239619,0.8666667
'7c7a05','YDZ',144.925,-37.7662,1394.46,90.36,FALSE,148.03,-3.58,'4047',1551239628,0.9000000
'7c7a05','YDZ',144.931,-37.7738,1356.36,90.36,FALSE,148.03,-3.58,'4047',1551239639,0.9333333
'7c7a05','YDZ',144.936,-37.7803,1318.26,89.65,FALSE,148.13,-3.58,'4047',1551239649,0.9666667
'7c7a05','YDZ',144.9416,-37.7874,1280.16,88.23,FALSE,148.35,-3.58,'4047',1551239659,1.0000000
'78115d','CCA165',144.8172,-37.5561,784.86,94.65,FALSE,171.56,-8.13,'3002',1551239509,0.0000000
'78115d','CCA165',144.8186,-37.5643,731.52,91.96,FALSE,171.96,-3.9,'3002',1551239519,0.0769231
'78115d','CCA165',144.8201,-37.573,708.66,86.21,FALSE,172.11,-1.63,'3002',1551239530,0.1538462
'78115d','CCA165',144.8214,-37.5796,678.18,80.61,FALSE,171.56,-3.25,'3002',1551239539,0.2307692
'78115d','CCA165',144.8227,-37.5867,647.7,76.47,FALSE,171.49,-3.25,'3002',1551239549,0.3076923
'78115d','CCA165',144.8239,-37.593,617.22,74.51,FALSE,170.86,-4.23,'3002',1551239559,0.3846154
'78115d','CCA165',144.8254,-37.6007,548.64,74.94,FALSE,171.31,-7.15,'3002',1551239570,0.4615385
'78115d','CCA165',144.826,-37.6043,487.68,74.86,FALSE,171.7,-7.48,'3002',1551239576,0.5384615
'78115d','CCA165',144.8277,-37.6136,411.48,74.21,FALSE,172.43,-6.18,'3002',1551239590,0.6153846
'78115d','CCA165',144.8284,-37.6181,327.66,72.68,FALSE,172.27,-6.18,'3002',1551239596,0.6923077
'78115d','CCA165',144.831,-37.6323,251.46,70.79,FALSE,171.22,-4.55,'3002',1551239619,0.7692308
'78115d','CCA165',144.8323,-37.6387,205.74,69.7,FALSE,171.51,-4.55,'3002',1551239629,0.8461538
'78115d','CCA165',144.8332,-37.6434,167.64,69.63,FALSE,171.93,-4.23,'3002',1551239637,0.9230769
'78115d','CCA165',144.8338,-37.6471,114.3,68.1,FALSE,171.75,-3.9,'3002',1551239643,1.0000000
'7c6ddd','QFA871',144.8171,-37.5573,640.08,92.62,FALSE,171.37,-4.88,'1071',1551239669,0.0000000
'7c6ddd','QFA871',144.8186,-37.5653,586.74,89.49,FALSE,171.4,-4.55,'1071',1551239679,0.0833333
'7c6ddd','QFA871',144.82,-37.5733,541.02,85.78,FALSE,171.72,-4.55,'1071',1551239690,0.1666667
'7c6ddd','QFA871',144.8227,-37.5876,464.82,81.71,FALSE,171.31,-4.55,'1071',1551239709,0.2500000
'7c6ddd','QFA871',144.824,-37.5947,426.72,78.07,FALSE,171.28,-4.23,'1071',1551239719,0.3333333
'7c6ddd','QFA871',144.8253,-37.6014,388.62,75.96,FALSE,171.43,-4.23,'1071',1551239729,0.4166667
'7c6ddd','QFA871',144.8265,-37.6078,350.52,74.35,FALSE,171.65,-3.9,'1071',1551239739,0.5000000
'7c6ddd','QFA871',144.8277,-37.6147,312.42,73.26,FALSE,171.93,-4.23,'1071',1551239749,0.5833333
'7c6ddd','QFA871',144.8278,-37.615,297.18,73.26,FALSE,171.93,-4.55,'1071',1551239750,0.6666667
'7c6ddd','QFA871',144.8294,-37.6236,251.46,74.43,FALSE,171.25,-4.23,'1071',1551239762,0.7500000
'7c6ddd','QFA871',144.8314,-37.6345,198.12,74.43,FALSE,171.25,-4.55,'1071',1551239779,0.8333333
'7c6ddd','QFA871',144.8326,-37.6411,160.02,74.79,FALSE,172.09,-4.23,'1071',1551239789,0.9166667
'7c6ddd','QFA871',144.8329,-37.6426,152.4,74.35,FALSE,171.65,-4.23,'1071',1551239791,1.0000000
'7c6b0f','JST832',144.8186,-37.6606,228.6,83.53,FALSE,273.88,16.26,'1476',1551239728,0.0000000
'7c6b0f','JST832',144.8077,-37.6601,403.86,82.51,FALSE,273.93,15.93,'1476',1551239740,0.0625000
'7c6b0f','JST832',144.799,-37.6596,495.3,85.04,FALSE,273.47,7.15,'1476',1551239750,0.1250000
'7c6b0f','JST832',144.7891,-37.6591,533.4,92.29,FALSE,273.84,2.6,'1476',1551239759,0.1875000
'7c6b0f','JST832',144.7775,-37.6584,563.88,100.14,FALSE,274.71,3.25,'1476',1551239769,0.2500000
'7c6b0f','JST832',144.7667,-37.6577,617.22,106.81,FALSE,274.42,6.18,'1476',1551239779,0.3125000
'7c6b0f','JST832',144.7533,-37.6569,670.56,113.6,FALSE,274.94,3.9,'1476',1551239789,0.3750000
'7c6b0f','JST832',144.7254,-37.655,784.86,129.58,FALSE,274.78,8.13,'1476',1551239810,0.4375000
'7c6b0f','JST832',144.712,-37.6542,861.06,135.14,FALSE,274.15,8.78,'1476',1551239818,0.5000000
'7c6b0f','JST832',144.6954,-37.6532,960.12,141.18,FALSE,275.86,9.1,'1476',1551239829,0.5625000
'7c6b0f','JST832',144.6791,-37.6506,1021.08,147.4,FALSE,287.68,5.85,'1476',1551239839,0.6250000
'7c6b0f','JST832',144.6639,-37.6443,1074.42,154.68,FALSE,304.43,5.85,'1476',1551239850,0.6875000
'7c6b0f','JST832',144.6521,-37.6351,1127.76,160.72,FALSE,318.5,5.53,'1476',1551239859,0.7500000
'7c6b0f','JST832',144.6424,-37.6211,1181.1,169.09,FALSE,338.59,5.85,'1476',1551239870,0.8125000
'7c6b0f','JST832',144.6365,-37.6066,1257.3,174.14,FALSE,343.17,9.1,'1476',1551239879,0.8750000
'7c6b0f','JST832',144.6308,-37.5907,1371.6,176.69,FALSE,345.15,14.63,'1476',1551239890,0.9375000
'7c6b0f','JST832',144.6279,-37.56,1661.16,179.3,FALSE,6.92,14.96,'1476',1551239909,1.0000000
'7c15af','RXA3573',144.8412,-37.6874,182.88,64.77,FALSE,173.16,9.75,'4010',1551239769,0.0000000
'7c15af','RXA3573',144.8421,-37.6933,259.08,68.91,FALSE,173.14,7.48,'4010',1551239779,0.0833333
'7c15af','RXA3573',144.8435,-37.7003,335.28,73.85,FALSE,171.59,8.45,'4010',1551239790,0.1666667
'7c15af','RXA3573',144.8453,-37.7134,495.3,75.56,FALSE,173.75,6.5,'4010',1551239810,0.2500000
'7c15af','RXA3573',144.8465,-37.7203,541.02,79.89,FALSE,172.6,5.53,'4010',1551239819,0.3333333
'7c15af','RXA3573',144.8476,-37.7272,609.6,80.91,FALSE,172.69,6.18,'4010',1551239829,0.4166667
'7c15af','RXA3573',144.8488,-37.7343,685.8,80.1,FALSE,171.51,8.78,'4010',1551239839,0.5000000
'7c15af','RXA3573',144.8505,-37.7423,777.24,80.26,FALSE,170.78,7.8,'4010',1551239850,0.5833333
'7c15af','RXA3573',144.8519,-37.749,845.82,79.84,FALSE,170.36,7.15,'4010',1551239859,0.6666667
'7c15af','RXA3573',144.8533,-37.7565,922.02,79.75,FALSE,170.72,7.15,'4010',1551239870,0.7500000
'7c15af','RXA3573',144.8546,-37.7634,982.98,81.28,FALSE,170.9,6.18,'4010',1551239879,0.8333333
'7c15af','RXA3573',144.8562,-37.7711,1036.32,83.9,FALSE,170.83,4.88,'4010',1551239890,0.9166667
'7c15af','RXA3573',144.8591,-37.7862,1120.14,90.66,FALSE,170.86,4.23,'4010',1551239909,1.0000000
'7c472a','OCC',145.1011,-37.7247,1158.24,92.67,FALSE,267.77,-3.9,'3743',1551239769,0.0000000
'7c472a','OCC',145.0922,-37.7249,1127.76,92.61,FALSE,269.36,-3.9,'3743',1551239778,0.0500000
'7c472a','OCC',145.0799,-37.7249,1097.28,93.11,FALSE,270,-3.9,'3743',1551239789,0.1000000
'7c472a','OCC',145.0586,-37.7251,1005.84,93.87,FALSE,265.91,-4.23,'3743',1551239810,0.1500000
'7c472a','OCC',145.0483,-37.7258,975.36,94.04,FALSE,264.66,-3.9,'3743',1551239819,0.2000000
'7c472a','OCC',145.0376,-37.7266,914.4,93.01,FALSE,264.6,-3.9,'3743',1551239829,0.2500000
'7c472a','OCC',145.0271,-37.7274,883.92,90.4,FALSE,264.78,-4.23,'3743',1551239839,0.3000000
'7c472a','OCC',145.0166,-37.728,853.44,86.52,FALSE,267.27,-3.58,'3743',1551239850,0.3500000
'7c472a','OCC',145.0074,-37.7282,822.96,81.84,FALSE,268.2,-2.28,'3743',1551239859,0.4000000
'7c472a','OCC',144.9981,-37.7284,792.48,79.24,FALSE,268.88,-3.9,'3743',1551239870,0.4500000
'7c472a','OCC',144.9895,-37.7286,731.52,76.15,FALSE,268.84,-8.13,'3743',1551239879,0.5000000
'7c472a','OCC',144.9808,-37.7288,670.56,72.55,FALSE,268.78,-8.13,'3743',1551239890,0.5500000
'7c472a','OCC',144.966,-37.7292,518.16,66.95,FALSE,267.36,-8.13,'3743',1551239909,0.6000000
'7c472a','OCC',144.9579,-37.7295,457.2,65.39,FALSE,267.75,-6.18,'3743',1551239919,0.6500000
'7c472a','OCC',144.9506,-37.7298,396.24,60.78,FALSE,267.09,-6.5,'3743',1551239930,0.7000000
'7c472a','OCC',144.9439,-37.7298,304.8,57.63,FALSE,268.98,-6.5,'3743',1551239940,0.7500000
'7c472a','OCC',144.938,-37.7301,243.84,55.16,FALSE,266.26,-5.85,'3743',1551239949,0.8000000
'7c472a','OCC',144.9314,-37.7303,182.88,53.03,FALSE,267.78,-4.88,'3743',1551239960,0.8500000
'7c472a','OCC',144.9258,-37.7305,152.4,51.49,FALSE,267.71,-5.85,'3743',1551239969,0.9000000
'7c472a','OCC',144.9204,-37.7307,91.44,50.46,FALSE,267.66,-5.85,'3743',1551239979,0.9500000
'7c472a','OCC',144.9162,-37.7308,60.96,49.92,FALSE,268.23,-6.5,'3743',1551239986,1.0000000
'7c6de7','QFA682',144.8173,-37.5587,632.46,88.04,FALSE,170.92,-5.2,'3754',1551239809,0.0000000
'7c6de7','QFA682',144.8189,-37.5668,586.74,83.6,FALSE,172.22,-4.55,'3754',1551239819,0.0833333
'7c6de7','QFA682',144.8201,-37.5744,533.4,79.45,FALSE,172.18,-5.53,'3754',1551239830,0.1666667
'7c6de7','QFA682',144.8215,-37.5809,495.3,77.72,FALSE,170.48,-4.23,'3754',1551239839,0.2500000
'7c6de7','QFA682',144.8228,-37.5882,449.58,76.32,FALSE,172.25,-4.88,'3754',1551239850,0.3333333
'7c6de7','QFA682',144.8239,-37.5945,411.48,75.37,FALSE,171.76,-4.23,'3754',1551239859,0.4166667
'7c6de7','QFA682',144.8253,-37.6016,373.38,73.85,FALSE,171.59,-3.9,'3754',1551239870,0.5000000
'7c6de7','QFA682',144.8264,-37.6078,342.9,73.92,FALSE,171.19,-3.9,'3754',1551239879,0.5833333
'7c6de7','QFA682',144.8277,-37.6147,312.42,73.92,FALSE,171.19,-2.93,'3754',1551239890,0.6666667
'7c6de7','QFA682',144.83,-37.6262,243.84,73.77,FALSE,171.98,-3.9,'3754',1551239907,0.7500000
'7c6de7','QFA682',144.8314,-37.6343,198.12,73.77,FALSE,171.98,-4.88,'3754',1551239920,0.8333333
'7c6de7','QFA682',144.8326,-37.6409,160.02,73.41,FALSE,171.13,-3.58,'3754',1551239930,0.9166667
'7c6de7','QFA682',144.8338,-37.6471,121.92,73.26,FALSE,171.93,-4.23,'3754',1551239939,1.0000000
'7c7a36','VOZ738',144.8172,-37.5583,632.46,88.47,FALSE,171.3,-4.88,'1003',1551239918,0.0000000
'7c7a36','VOZ738',144.8188,-37.5663,586.74,86.29,FALSE,171.77,-4.55,'1003',1551239929,0.0833333
'7c7a36','VOZ738',144.82,-37.5735,548.64,82.72,FALSE,171.42,-4.55,'1003',1551239938,0.1666667
'7c7a36','VOZ738',144.8215,-37.5811,502.92,80.61,FALSE,171.56,-3.58,'1003',1551239949,0.2500000
'7c7a36','VOZ738',144.8229,-37.5883,464.82,77.48,FALSE,171.6,-4.23,'1003',1551239959,0.3333333
'7c7a36','VOZ738',144.8239,-37.5946,426.72,74.28,FALSE,172.04,-3.25,'1003',1551239969,0.4166667
'7c7a36','VOZ738',144.8253,-37.6017,388.62,73.92,FALSE,171.19,-3.9,'1003',1551239979,0.5000000
'7c7a36','VOZ738',144.8265,-37.6079,350.52,74.35,FALSE,171.65,-3.58,'1003',1551239989,0.5833333
'7c7a36','VOZ738',144.828,-37.6158,304.8,74.51,FALSE,170.86,-3.58,'1003',1551240001,0.6666667
'7c7a36','VOZ738',144.8294,-37.6235,259.08,74.51,FALSE,170.86,-3.58,'1003',1551240012,0.7500000
'7c7a36','VOZ738',144.8315,-37.6345,198.12,74.43,FALSE,171.25,-3.25,'1003',1551240029,0.8333333
'7c7a36','VOZ738',144.8327,-37.6413,160.02,73.26,FALSE,171.93,-4.23,'1003',1551240039,0.9166667
'7c7a36','VOZ738',144.8332,-37.6438,129.54,73.85,FALSE,171.59,-2.93,'1003',1551240043,1.0000000
'7c6c9b','JST515',144.817,-37.5574,735.58,100.12,FALSE,172.62,-6.18,'3617',1551240079,0.0000000
'7c6c9b','JST515',144.8184,-37.565,617.22,96.84,FALSE,171.14,-5.85,'3617',1551240089,0.1111111
'7c6c9b','JST515',144.8217,-37.5822,510.54,90.08,FALSE,171.13,-5.2,'3617',1551240109,0.2222222
'7c6c9b','JST515',144.8231,-37.5899,457.2,86.21,FALSE,172.11,-5.2,'3617',1551240119,0.3333333
'7c6c9b','JST515',144.8244,-37.5972,419.1,79.52,FALSE,171.82,-5.2,'3617',1551240129,0.4444444
'7c6c9b','JST515',144.8256,-37.6037,381,75.96,FALSE,171.43,-4.23,'3617',1551240138,0.5555556
'7c6c9b','JST515',144.8269,-37.6108,335.28,70.79,FALSE,171.22,-4.23,'3617',1551240149,0.6666667
'7c6c9b','JST515',144.8276,-37.6138,259.08,69.78,FALSE,171.09,-4.88,'3617',1551240154,0.7777778
'7c6c9b','JST515',144.8314,-37.6349,198.12,67.59,FALSE,171.68,-2.93,'3617',1551240188,0.8888889
'7c6c9b','JST515',144.8325,-37.6408,160.02,68.61,FALSE,171.81,-3.58,'4201',1551240198,1.0000000
'7c6c9c','',144.8114,-37.66,312.42,83.61,FALSE,274.59,13.33,'4327',1551240149,0.0000000
'7c6c9c','JST774',144.8026,-37.6594,419.1,87.33,FALSE,275.41,8.78,'4327',1551240159,0.0666667
'7c6c9c','JST774',144.7917,-37.6585,495.3,92.5,FALSE,275.43,6.5,'4327',1551240169,0.1333333
'7c6c9c','JST774',144.7815,-37.6578,548.64,98.6,FALSE,274.79,5.53,'4327',1551240179,0.2000000
'7c6c9c','JST774',144.7706,-37.6572,594.36,105.82,FALSE,274.74,5.53,'4327',1551240188,0.2666667
'7c6c9c','JST774',144.7445,-37.6555,716.28,121.25,FALSE,274.38,8.78,'4327',1551240209,0.3333333
'7c6c9c','JST774',144.7297,-37.6546,815.34,127.48,FALSE,274.63,10.73,'4327',1551240219,0.4000000
'7c6c9c','JST774',144.7141,-37.6535,967.74,130.65,FALSE,274.97,18.86,'4327',1551240230,0.4666667
'7c6c9c','JST774',144.7039,-37.6528,1104.9,131.76,FALSE,275.38,15.61,'4327',1551240238,0.5333333
'7c6c9c','JST774',144.6849,-37.6514,1219.2,136.93,FALSE,275.39,9.43,'4327',1551240249,0.6000000
'7c6c9c','JST774',144.6698,-37.6503,1272.54,135.86,FALSE,275.21,5.53,'4327',1551240259,0.6666667
'7c6c9c','JST774',144.6553,-37.6485,1325.88,135.71,FALSE,282.03,5.53,'4327',1551240268,0.7333333
'7c6c9c','JST774',144.6395,-37.6441,1386.84,135.56,FALSE,291.6,5.85,'4327',1551240279,0.8000000
'7c6c9c','JST774',144.6264,-37.6399,1432.56,136.13,FALSE,292.2,5.53,'4327',1551240289,0.8666667
'7c6c9c','JST774',144.5977,-37.6308,1592.58,145.97,FALSE,291.5,7.8,'4327',1551240308,0.9333333
'7c6c9c','JST774',144.5793,-37.625,1668.78,155.05,FALSE,291.2,7.15,'4327',1551240319,1.0000000
'7c6c55','VOZ326',144.8158,-37.5502,693.42,100.25,FALSE,172.04,-5.85,'1004',1551240158,0.0000000
'7c6c55','VOZ326',144.8173,-37.5586,647.7,96.18,FALSE,171.7,-5.2,'1004',1551240167,0.0909091
'7c6c55','VOZ326',144.819,-37.5676,594.36,90.51,FALSE,171.5,-5.2,'1004',1551240178,0.1818182
'7c6c55','VOZ326',144.8205,-37.5758,548.64,87.74,FALSE,172.25,-5.53,'1004',1551240189,0.2727273
'7c6c55','VOZ326',144.8234,-37.591,449.58,78.94,FALSE,172.13,-5.53,'1004',1551240209,0.3636364
'7c6c55','VOZ326',144.8245,-37.5974,426.72,73.77,FALSE,171.98,-2.6,'1004',1551240219,0.4545455
'7c6c55','VOZ326',144.8259,-37.6043,388.62,72.91,FALSE,171.07,-5.2,'1004',1551240229,0.5454545
'7c6c55','VOZ326',144.8267,-37.6089,358.14,71.53,FALSE,172.98,-5.53,'1004',1551240236,0.6363636
'7c6c55','VOZ326',144.8279,-37.6162,274.32,71.55,FALSE,170.06,-4.23,'1004',1551240248,0.7272727
'7c6c55','VOZ326',144.8319,-37.6368,190.5,72.75,FALSE,171.87,-4.55,'1004',1551240280,0.8181818
'7c6c55','VOZ326',144.8329,-37.6428,160.02,72.24,FALSE,171.81,-4.88,'1004',1551240289,0.9090909
'7c6c55','VOZ326',144.8331,-37.6438,152.4,72.32,FALSE,171.41,-4.23,'1004',1551240291,1.0000000
'7c7cbf','YXD',144.9353,-37.785,396.24,55.56,FALSE,0,0,'0100',1551240189,0.0000000
'7c7cbf','YXD',144.9341,-37.7749,396.24,55.16,FALSE,356.26,-0.98,'0100',1551240210,0.0769231
'7c7cbf','YXD',144.9338,-37.7703,396.24,55.13,FALSE,356.79,0.33,'0100',1551240219,0.1538462
'7c7cbf','YXD',144.9333,-37.7651,365.76,54.82,FALSE,354.08,-1.95,'0100',1551240230,0.2307692
'7c7cbf','YXD',144.9326,-37.7604,335.28,55.34,FALSE,354.13,-3.25,'0100',1551240239,0.3076923
'7c7cbf','YXD',144.9322,-37.7556,335.28,54.62,FALSE,356.76,-3.9,'0100',1551240249,0.3846154
'7c7cbf','YXD',144.9322,-37.7507,304.8,47.85,FALSE,1.23,-0.65,'0100',1551240260,0.4615385
'7c7cbf','YXD',144.9323,-37.7466,274.32,44.27,FALSE,2,0,'0100',1551240269,0.5384615
'7c7cbf','YXD',144.9325,-37.7431,274.32,43.22,FALSE,0.68,-1.95,'0100',1551240278,0.6153846
'7c7cbf','YXD',144.9323,-37.7393,243.84,42.23,FALSE,357.21,-1.63,'0100',1551240288,0.6923077
'7c7cbf','YXD',144.9301,-37.7322,182.88,38.49,FALSE,322.06,-4.23,'0100',1551240309,0.7692308
'7c7cbf','YXD',144.9264,-37.7303,152.4,36.03,FALSE,279.87,-5.53,'0100',1551240320,0.8461538
'7c7cbf','YXD',144.9223,-37.7306,121.92,37.4,FALSE,262.09,-4.88,'0100',1551240329,0.9230769
'7c7cbf','YXD',144.9203,-37.7307,60.96,37.84,FALSE,262.97,-4.55,'0100',1551240334,1.0000000
'7c6db1','',144.8173,-37.6604,190.5,89.38,FALSE,275.28,12.68,'3671',1551240305,0.0000000
'7c6db1','',144.803,-37.6593,358.14,90.4,FALSE,275.22,14.63,'3671',1551240319,0.0625000
'7c6db1','QFA442',144.7925,-37.6586,502.92,92.41,FALSE,274.79,12.03,'3671',1551240329,0.1250000
'7c6db1','QFA442',144.7809,-37.6579,571.5,102.59,FALSE,273.74,7.8,'3671',1551240340,0.1875000
'7c6db1','QFA442',144.7701,-37.6573,640.08,109.33,FALSE,274.05,8.13,'3671',1551240349,0.2500000
'7c6db1','QFA442',144.7563,-37.6564,716.28,118.64,FALSE,274.23,8.78,'3671',1551240359,0.3125000
'7c6db1','QFA442',144.7437,-37.6557,800.1,124.37,FALSE,274.51,10.08,'3671',1551240368,0.3750000
'7c6db1','QFA442',144.7274,-37.6547,914.4,130.56,FALSE,274.52,10.4,'3671',1551240380,0.4375000
'7c6db1','QFA442',144.7132,-37.6538,990.6,136.72,FALSE,274.32,8.45,'3671',1551240389,0.5000000
'7c6db1','QFA442',144.6806,-37.6483,1120.14,152.32,FALSE,293.27,6.18,'3671',1551240409,0.5625000
'7c6db1','QFA442',144.6665,-37.6415,1181.1,158.78,FALSE,305.9,5.2,'3671',1551240419,0.6250000
'7c6db1','QFA442',144.6539,-37.631,1295.4,162.17,FALSE,320.15,14.31,'3671',1551240429,0.6875000
'7c6db1','QFA442',144.6445,-37.6179,1463.04,164.78,FALSE,334.88,14.31,'3671',1551240439,0.7500000
'7c6db1','QFA442',144.6388,-37.6042,1623.06,165.71,FALSE,343.59,16.91,'3671',1551240449,0.8125000
'7c6db1','QFA442',144.6332,-37.5892,1783.08,167.78,FALSE,343.07,15.28,'3671',1551240459,0.8750000
'7c6db1','QFA442',144.6287,-37.574,1943.1,170.34,FALSE,349.91,14.31,'3671',1551240469,0.9375000
'7c6db1','QFA442',144.6286,-37.5589,2103.12,172.82,FALSE,4.27,15.28,'3671',1551240479,1.0000000
'7c77ff','QFA686',144.817,-37.5571,640.08,100.33,FALSE,171.75,-5.53,'4006',1551240329,0.0000000
'7c77ff','QFA686',144.8186,-37.5653,594.36,95.67,FALSE,171.65,-5.53,'4006',1551240339,0.0909091
'7c77ff','QFA686',144.8201,-37.574,541.02,91.96,FALSE,171.96,-5.2,'4006',1551240349,0.1818182
'7c77ff','QFA686',144.8216,-37.5821,495.3,87.74,FALSE,172.25,-5.53,'4006',1551240359,0.2727273
'7c77ff','QFA686',144.823,-37.5894,449.58,83.74,FALSE,171.52,-4.88,'4006',1551240369,0.3636364
'7c77ff','QFA686',144.8244,-37.5971,411.48,79.59,FALSE,171.45,-4.55,'4006',1551240380,0.4545455
'7c77ff','QFA686',144.8256,-37.6034,373.38,77.48,FALSE,171.6,-3.58,'4006',1551240389,0.5454545
'7c77ff','QFA686',144.8281,-37.6165,297.18,74.94,FALSE,171.31,-5.2,'4006',1551240408,0.6363636
'7c77ff','QFA686',144.8294,-37.6234,259.08,74.43,FALSE,171.25,-3.25,'4006',1551240419,0.7272727
'7c77ff','QFA686',144.8307,-37.6304,220.98,73.41,FALSE,171.13,-3.9,'4006',1551240430,0.8181818
'7c77ff','QFA686',144.8319,-37.6367,182.88,73.77,FALSE,171.98,-3.9,'4006',1551240439,0.9090909
'7c77ff','QFA686',144.8331,-37.6435,109.05,73.85,FALSE,171.59,-4.23,'4006',1551240449,1.0000000
'7c62ab','RXA3562',145.1025,-37.7095,3208.02,145.45,FALSE,334.89,-6.83,'4027',1551240369,0.0000000
'7c62ab','RXA3562',145.0951,-37.6967,3139.44,144.55,FALSE,335.17,-6.83,'4027',1551240379,0.0370370
'7c62ab','RXA3562',145.0884,-37.6852,3078.48,144.55,FALSE,335.17,-6.18,'4027',1551240389,0.0740741
'7c62ab','RXA3562',145.0746,-37.6616,2948.94,143.4,FALSE,335.18,-6.83,'4027',1551240409,0.1111111
'7c62ab','RXA3562',145.0683,-37.6505,2887.98,142.72,FALSE,335.28,-5.85,'4027',1551240419,0.1481481
'7c62ab','RXA3562',145.061,-37.638,2819.4,142.25,FALSE,335.2,-6.5,'4027',1551240429,0.1851852
'7c62ab','RXA3562',145.0544,-37.6268,2758.44,141.31,FALSE,335.02,-7.15,'4027',1551240439,0.2222222
'7c62ab','RXA3562',145.048,-37.6157,2697.48,136.28,FALSE,335.47,-5.85,'4027',1551240449,0.2592593
'7c62ab','RXA3562',145.0418,-37.605,2628.9,131.43,FALSE,335.24,-6.5,'4027',1551240459,0.2962963
'7c62ab','RXA3562',145.0354,-37.5941,2560.32,127.05,FALSE,335.1,-6.83,'4027',1551240469,0.3333333
'7c62ab','RXA3562',145.0295,-37.584,2499.36,123.35,FALSE,334.82,-7.15,'4027',1551240479,0.3703704
'7c62ab','RXA3562',145.0236,-37.5741,2446.02,119.22,FALSE,334.98,-5.2,'4027',1551240489,0.4074074
'7c62ab','RXA3562',145.0127,-37.5557,2339.34,112.76,FALSE,334.6,-6.5,'4027',1551240509,0.4444444
'7c62ab','RXA3562',144.8151,-37.5502,777.24,97.6,FALSE,170.29,-6.5,'4027',1551240849,0.4814815
'7c62ab','RXA3562',144.8169,-37.5589,716.28,96.92,FALSE,170.84,-6.83,'4027',1551240859,0.5185185
'7c62ab','RXA3562',144.8186,-37.5676,655.32,94.73,FALSE,171.25,-5.2,'4027',1551240869,0.5555556
'7c62ab','RXA3562',144.82,-37.5753,609.6,90,FALSE,171.45,-5.2,'4027',1551240879,0.5925926
'7c62ab','RXA3562',144.8216,-37.5833,548.64,83.82,FALSE,171.17,-5.2,'4027',1551240889,0.6296296
'7c62ab','RXA3562',144.8241,-37.5965,472.44,73.26,FALSE,171.93,-5.2,'4027',1551240909,0.6666667
'7c62ab','RXA3562',144.8255,-37.6037,426.72,69.7,FALSE,171.51,-3.58,'4027',1551240920,0.7037037
'7c62ab','RXA3562',144.8263,-37.6082,403.86,68.68,FALSE,171.38,-3.25,'4027',1551240927,0.7407407
'7c62ab','RXA3562',144.8277,-37.6157,327.66,68.68,FALSE,171.38,-3.9,'4027',1551240939,0.7777778
'7c62ab','RXA3562',144.8298,-37.6265,304.8,65.55,FALSE,171.42,-2.28,'4027',1551240958,0.8148148
'7c62ab','RXA3562',144.8314,-37.6335,259.08,64.79,FALSE,169.94,-3.58,'4027',1551240970,0.8518519
'7c62ab','RXA3562',144.8324,-37.6393,213.36,62.86,FALSE,172,-4.23,'4027',1551240980,0.8888889
'7c62ab','RXA3562',144.8331,-37.6433,190.5,61.33,FALSE,171.8,-3.58,'4027',1551240987,0.9259259
'7c62ab','RXA3562',144.834,-37.6479,152.4,61.33,FALSE,171.8,-3.58,'4027',1551240995,0.9629630
'7c62ab','RXA3562',144.8346,-37.6515,129.54,61.33,FALSE,171.8,-3.58,'4027',1551241002,1.0000000
'a1fc9d','',144.9016,-37.7342,129.54,79.43,FALSE,175.91,12.35,'3733',1551240448,0.0000000
'a1fc9d','N227SL',144.9031,-37.7428,259.08,92.08,FALSE,166.43,12.03,'3733',1551240459,0.1428571
'a1fc9d','N227SL',144.9064,-37.7507,381,96.8,FALSE,161.08,13.66,'3733',1551240469,0.2857143
'a1fc9d','N227SL',144.9099,-37.7595,518.16,102.05,FALSE,163.3,12.68,'3733',1551240479,0.4285714
'a1fc9d','N227SL',144.9132,-37.7683,647.7,105.15,FALSE,163.52,13.66,'3733',1551240489,0.5714286
'a1fc9d','N227SL',144.9205,-37.7865,922.02,109.32,FALSE,161.91,14.96,'3733',1551240509,0.7142857
'a1fc9d','N227SL',144.5953,-37.7859,1768.34,153.84,FALSE,279.43,13.33,'3733',1551240807,0.8571429
'a1fc9d','N227SL',144.5766,-37.7834,1897.88,155.45,FALSE,279.52,13.66,'3733',1551240818,1.0000000
'7c6c52','VOZ224',144.8172,-37.5576,662.94,106.44,FALSE,172.22,-6.5,'4205',1551240459,0.0000000
'7c6c52','VOZ224',144.819,-37.5674,601.98,105.13,FALSE,171.28,-5.85,'4205',1551240470,0.1000000
'7c6c52','VOZ224',144.8204,-37.5745,556.26,101.07,FALSE,170.92,-6.18,'4205',1551240478,0.2000000
'7c6c52','VOZ224',144.8225,-37.5851,495.3,95.24,FALSE,171.3,-5.85,'4205',1551240490,0.3000000
'7c6c52','VOZ224',144.8252,-37.6004,411.48,86.21,FALSE,172.11,-3.58,'4205',1551240509,0.4000000
'7c6c52','VOZ224',144.8265,-37.6081,365.76,79.38,FALSE,172.55,-5.53,'4205',1551240519,0.5000000
'7c6c52','VOZ224',144.8275,-37.6139,312.42,77.05,FALSE,171.17,-5.85,'4205',1551240528,0.6000000
'7c6c52','VOZ224',144.8282,-37.6176,266.7,73.7,FALSE,172.38,-5.2,'4205',1551240533,0.7000000
'7c6c52','VOZ224',144.8314,-37.6347,198.12,72.24,FALSE,171.81,-4.23,'4205',1551240559,0.8000000
'7c6c52','VOZ224',144.8326,-37.6411,167.64,73.5,FALSE,170.74,-3.58,'4205',1551240569,0.9000000
'7c6c52','VOZ224',144.8328,-37.6421,160.02,73.5,FALSE,170.74,-3.58,'4205',1551240571,1.0000000
'7c6b18','JST775',144.8168,-37.5547,662.94,91.96,FALSE,171.96,-5.2,'3647',1551240609,0.0000000
'7c6b18','JST775',144.8182,-37.563,624.84,86.87,FALSE,171.49,-3.58,'3647',1551240618,0.0909091
'7c6b18','JST775',144.8196,-37.5702,579.12,84.25,FALSE,171.57,-4.55,'3647',1551240628,0.1818182
'7c6b18','JST775',144.821,-37.5774,548.64,78.07,FALSE,171.28,-3.58,'3647',1551240638,0.2727273
'7c6b18','JST775',144.8224,-37.5853,495.3,74.21,FALSE,172.43,-4.88,'3647',1551240649,0.3636364
'7c6b18','JST775',144.8235,-37.5916,449.58,71.23,FALSE,171.69,-4.55,'3647',1551240659,0.4545455
'7c6b18','JST775',144.8245,-37.5971,419.1,70.13,FALSE,171.99,-3.9,'3647',1551240668,0.5454545
'7c6b18','JST775',144.8256,-37.603,381,68.68,FALSE,171.38,-4.23,'3647',1551240678,0.6363636
'7c6b18','JST775',144.8259,-37.6043,365.76,68.61,FALSE,171.81,-4.23,'3647',1551240680,0.7272727
'7c6b18','JST775',144.8281,-37.6159,274.32,69.35,FALSE,170.61,-4.23,'3647',1551240698,0.8181818
'7c6b18','JST775',144.8314,-37.6347,198.12,68.17,FALSE,171.32,-4.23,'3647',1551240730,0.9090909
'7c6b18','JST775',144.8324,-37.6403,137.16,68.68,FALSE,171.38,-3.58,'3647',1551240739,1.0000000
'7c6d22','VOZ333',144.8177,-37.6604,182.88,90.87,FALSE,274.87,14.31,'1353',1551240676,0.0000000
'7c6d22','VOZ333',144.8043,-37.6594,373.38,90.36,FALSE,274.9,17.23,'1353',1551240689,0.0625000
'7c6d22','VOZ333',144.7938,-37.6587,480.06,95.06,FALSE,275.28,4.23,'1353',1551240699,0.1250000
'7c6d22','VOZ333',144.7698,-37.6575,601.98,111.22,FALSE,272.39,9.43,'1353',1551240719,0.1875000
'7c6d22','VOZ333',144.7575,-37.6569,678.18,116.59,FALSE,274.3,7.8,'1353',1551240729,0.2500000
'7c6d22','VOZ333',144.7445,-37.656,754.38,123.94,FALSE,275,10.08,'1353',1551240738,0.3125000
'7c6d22','VOZ333',144.7287,-37.655,868.68,128.98,FALSE,274.35,12.68,'1353',1551240749,0.3750000
'7c6d22','VOZ333',144.7157,-37.654,1005.84,129.76,FALSE,275.69,18.53,'1353',1551240758,0.4375000
'7c6d22','VOZ333',144.7002,-37.653,1173.48,130.6,FALSE,274.74,15.28,'1353',1551240769,0.5000000
'7c6d22','VOZ333',144.6857,-37.652,1310.64,132.65,FALSE,274.67,13.66,'1353',1551240778,0.5625000
'7c6d22','VOZ333',144.6697,-37.6486,1424.94,137.4,FALSE,295.03,11.05,'1353',1551240789,0.6250000
'7c6d22','VOZ333',144.649,-37.6309,1630.68,145.64,FALSE,332.89,11.38,'1353',1551240809,0.6875000
'7c6d22','VOZ333',144.6438,-37.6179,1760.22,148.88,FALSE,347.02,15.28,'1353',1551240819,0.7500000
'7c6d22','VOZ333',144.6396,-37.6043,1897.38,151.48,FALSE,345.44,13.98,'1353',1551240829,0.8125000
'7c6d22','VOZ333',144.635,-37.5916,2042.16,152.46,FALSE,342.73,15.61,'1353',1551240839,0.8750000
'7c6d22','VOZ333',144.6296,-37.578,2171.7,155.41,FALSE,343.06,14.96,'1353',1551240849,0.9375000
'7c6d22','VOZ333',144.6267,-37.5643,2286,159.52,FALSE,355.19,11.05,'1353',1551240859,1.0000000
'7c6bbd','JST67',144.8421,-37.6914,236.22,93.64,FALSE,171.47,11.38,'1452',1551240730,0.0000000
'7c6bbd','JST67',144.8435,-37.699,350.52,93.71,FALSE,171.16,12.68,'1452',1551240739,0.0400000
'7c6bbd','JST67',144.8453,-37.7079,480.06,95.4,FALSE,170.69,10.4,'1452',1551240749,0.0800000
'7c6bbd','JST67',144.8469,-37.7161,518.16,103.46,FALSE,171.71,3.58,'1452',1551240758,0.1200000
'7c6bbd','JST67',144.8488,-37.7267,556.26,113.28,FALSE,171.91,3.58,'1452',1551240769,0.1600000
'7c6bbd','JST67',144.8505,-37.7366,601.98,119.84,FALSE,174.83,7.48,'1452',1551240779,0.2000000
'7c6bbd','JST67',144.85,-37.7479,685.8,124.12,FALSE,187.86,7.8,'1452',1551240789,0.2400000
'7c6bbd','JST67',144.8375,-37.7679,830.58,133.17,FALSE,223.75,10.73,'1452',1551240809,0.2800000
'7c6bbd','JST67',144.8247,-37.7749,944.88,135.35,FALSE,245.29,13,'1452',1551240819,0.3200000
'7c6bbd','JST67',144.8089,-37.778,1082.04,136.24,FALSE,265.45,14.63,'1452',1551240830,0.3600000
'7c6bbd','JST67',144.7944,-37.7766,1226.82,135.4,FALSE,285.2,15.93,'1452',1551240839,0.4000000
'7c6bbd','JST67',144.7799,-37.7726,1386.84,135.29,FALSE,290.71,16.91,'1452',1551240849,0.4400000
'7c6bbd','JST67',144.7661,-37.7685,1539.24,134.27,FALSE,290.17,17.56,'1452',1551240859,0.4800000
'7c6bbd','JST67',144.7505,-37.7639,1722.12,134.15,FALSE,290.66,16.91,'1452',1551240870,0.5200000
'7c6bbd','JST67',144.7378,-37.7601,1851.66,134.33,FALSE,290.86,15.28,'1452',1551240879,0.5600000
'7c6bbd','JST67',144.723,-37.7556,2019.3,134.52,FALSE,291.07,14.96,'1452',1551240889,0.6000000
'7c6bbd','JST67',144.6954,-37.7472,2278.38,136.62,FALSE,290.96,14.31,'1452',1551240908,0.6400000
'7c6bbd','JST67',144.6797,-37.7425,2423.16,137.58,FALSE,290.81,13.98,'1452',1551240919,0.6800000
'7c6bbd','JST67',144.6668,-37.7386,2537.46,138.55,FALSE,290.66,13.98,'1452',1551240928,0.7200000
'7c6bbd','JST67',144.6506,-37.7338,2689.86,139.99,FALSE,290.43,13.98,'1452',1551240939,0.7600000
'7c6bbd','JST67',144.6355,-37.7293,2819.4,141.13,FALSE,290.48,13.66,'1452',1551240949,0.8000000
'7c6bbd','JST67',144.6207,-37.7243,2948.94,143.66,FALSE,298.68,12.03,'1452',1551240959,0.8400000
'7c6bbd','JST67',144.6075,-37.717,3048,145.91,FALSE,309.13,11.7,'1452',1551240969,0.8800000
'7c6bbd','JST67',144.5953,-37.7071,3124.2,152.62,FALSE,319.92,4.23,'1452',1551240979,0.9200000
'7c6bbd','JST67',144.5849,-37.6941,3177.54,159.8,FALSE,331.12,4.88,'1452',1551240990,0.9600000
'7c6bbd','JST67',144.5758,-37.6805,3238.5,166.86,FALSE,331.85,5.85,'1452',1551241000,1.0000000
'7c77fd','QFA439',144.8175,-37.5589,632.46,95.32,FALSE,171,-5.2,'4051',1551240728,0.0000000
'7c77fd','QFA439',144.819,-37.5677,579.12,91.38,FALSE,172.23,-5.2,'4051',1551240739,0.0909091
'7c77fd','QFA439',144.8205,-37.5761,533.4,87.89,FALSE,171.59,-4.55,'4051',1551240749,0.1818182
'7c77fd','QFA439',144.822,-37.5833,487.68,85.42,FALSE,170.99,-3.9,'4051',1551240759,0.2727273
'7c77fd','QFA439',144.8234,-37.5913,441.96,81.49,FALSE,172.38,-4.55,'4051',1551240769,0.3636364
'7c77fd','QFA439',144.8245,-37.5975,411.48,79.01,FALSE,171.76,-4.55,'4051',1551240778,0.4545455
'7c77fd','QFA439',144.8258,-37.6044,365.76,78.07,FALSE,171.28,-4.55,'4051',1551240788,0.5454545
'7c77fd','QFA439',144.8279,-37.6156,289.56,78.58,FALSE,171.34,-5.2,'4051',1551240804,0.6363636
'7c77fd','QFA439',144.8294,-37.6235,251.46,77.56,FALSE,171.22,-4.55,'4051',1551240816,0.7272727
'7c77fd','QFA439',144.8311,-37.6331,205.74,76.9,FALSE,171.92,-2.93,'4051',1551240830,0.8181818
'7c77fd','QFA439',144.8324,-37.6397,167.64,78.58,FALSE,171.34,-3.58,'4051',1551240839,0.9090909
'7c77fd','QFA439',144.8329,-37.6427,152.4,79.09,FALSE,171.4,-3.25,'4051',1551240843,1.0000000
'7c6d32','VOZ853',144.8174,-37.6604,205.74,88.7,FALSE,273.99,15.28,'3626',1551240838,0.0000000
'7c6d32','VOZ853',144.8062,-37.6597,373.38,89.38,FALSE,275.28,14.96,'3626',1551240849,0.0588235
'7c6d32','VOZ853',144.7964,-37.659,502.92,91.85,FALSE,274.5,12.68,'3626',1551240859,0.1176471
'7c6d32','VOZ853',144.7855,-37.6582,594.36,99.12,FALSE,274.76,6.5,'3626',1551240869,0.1764706
'7c6d32','VOZ853',144.7726,-37.6572,678.18,105.96,FALSE,275.57,9.43,'3626',1551240880,0.2352941
'7c6d32','VOZ853',144.7614,-37.6564,739.14,112.62,FALSE,275.24,7.48,'3626',1551240889,0.2941176
'7c6d32','VOZ853',144.7343,-37.6544,982.98,122.31,FALSE,274.58,13.33,'3626',1551240909,0.3529412
'7c6d32','VOZ853',144.7192,-37.6536,1104.9,128.39,FALSE,273.91,11.38,'3626',1551240920,0.4117647
'7c6d32','VOZ853',144.7053,-37.6529,1234.44,131.95,FALSE,273.58,16.58,'3626',1551240929,0.4705882
'7c6d32','VOZ853',144.689,-37.6521,1409.7,133.12,FALSE,274.43,17.88,'3626',1551240940,0.5294118
'7c6d32','VOZ853',144.6775,-37.6501,1539.24,134.57,FALSE,287.12,15.93,'3626',1551240948,0.5882353
'7c6d32','VOZ853',144.6684,-37.6465,1653.54,134.41,FALSE,304.24,17.56,'3626',1551240954,0.6470588
'7c6d32','VOZ853',144.6521,-37.6337,1897.38,135.1,FALSE,322.74,17.88,'3626',1551240969,0.7058824
'7c6d32','VOZ853',144.6457,-37.6227,2087.88,136.98,FALSE,341.16,18.21,'3626',1551240979,0.7647059
'7c6d32','VOZ853',144.6411,-37.6103,2263.14,138.37,FALSE,343.59,17.56,'3626',1551240990,0.8235294
'7c6d32','VOZ853',144.6362,-37.5979,2415.54,140.25,FALSE,342.5,14.96,'3626',1551241000,0.8823529
'7c6d32','VOZ853',144.6273,-37.5738,2712.72,145.15,FALSE,344.58,16.91,'3626',1551241019,0.9411765
'7c6d32','VOZ853',144.6259,-37.5641,2842.26,149.7,FALSE,0.2,13.98,'3626',1551241027,1.0000000
'7c6b14','JST564',144.8207,-37.6606,220.98,82.03,FALSE,274.32,15.61,'1370',1551240939,0.0000000
'7c6b14','JST564',144.8124,-37.6601,373.38,81,FALSE,274.37,16.58,'1370',1551240949,0.0588235
'7c6b14','JST564',144.8026,-37.6596,472.44,84.08,FALSE,274.21,7.15,'1370',1551240959,0.1176471
'7c6b14','JST564',144.7937,-37.659,533.4,88.22,FALSE,274.35,6.18,'1370',1551240969,0.1764706
'7c6b14','JST564',144.7818,-37.6582,586.74,97.58,FALSE,274.84,6.5,'1370',1551240979,0.2352941
'7c6b14','JST564',144.7704,-37.6575,647.7,103.26,FALSE,274.86,5.53,'1370',1551240989,0.2941176
'7c6b14','JST564',144.759,-37.6566,693.42,110.62,FALSE,275.6,5.2,'1370',1551240999,0.3529412
'7c6b14','JST564',144.7323,-37.6545,853.44,122.96,FALSE,275.28,9.1,'1370',1551241019,0.4117647
'7c6b14','JST564',144.7177,-37.6535,944.88,128.51,FALSE,274.59,10.08,'1370',1551241029,0.4705882
'7c6b14','JST564',144.7037,-37.6527,1036.32,134.59,FALSE,273.95,10.73,'1370',1551241038,0.5294118
'7c6b14','JST564',144.6875,-37.6513,1143,141.57,FALSE,282.17,10.4,'1370',1551241049,0.5882353
'7c6b14','JST564',144.6713,-37.6464,1234.44,147.52,FALSE,298.08,8.78,'1370',1551241059,0.6470588
'7c6b14','JST564',144.6645,-37.6429,1295.4,154.06,FALSE,312.16,7.8,'1370',1551241065,0.7058824
'7c6b14','JST564',144.6482,-37.6283,1371.6,160.86,FALSE,330.07,8.13,'1370',1551241078,0.7647059
'7c6b14','JST564',144.6417,-37.6151,1463.04,166.65,FALSE,343.13,11.38,'1370',1551241088,0.8235294
'7c6b14','JST564',144.6358,-37.5991,1615.44,168.18,FALSE,343.84,14.63,'1370',1551241099,0.8823529
'7c6b14','JST564',144.6272,-37.57,1905,171.85,FALSE,353.64,15.28,'1370',1551241119,0.9411765
'7c6b14','JST564',144.6283,-37.5544,2042.16,175.27,FALSE,10.49,14.63,'1370',1551241129,1.0000000
'7c801e','RXA3492',144.8415,-37.6877,167.64,68.76,FALSE,170.96,8.45,None,1551240968,0.0000000
'7c801e','RXA3492',144.8427,-37.6944,251.46,71.81,FALSE,171.35,9.1,'4243',1551240979,0.0833333
'7c801e','RXA3492',144.8439,-37.7007,335.28,72.62,FALSE,172.67,7.8,'4243',1551240989,0.1666667
'7c801e','RXA3492',144.8449,-37.708,434.34,74.54,FALSE,173.66,8.13,'4243',1551241000,0.2500000
'7c801e','RXA3492',144.8467,-37.7219,548.64,80.11,FALSE,174.47,4.23,'4243',1551241020,0.3333333
'7c801e','RXA3492',144.8475,-37.7286,601.98,81.7,FALSE,174.22,5.53,'4243',1551241030,0.4166667
'7c801e','RXA3492',144.8485,-37.7362,678.18,79.71,FALSE,173.7,8.45,'4243',1551241040,0.5000000
'7c801e','RXA3492',144.8496,-37.7431,746.76,79.38,FALSE,172.55,7.48,'4243',1551241050,0.5833333
'7c801e','RXA3492',144.8509,-37.7503,815.34,79.45,FALSE,172.18,7.15,'4243',1551241060,0.6666667
'7c801e','RXA3492',144.852,-37.757,883.92,80.03,FALSE,171.87,7.48,'4243',1551241069,0.7500000
'7c801e','RXA3492',144.8533,-37.7641,960.12,80.03,FALSE,171.87,7.48,'4243',1551241079,0.8333333
'7c801e','RXA3492',144.8546,-37.7712,1021.08,81.2,FALSE,171.25,6.18,'4243',1551241089,0.9166667
'7c801e','RXA3492',144.856,-37.778,1074.42,82.97,FALSE,170.36,6.18,'4243',1551241098,1.0000000
'7c6dd4','QFA619',144.8163,-37.5536,662.94,102.95,FALSE,171.67,-5.53,'1142',1551240989,0.0000000
'7c6dd4','QFA619',144.8181,-37.5629,609.6,99.24,FALSE,171.95,-4.23,'1142',1551241000,0.1000000
'7c6dd4','QFA619',144.8213,-37.58,510.54,91.6,FALSE,171.28,-5.2,'1142',1551241020,0.2000000
'7c6dd4','QFA619',144.8226,-37.5871,464.82,88.32,FALSE,171.96,-4.88,'1142',1551241029,0.3000000
'7c6dd4','QFA619',144.824,-37.5949,426.72,83.16,FALSE,171.82,-4.55,'1142',1551241039,0.4000000
'7c6dd4','QFA619',144.8254,-37.602,381,79.59,FALSE,171.45,-4.88,'1142',1551241049,0.5000000
'7c6dd4','QFA619',144.8267,-37.6089,342.9,77.56,FALSE,171.22,-3.58,'1142',1551241059,0.6000000
'7c6dd4','QFA619',144.8277,-37.6146,312.42,77.48,FALSE,171.6,-3.58,'1142',1551241067,0.7000000
'7c6dd4','QFA619',144.8284,-37.6181,243.84,76.9,FALSE,171.92,-3.9,'1142',1551241072,0.8000000
'7c6dd4','QFA619',144.8317,-37.6356,190.5,76.97,FALSE,171.54,-4.88,'1142',1551241098,0.9000000
'7c6dd4','QFA619',144.8329,-37.6427,152.4,77.41,FALSE,171.98,-4.88,'1142',1551241108,1.0000000
'7c6d9d','QFA624',144.8176,-37.6604,228.6,84.21,FALSE,275.26,13,'1422',1551240995,0.0000000
'7c6d9d','QFA624',144.7937,-37.6588,533.4,88.22,FALSE,274.35,10.73,'1422',1551241020,0.0588235
'7c6d9d','QFA624',144.784,-37.6582,601.98,96,FALSE,274.61,8.45,'1422',1551241029,0.1176471
'7c6d9d','QFA624',144.7716,-37.6576,685.8,106.34,FALSE,274.72,9.43,'1422',1551241040,0.1764706
'7c6d9d','QFA624',144.7597,-37.6568,777.24,113.04,FALSE,274.7,10.4,'1422',1551241049,0.2352941
'7c6d9d','QFA624',144.7461,-37.6558,914.4,118.21,FALSE,274.74,16.26,'1422',1551241059,0.2941176
'7c6d9d','QFA624',144.733,-37.655,1051.56,121.72,FALSE,274.12,15.28,'1422',1551241069,0.3529412
'7c6d9d','QFA624',144.719,-37.6542,1181.1,126.86,FALSE,273.95,13.33,'1422',1551241079,0.4117647
'7c6d9d','QFA624',144.7037,-37.6534,1318.26,132.02,FALSE,274.02,15.61,'1422',1551241089,0.4705882
'7c6d9d','QFA624',144.6894,-37.6525,1485.9,133.3,FALSE,275.31,20.81,'1422',1551241099,0.5294118
'7c6d9d','QFA624',144.6627,-37.6434,1821.18,135.13,FALSE,304.3,20.48,'1422',1551241118,0.5882353
'7c6d9d','QFA624',144.6508,-37.633,2034.54,136.24,FALSE,323.91,20.16,'1422',1551241130,0.6470588
'7c6d9d','QFA624',144.6446,-37.6226,2186.94,138.71,FALSE,338,15.61,'1422',1551241139,0.7058824
'7c6d9d','QFA624',144.6397,-37.6103,2346.96,141.39,FALSE,342.42,17.23,'1422',1551241149,0.7647059
'7c6d9d','QFA624',144.6351,-37.5979,2522.22,143.45,FALSE,343.97,18.21,'1422',1551241159,0.8235294
'7c6d9d','QFA624',144.6303,-37.5845,2712.72,145.07,FALSE,343.94,18.53,'1422',1551241170,0.8823529
'7c6d9d','QFA624',144.627,-37.5726,2880.36,146.32,FALSE,351.1,16.58,'1422',1551241179,0.9411765
'7c6d9d','QFA624',144.627,-37.5585,3048,150.13,FALSE,4.32,14.96,'1422',1551241190,1.0000000
'7c6a57','AM337',144.9159,-37.7308,91.44,71.02,FALSE,88.34,6.83,'4232',1551241059,0.0000000
'7c6a57','AM337',144.9243,-37.7307,160.02,73.57,FALSE,90.4,9.1,'4232',1551241069,0.0263158
'7c6a57','AM337',144.9309,-37.7308,228.6,73.57,FALSE,90.4,9.1,'4232',1551241077,0.0526316
'7c6a57','AM337',144.941,-37.7308,327.66,75.11,FALSE,89.61,8.13,'4232',1551241089,0.0789474
'7c6a57','AM337',144.9495,-37.7308,411.48,76.65,FALSE,89.62,7.8,'4232',1551241099,0.1052632
'7c6a57','AM337',144.9676,-37.7309,525.78,83.89,FALSE,91.76,5.53,'4232',1551241118,0.1315789
'7c6a57','AM337',144.9779,-37.7312,586.74,85.99,FALSE,92.4,7.15,'4232',1551241129,0.1578947
'7c6a57','AM337',144.9874,-37.7316,662.94,87.06,FALSE,93.05,7.48,'4232',1551241139,0.1842105
'7c6a57','AM337',144.9974,-37.732,731.52,89.05,FALSE,91.99,6.83,'4232',1551241149,0.2105263
'7c6a57','AM337',145.0077,-37.7323,792.48,90.59,FALSE,91.95,7.48,'4232',1551241159,0.2368421
'7c6a57','AM337',145.0182,-37.7324,868.68,90.72,FALSE,86.42,8.45,'4232',1551241169,0.2631579
'7c6a57','AM337',145.0272,-37.7292,952.5,89.35,FALSE,54.85,8.78,'4232',1551241179,0.2894737
'7c6a57','AM337',145.0334,-37.7228,1013.46,89.73,FALSE,26.57,5.2,'4232',1551241189,0.3157895
'7c6a57','AM337',145.0346,-37.7152,1074.42,87.33,FALSE,354.59,9.43,'4232',1551241199,0.3421053
'7c6a57','AM337',145.0296,-37.7004,1257.3,83.5,FALSE,337.54,8.13,'4232',1551241219,0.3684211
'7c6a57','AM337',145.024,-37.6939,1341.12,82.6,FALSE,320.56,8.13,'4232',1551241229,0.3947368
'7c6a57','AM337',145.0184,-37.6889,1417.32,82.33,FALSE,318.04,8.45,'4232',1551241239,0.4210526
'7c6a57','AM337',145.0116,-37.683,1493.52,82.64,FALSE,317.27,8.78,'4232',1551241249,0.4473684
'7c6a57','AM337',145.0054,-37.6778,1577.34,82.6,FALSE,316.26,8.78,'4232',1551241259,0.4736842
'7c6a57','AM337',144.9989,-37.6724,1661.16,83.32,FALSE,316.25,8.78,'4232',1551241269,0.5000000
'7c6a57','AM337',144.9925,-37.667,1744.98,83.34,FALSE,316.75,9.1,'4232',1551241279,0.5263158
'7c6a57','AM337',144.9863,-37.6618,1828.8,82.97,FALSE,316.51,9.1,'4232',1551241289,0.5526316
'7c6a57','AM337',144.9789,-37.6556,1927.86,82.97,FALSE,316.51,9.1,'4232',1551241300,0.5789474
'7c6a57','AM337',144.9661,-37.6449,2095.5,83.69,FALSE,316.49,8.45,'4232',1551241320,0.6052632
'7c6a57','AM337',144.9598,-37.6396,2171.7,84.05,FALSE,316.24,8.13,'4232',1551241330,0.6315789
'7c6a57','AM337',144.9527,-37.6337,2255.52,84.42,FALSE,316.48,7.8,'4232',1551241340,0.6578947
'7c6a57','AM337',144.9469,-37.6289,2324.1,84.8,FALSE,316.72,8.13,'4232',1551241349,0.6842105
'7c6a57','AM337',144.9402,-37.6232,2407.92,84.8,FALSE,316.72,8.78,'4232',1551241359,0.7105263
'7c6a57','AM337',144.9336,-37.6177,2476.5,85.88,FALSE,316.46,6.5,'4232',1551241369,0.7368421
'7c6a57','AM337',144.927,-37.6122,2537.46,87.32,FALSE,315.95,7.15,'4232',1551241379,0.7631579
'7c6a57','AM337',144.9199,-37.6062,2613.66,88.08,FALSE,316.89,7.15,'4232',1551241389,0.7894737
'7c6a57','AM337',144.913,-37.6004,2682.24,89.16,FALSE,316.64,6.83,'4232',1551241399,0.8157895
'7c6a57','AM337',144.8988,-37.5887,2819.4,90.95,FALSE,315.92,7.8,'4232',1551241420,0.8421053
'7c6a57','AM337',144.8919,-37.583,2887.98,92.05,FALSE,316.13,7.8,'4232',1551241429,0.8684211
'7c6a57','AM337',144.8852,-37.5774,2964.18,91.34,FALSE,316.6,8.78,'4232',1551241438,0.8947368
'7c6a57','AM337',144.8776,-37.571,3048,91.32,FALSE,316.14,8.45,'4232',1551241449,0.9210526
'7c6a57','AM337',144.8706,-37.5653,3131.82,89.87,FALSE,316.16,10.08,'4232',1551241459,0.9473684
'7c6a57','AM337',144.8634,-37.5593,3230.88,88.79,FALSE,316.41,9.1,'4232',1551241469,0.9736842
'7c6a57','AM337',144.857,-37.5539,3307.08,87.7,FALSE,316.66,8.13,'4232',1551241479,1.0000000
'7c6d80','JST517',144.8171,-37.56,640.08,90.43,FALSE,171.82,-5.85,'7210',1551241119,0.0000000
'7c6d80','JST517',144.8187,-37.5686,579.12,87.3,FALSE,171.87,-5.2,'7210',1551241129,0.0769231
'7c6d80','JST517',144.8201,-37.5759,533.4,83.31,FALSE,171.12,-4.23,'7210',1551241139,0.1538462
'7c6d80','JST517',144.8213,-37.5822,495.3,78.5,FALSE,171.71,-4.23,'7210',1551241148,0.2307692
'7c6d80','JST517',144.8226,-37.5894,457.2,76.04,FALSE,171.05,-3.9,'7210',1551241158,0.3076923
'7c6d80','JST517',144.8241,-37.5964,419.1,74.87,FALSE,169.31,-4.88,'7210',1551241169,0.3846154
'7c6d80','JST517',144.8255,-37.6028,388.62,74.51,FALSE,170.86,-3.58,'7210',1551241179,0.4615385
'7c6d80','JST517',144.8269,-37.6099,342.9,72.91,FALSE,171.07,-4.23,'7210',1551241189,0.5384615
'7c6d80','JST517',144.8279,-37.6152,312.42,73.85,FALSE,171.59,-3.58,'7210',1551241197,0.6153846
'7c6d80','JST517',144.8295,-37.6243,251.46,72.91,FALSE,171.07,-3.58,'7210',1551241211,0.6923077
'7c6d80','JST517',144.8316,-37.6357,198.12,73.34,FALSE,171.53,-3.9,'7210',1551241229,0.7692308
'7c6d80','JST517',144.8328,-37.6416,160.02,73.34,FALSE,171.53,-4.55,'7210',1551241238,0.8461538
'7c6d80','JST517',144.8336,-37.646,137.16,73.34,FALSE,171.53,-3.9,'7210',1551241245,0.9230769
'7c6d80','JST517',144.8344,-37.6507,63.46,71.73,FALSE,171.75,-3.9,'7210',1551241252,1.0000000
'7c6d81','',144.84,-37.6803,167.64,88.72,FALSE,170.32,12.35,'3715',1551241235,0.0000000
'7c6d81','',144.8423,-37.6915,350.52,88.47,FALSE,171.3,15.93,'3715',1551241249,0.1111111
'7c6d81','JST709',144.8438,-37.699,457.2,90.94,FALSE,171.87,6.83,'3715',1551241259,0.2222222
'7c6d81','JST709',144.8454,-37.7084,510.54,96.99,FALSE,172.69,4.88,'3715',1551241269,0.3333333
'7c6d81','JST709',144.8467,-37.7167,563.88,104.2,FALSE,172.91,5.2,'3715',1551241279,0.4444444
'7c6d81','JST709',144.8481,-37.7262,601.98,111.98,FALSE,172.87,4.55,'3715',1551241289,0.5555556
'7c6d81','JST709',144.85,-37.7376,662.94,119.39,FALSE,172.32,8.13,'3715',1551241299,0.6666667
'7c6d81','JST709',144.854,-37.7596,922.02,122.23,FALSE,171.53,13.66,'3715',1551241320,0.7777778
'7c6d81','JST709',144.8559,-37.7699,1028.7,124.42,FALSE,171.2,12.35,'3715',1551241330,0.8888889
'7c6d81','JST709',144.8583,-37.7819,1135.38,129.07,FALSE,171.29,7.15,'3715',1551241340,1.0000000
'7c6c27','TGG243',144.8175,-37.5576,670.56,96.11,FALSE,172,-6.5,'4224',1551241248,0.0000000
'7c6c27','TGG243',144.8189,-37.5658,601.98,93.29,FALSE,173.03,-4.88,'4224',1551241258,0.0909091
'7c6c27','TGG243',144.8204,-37.575,548.64,89.92,FALSE,171.78,-4.55,'4224',1551241269,0.1818182
'7c6c27','TGG243',144.8218,-37.5833,502.92,85.7,FALSE,172.06,-5.2,'4224',1551241280,0.2727273
'7c6c27','TGG243',144.8229,-37.5892,472.44,80.03,FALSE,171.87,-4.23,'4224',1551241288,0.3636364
'7c6c27','TGG243',144.8243,-37.5965,419.1,74.35,FALSE,171.65,-5.2,'4224',1551241299,0.4545455
'7c6c27','TGG243',144.8265,-37.6083,350.52,69.12,FALSE,171.87,-3.9,'4224',1551241317,0.5454545
'7c6c27','TGG243',144.8273,-37.6129,312.42,67.52,FALSE,172.12,-3.58,'4224',1551241325,0.6363636
'7c6c27','TGG243',144.8292,-37.6232,274.32,67.52,FALSE,172.12,-3.58,'4224',1551241342,0.7272727
'7c6c27','TGG243',144.8312,-37.6337,213.36,67.66,FALSE,171.25,-4.55,'4224',1551241360,0.8181818
'7c6c27','TGG243',144.8316,-37.6354,190.5,67.52,FALSE,172.12,-3.25,'4224',1551241362,0.9090909
'7c6c27','TGG243',144.8325,-37.6408,167.64,67.01,FALSE,172.06,-3.58,'4224',1551241371,1.0000000
'7c6d9b','QFA815',144.8171,-37.5572,640.08,93.56,FALSE,171.78,-6.18,'4201',1551241399,0.0000000
'7c6d9b','QFA815',144.82,-37.5731,548.64,86.21,FALSE,172.11,-4.55,'4201',1551241420,0.0909091
'7c6d9b','QFA815',144.8214,-37.5803,510.54,81.05,FALSE,171.97,-3.9,'4201',1551241429,0.1818182
'7c6d9b','QFA815',144.8225,-37.587,464.82,79.09,FALSE,171.4,-5.2,'4201',1551241439,0.2727273
'7c6d9b','QFA815',144.8239,-37.5939,426.72,78.15,FALSE,170.91,-3.58,'4201',1551241449,0.3636364
'7c6d9b','QFA815',144.8251,-37.6004,388.62,77.41,FALSE,171.98,-3.58,'4201',1551241458,0.4545455
'7c6d9b','QFA815',144.8263,-37.6069,358.14,76.97,FALSE,171.54,-3.9,'4201',1551241467,0.5454545
'7c6d9b','QFA815',144.8276,-37.6142,304.8,76.47,FALSE,171.49,-3.9,'4201',1551241478,0.6363636
'7c6d9b','QFA815',144.8283,-37.6175,297.18,76.47,FALSE,171.49,-3.25,'4201',1551241483,0.7272727
'7c6d9b','QFA815',144.8294,-37.6233,243.84,76.47,FALSE,171.49,-3.25,'4201',1551241491,0.8181818
'7c6d9b','QFA815',144.8326,-37.641,160.02,75.88,FALSE,171.81,-3.58,'4201',1551241517,0.9090909
'7c6d9b','QFA815',144.8331,-37.6437,144.78,75.96,FALSE,171.43,-3.58,'4201',1551241521,1.0000000
'7c6b36','JST796',144.8414,-37.6879,213.36,78.66,FALSE,170.97,15.28,'1402',1551241519,0.0000000
'7c6b36','JST796',144.8428,-37.6948,342.9,76.97,FALSE,171.54,14.96,'1402',1551241529,0.0384615
'7c6b36','JST796',144.844,-37.7014,449.58,78.58,FALSE,171.34,7.15,'1402',1551241538,0.0769231
'7c6b36','JST796',144.8455,-37.7094,495.3,84.76,FALSE,171.62,3.9,'1402',1551241550,0.1153846
'7c6b36','JST796',144.8469,-37.717,533.4,91.02,FALSE,171.55,3.58,'1402',1551241559,0.1538462
'7c6b36','JST796',144.8484,-37.725,556.26,101.42,FALSE,171.54,2.93,'1402',1551241568,0.1923077
'7c6b36','JST796',144.85,-37.7347,594.36,109.08,FALSE,174.32,4.55,'1402',1551241579,0.2307692
'7c6b36','JST796',144.849,-37.7446,624.84,117.04,FALSE,194.77,3.9,'1402',1551241588,0.2692308
'7c6b36','JST796',144.8411,-37.7543,731.52,119.02,FALSE,226.93,15.93,'1402',1551241599,0.3076923
'7c6b36','JST796',144.8161,-37.7599,1051.56,116.04,FALSE,274.07,17.56,'1402',1551241619,0.3461538
'7c6b36','JST796',144.8045,-37.7584,1188.72,116.55,FALSE,280.17,13.66,'1402',1551241628,0.3846154
'7c6b36','JST796',144.7901,-37.7561,1303.02,120.47,FALSE,282.08,9.43,'1402',1551241639,0.4230769
'7c6b36','JST796',144.7768,-37.7538,1379.22,127.06,FALSE,282.63,8.45,'1402',1551241649,0.4615385
'7c6b36','JST796',144.7619,-37.7504,1470.66,132.47,FALSE,289.98,10.73,'1402',1551241659,0.5000000
'7c6b36','JST796',144.7494,-37.7445,1600.2,135.3,FALSE,306.65,15.61,'1402',1551241669,0.5384615
'7c6b36','JST796',144.7387,-37.7353,1775.46,135.71,FALSE,323.48,18.53,'1402',1551241679,0.5769231
'7c6b36','JST796',144.7319,-37.7243,1935.48,137.48,FALSE,337.56,15.93,'1402',1551241689,0.6153846
'7c6b36','JST796',144.7289,-37.7114,2087.88,142.12,FALSE,357.51,15.61,'1402',1551241699,0.6538462
'7c6b36','JST796',144.7368,-37.6862,2385.06,147.5,FALSE,21.91,16.58,'1402',1551241719,0.6923077
'7c6b36','JST796',144.7436,-37.673,2537.46,149.51,FALSE,22.24,13.98,'1402',1551241730,0.7307692
'7c6b36','JST796',144.7498,-37.6609,2644.14,153.71,FALSE,22.02,8.45,'1402',1551241740,0.7692308
'7c6b36','JST796',144.7569,-37.6468,2705.1,161.16,FALSE,21.73,5.85,'1402',1551241750,0.8076923
'7c6b36','JST796',144.7634,-37.6338,2750.82,168.13,FALSE,21.54,5.53,'1402',1551241760,0.8461538
'7c6b36','JST796',144.7707,-37.619,2804.16,173.97,FALSE,21.33,5.53,'1402',1551241770,0.8846154
'7c6b36','JST796',144.7777,-37.6046,2857.5,180.47,FALSE,21.23,5.53,'1402',1551241780,0.9230769
'7c6b36','JST796',144.7856,-37.5883,2910.84,187.63,FALSE,21.22,4.88,'1402',1551241790,0.9615385
'7c6b36','JST796',144.7927,-37.5744,2948.94,193.06,FALSE,23.56,4.55,'1402',1551241799,1.0000000
'7c7a3b','VOZ846',144.8168,-37.5556,647.7,102.51,FALSE,171.34,-5.53,'4307',1551241549,0.0000000
'7c7a3b','VOZ846',144.8184,-37.5645,594.36,99.31,FALSE,171.66,-4.55,'4307',1551241560,0.0909091
'7c7a3b','VOZ846',144.8201,-37.5737,548.64,94.73,FALSE,171.25,-4.55,'4307',1551241570,0.1818182
'7c7a3b','VOZ846',144.8215,-37.5815,502.92,90.94,FALSE,171.87,-4.88,'4307',1551241580,0.2727273
'7c7a3b','VOZ846',144.8228,-37.5886,457.2,88.4,FALSE,171.63,-3.9,'4307',1551241588,0.3636364
'7c7a3b','VOZ846',144.8244,-37.597,411.48,82.21,FALSE,171.36,-4.55,'4307',1551241599,0.4545455
'7c7a3b','VOZ846',144.8269,-37.6106,335.28,77.48,FALSE,171.6,-4.23,'4307',1551241619,0.5454545
'7c7a3b','VOZ846',144.828,-37.616,304.8,76.47,FALSE,171.49,-3.9,'4307',1551241627,0.6363636
'7c7a3b','VOZ846',144.8294,-37.6234,259.08,75.45,FALSE,171.37,-3.58,'4307',1551241638,0.7272727
'7c7a3b','VOZ846',144.8307,-37.6307,220.98,74.79,FALSE,172.09,-3.25,'4307',1551241649,0.8181818
'7c7a3b','VOZ846',144.832,-37.6375,182.88,74.43,FALSE,171.25,-3.58,'4307',1551241659,0.9090909
'7c7a3b','VOZ846',144.8331,-37.6432,152.4,75.02,FALSE,170.93,-3.9,'4307',1551241668,1.0000000
'7c6ae5','VEF',145.0998,-37.7253,708.66,92.09,FALSE,263.91,0.65,'3240',1551241616,0.0000000
'7c6ae5','VEF',145.086,-37.726,708.66,93.21,FALSE,267.47,0,'3240',1551241629,0.0555556
'7c6ae5','VEF',145.0756,-37.7263,716.28,89.04,FALSE,268.34,2.6,'3240',1551241639,0.1111111
'7c6ae5','VEF',145.0656,-37.7265,731.52,85.95,FALSE,268.29,0.65,'3240',1551241649,0.1666667
'7c6ae5','VEF',145.0558,-37.7268,716.28,83.93,FALSE,267.54,-3.25,'3240',1551241659,0.2222222
'7c6ae5','VEF',145.0466,-37.7271,685.8,83.93,FALSE,267.54,-4.55,'3240',1551241669,0.2777778
'7c6ae5','VEF',145.036,-37.7274,632.46,85.99,FALSE,267.6,-5.53,'3240',1551241679,0.3333333
'7c6ae5','VEF',145.0274,-37.7277,586.74,87.02,FALSE,267.63,-5.2,'3240',1551241688,0.3888889
'7c6ae5','VEF',145.0164,-37.7281,533.4,89.05,FALSE,268.01,-4.88,'3240',1551241699,0.4444444
'7c6ae5','VEF',144.9971,-37.7285,441.96,90.06,FALSE,268.36,-5.2,'3240',1551241718,0.5000000
'7c6ae5','VEF',144.9858,-37.7288,388.62,90.08,FALSE,268.04,-5.2,'3240',1551241729,0.5555556
'7c6ae5','VEF',144.9768,-37.7291,350.52,88.54,FALSE,268,-2.6,'3240',1551241738,0.6111111
'7c6ae5','VEF',144.9668,-37.7293,320.04,80.83,FALSE,267.81,-4.88,'3240',1551241749,0.6666667
'7c6ae5','VEF',144.9578,-37.7295,274.32,79.77,FALSE,268.52,-4.55,'3240',1551241759,0.7222222
'7c6ae5','VEF',144.9487,-37.7298,236.22,75.69,FALSE,267.66,-3.58,'3240',1551241769,0.7777778
'7c6ae5','VEF',144.941,-37.7299,205.74,70.53,FALSE,267.91,-4.23,'3240',1551241778,0.8333333
'7c6ae5','VEF',144.9341,-37.7302,160.02,66.41,FALSE,267.78,-5.85,'3240',1551241787,0.8888889
'7c6ae5','VEF',144.9263,-37.7305,106.68,62.27,FALSE,268.58,-4.55,'3240',1551241798,0.9444444
'7c6ae5','VEF',144.9162,-37.7308,60.96,61.75,FALSE,268.57,-3.9,'3240',1551241812,1.0000000
'75025a','MAS148',144.8412,-37.6884,236.22,92.91,FALSE,172.36,13.33,'1346',1551241689,0.0000000
'75025a','MAS148',144.8426,-37.6975,381,92.27,FALSE,172.95,14.96,'1346',1551241700,0.0434783
'75025a','MAS148',144.8449,-37.7135,525.78,96.48,FALSE,172.65,6.18,'1346',1551241719,0.0869565
'75025a','MAS148',144.8466,-37.7232,586.74,99.75,FALSE,172,5.53,'1346',1551241729,0.1304348
'75025a','MAS148',144.8471,-37.7315,662.94,100.86,FALSE,181.46,11.38,'1346',1551241739,0.1739130
'75025a','MAS148',144.8437,-37.7404,762,97.84,FALSE,204.54,13,'1346',1551241749,0.2173913
'75025a','MAS148',144.8373,-37.7458,838.2,96.3,FALSE,233.25,6.5,'1346',1551241759,0.2608696
'75025a','MAS148',144.8251,-37.7486,906.78,97.07,FALSE,265.14,5.85,'1346',1551241770,0.3043478
'75025a','MAS148',144.8151,-37.7483,982.98,97.91,FALSE,273.31,8.13,'1346',1551241779,0.3478261
'75025a','MAS148',144.8034,-37.7475,1074.42,96.65,FALSE,275.5,9.43,'1346',1551241789,0.3913043
'75025a','MAS148',144.7921,-37.7466,1112.52,100.23,FALSE,275.3,3.58,'1346',1551241799,0.4347826
'75025a','MAS148',144.7682,-37.7454,1165.86,112.32,FALSE,273.15,2.28,'1346',1551241819,0.4782609
'75025a','MAS148',144.7556,-37.7449,1203.96,117.92,FALSE,272.5,4.88,'1346',1551241829,0.5217391
'75025a','MAS148',144.7412,-37.7444,1242.06,124.11,FALSE,272.61,4.23,'1346',1551241839,0.5652174
'75025a','MAS148',144.7256,-37.7438,1287.78,130.3,FALSE,272.72,5.53,'1346',1551241849,0.6086957
'75025a','MAS148',144.7119,-37.7426,1363.98,133.21,FALSE,280.01,6.18,'1346',1551241859,0.6521739
'75025a','MAS148',144.6961,-37.7381,1493.52,133.62,FALSE,293.6,14.63,'1346',1551241870,0.6956522
'75025a','MAS148',144.6843,-37.7338,1623.06,133.05,FALSE,294.68,13.66,'1346',1551241879,0.7391304
'75025a','MAS148',144.6689,-37.7281,1729.74,134.17,FALSE,295.19,9.43,'1346',1551241890,0.7826087
'75025a','MAS148',144.6416,-37.7178,1813.56,145.2,FALSE,295.38,4.88,'1346',1551241909,0.8260870
'75025a','MAS148',144.6251,-37.7117,1859.28,150.27,FALSE,295.34,4.55,'1346',1551241920,0.8695652
'75025a','MAS148',144.6102,-37.7061,1905,156.48,FALSE,295.3,4.55,'1346',1551241929,0.9130435
'75025a','MAS148',144.5927,-37.6995,1943.1,162.45,FALSE,295.51,3.9,'1346',1551241940,0.9565217
'75025a','MAS148',144.5774,-37.6938,1981.2,168.23,FALSE,295.15,4.23,'1346',1551241949,1.0000000
'7c6d92','QFA777',144.843,-37.6956,289.56,92.95,FALSE,170.12,12.03,'7246',1551241819,0.0000000
'7c6d92','QFA777',144.8449,-37.7043,403.86,95.48,FALSE,170.39,12.03,'7246',1551241829,0.0454545
'7c6d92','QFA777',144.8465,-37.7125,495.3,98.22,FALSE,171.87,8.78,'7246',1551241839,0.0909091
'7c6d92','QFA777',144.848,-37.722,541.02,105.93,FALSE,172.18,4.88,'7246',1551241849,0.1363636
'7c6d92','QFA777',144.8495,-37.7317,594.36,114.54,FALSE,175.62,6.18,'7246',1551241859,0.1818182
'7c6d92','QFA777',144.8468,-37.7428,701.04,119.41,FALSE,198.59,13,'7246',1551241869,0.2272727
'7c6d92','QFA777',144.8399,-37.7515,830.58,119.16,FALSE,217.81,13.98,'7246',1551241879,0.2727273
'7c6d92','QFA777',144.8286,-37.7585,975.36,119.72,FALSE,239.25,13.98,'7246',1551241890,0.3181818
'7c6d92','QFA777',144.8031,-37.7615,1158.24,126.29,FALSE,276.31,4.55,'7246',1551241908,0.3636364
'7c6d92','QFA777',144.7882,-37.7585,1249.68,131.53,FALSE,284.96,11.7,'7246',1551241919,0.4090909
'7c6d92','QFA777',144.7746,-37.7558,1363.98,133.76,FALSE,284.25,14.63,'7246',1551241928,0.4545455
'7c6d92','QFA777',144.7582,-37.7525,1539.24,133.51,FALSE,283.82,16.58,'7246',1551241939,0.5000000
'7c6d92','QFA777',144.7445,-37.7499,1684.02,133.88,FALSE,283.56,15.93,'7246',1551241949,0.5454545
'7c6d92','QFA777',144.7289,-37.7469,1844.04,133.88,FALSE,283.56,15.61,'7246',1551241959,0.5909091
'7c6d92','QFA777',144.7144,-37.7443,1981.2,135.31,FALSE,282.29,14.96,'7246',1551241969,0.6363636
'7c6d92','QFA777',144.6986,-37.7425,2125.98,137.14,FALSE,276.25,13.98,'7246',1551241979,0.6818182
'7c6d92','QFA777',144.6836,-37.7412,2263.14,138.06,FALSE,275.77,15.28,'7246',1551241989,0.7272727
'7c6d92','QFA777',144.6676,-37.7399,2400.3,139.64,FALSE,275.92,14.96,'7246',1551241999,0.7727273
'7c6d92','QFA777',144.6368,-37.7374,2689.86,141.18,FALSE,275.86,14.31,'7246',1551242019,0.8181818
'7c6d92','QFA777',144.6195,-37.736,2849.88,141.74,FALSE,276.04,15.61,'7246',1551242029,0.8636364
'7c6d92','QFA777',144.6031,-37.7347,2948.94,145.84,FALSE,275.87,6.83,'7246',1551242040,0.9090909
'7c6d92','QFA777',144.5871,-37.7334,2994.66,152.54,FALSE,275.81,5.2,'7246',1551242049,0.9545455
'7c6d92','QFA777',144.57,-37.7321,3048,159.25,FALSE,275.75,5.53,'7246',1551242059,1.0000000
'7c7a47','VOZ277',144.842,-37.6926,304.8,79.45,FALSE,172.18,15.61,'3771',1551241890,0.0000000
'7c7a47','VOZ277',144.8443,-37.7067,533.4,85.27,FALSE,171.67,9.1,'3771',1551241909,0.0384615
'7c7a47','VOZ277',144.8459,-37.715,594.36,94.73,FALSE,171.25,6.18,'3771',1551241919,0.0769231
'7c7a47','VOZ277',144.8477,-37.724,662.94,104.2,FALSE,170.91,8.78,'3771',1551241929,0.1153846
'7c7a47','VOZ277',144.8488,-37.734,800.1,107.53,FALSE,179.18,13.66,'3771',1551241939,0.1538462
'7c7a47','VOZ277',144.8468,-37.7431,937.26,109.17,FALSE,193.91,13.66,'3771',1551241949,0.1923077
'7c7a47','VOZ277',144.8413,-37.7521,1082.04,110.13,FALSE,209.68,13,'3771',1551241959,0.2307692
'7c7a47','VOZ277',144.833,-37.7591,1226.82,110.78,FALSE,228.39,14.96,'3771',1551241969,0.2692308
'7c7a47','VOZ277',144.8218,-37.7643,1363.98,111.81,FALSE,243.79,10.73,'3771',1551241979,0.3076923
'7c7a47','VOZ277',144.8088,-37.7672,1455.42,118.35,FALSE,257.96,7.15,'3771',1551241989,0.3461538
'7c7a47','VOZ277',144.795,-37.7671,1546.86,123.19,FALSE,273.59,7.8,'3771',1551241999,0.3846154
'7c7a47','VOZ277',144.7669,-37.7595,1821.18,131.56,FALSE,290.84,14.96,'3771',1551242019,0.4230769
'7c7a47','VOZ277',144.7531,-37.7549,1965.96,133.27,FALSE,294.88,14.96,'3771',1551242029,0.4615385
'7c7a47','VOZ277',144.7404,-37.7471,2125.98,136.06,FALSE,315.61,15.93,'3771',1551242040,0.5000000
'7c7a47','VOZ277',144.7326,-37.7375,2263.14,139.51,FALSE,331.36,16.26,'3771',1551242049,0.5384615
'7c7a47','VOZ277',144.7282,-37.7261,2415.54,143.74,FALSE,345.91,17.23,'3771',1551242058,0.5769231
'7c7a47','VOZ277',144.7277,-37.7124,2567.94,147.36,FALSE,3.2,15.28,'3771',1551242069,0.6153846
'7c7a47','VOZ277',144.732,-37.6997,2712.72,150.64,FALSE,18.31,18.53,'3771',1551242078,0.6538462
'7c7a47','VOZ277',144.7391,-37.6865,2865.12,152.8,FALSE,23.2,15.93,'3771',1551242089,0.6923077
'7c7a47','VOZ277',144.7515,-37.6612,3177.54,156.49,FALSE,21,15.28,'3771',1551242108,0.7307692
'7c7a47','VOZ277',144.7582,-37.6471,3261.36,162.81,FALSE,20.73,4.55,'3771',1551242119,0.7692308
'7c7a47','VOZ277',144.7652,-37.6325,3314.7,171.6,FALSE,20.72,5.53,'3771',1551242129,0.8076923
'7c7a47','VOZ277',144.7718,-37.6184,3406.14,176.48,FALSE,20.65,13.98,'3771',1551242139,0.8461538
'7c7a47','VOZ277',144.7793,-37.6025,3596.64,176.48,FALSE,20.65,22.11,'3771',1551242149,0.8846154
'7c7a47','VOZ277',144.7862,-37.5881,3810,174.56,FALSE,20.89,22.43,'3771',1551242159,0.9230769
'7c7a47','VOZ277',144.7946,-37.5733,3985.26,176.72,FALSE,25.52,17.88,'3771',1551242170,0.9615385
'7c7a47','VOZ277',144.8035,-37.5601,4122.42,179.88,FALSE,29.28,13,'3771',1551242179,1.0000000
'7c5304','QLK285D',144.8436,-37.7013,411.48,74.59,FALSE,173.27,14.31,'3663',1551242020,0.0000000
'7c5304','QLK285D',144.8446,-37.7079,510.54,77.34,FALSE,172.35,9.75,'3663',1551242029,0.1250000
'7c5304','QLK285D',144.8459,-37.7155,571.5,86.14,FALSE,172.45,3.9,'3663',1551242040,0.2500000
'7c5304','QLK285D',144.8472,-37.7233,609.6,94.88,FALSE,172.84,2.93,'3663',1551242049,0.3750000
'7c5304','QLK285D',144.8484,-37.7318,655.32,101.92,FALSE,173.92,4.88,'3663',1551242059,0.5000000
'7c5304','QLK285D',144.8501,-37.7418,701.04,109.2,FALSE,171.6,7.48,'3663',1551242070,0.6250000
'7c5304','QLK285D',144.8519,-37.7513,777.24,112.33,FALSE,171.57,8.13,'3663',1551242079,0.7500000
'7c5304','QLK285D',144.8539,-37.7618,868.68,115.03,FALSE,171.25,8.78,'3663',1551242090,0.8750000
'7c5304','QLK285D',144.8581,-37.7823,1005.84,122.63,FALSE,170.34,6.18,'3663',1551242109,1.0000000
'7c7cc6','HM5',144.9077,-37.7812,266.7,72.1,FALSE,7.38,-0.33,'0045',1551242108,0.0000000
'7c7cc6','HM5',144.9088,-37.7742,266.7,72.1,FALSE,7.38,0.33,'0045',1551242119,0.0909091
'7c7cc6','HM5',144.9099,-37.7676,259.08,72.04,FALSE,6.97,-0.33,'0045',1551242129,0.1818182
'7c7cc6','HM5',144.9109,-37.7614,266.7,72.68,FALSE,7.73,-0.33,'0045',1551242139,0.2727273
'7c7cc6','HM5',144.912,-37.7547,266.7,72.62,FALSE,7.33,-0.33,'0045',1551242149,0.3636364
'7c7cc6','HM5',144.9131,-37.748,266.7,72.83,FALSE,8.53,0,'0045',1551242159,0.4545455
'7c7cc6','HM5',144.9143,-37.7417,266.7,70,FALSE,7.18,-0.33,'0045',1551242170,0.5454545
'7c7cc6','HM5',144.915,-37.7359,266.7,67.67,FALSE,5.23,0,'0045',1551242179,0.6363636
'7c7cc6','HM5',144.9155,-37.7301,266.7,64.89,FALSE,2.73,-1.3,'0045',1551242188,0.7272727
'7c7cc6','HM5',144.9132,-37.7195,228.6,52.35,FALSE,337.47,-2.6,'0045',1551242209,0.8181818
'7c7cc6','HM5',144.9104,-37.7156,198.12,46.71,FALSE,323.51,-3.58,'0045',1551242219,0.9090909
'7c7cc6','HM5',144.9069,-37.7136,160.02,39.08,FALSE,290.82,-2.6,'0045',1551242228,1.0000000
'7c7aae','VOZ749',144.8434,-37.6994,381,82.65,FALSE,171.77,13.98,'1425',1551242108,0.0000000
'7c7aae','VOZ749',144.8449,-37.7073,472.44,87.89,FALSE,171.59,5.2,'1425',1551242119,0.0909091
'7c7aae','VOZ749',144.8465,-37.7162,525.78,96.18,FALSE,171.7,5.2,'1425',1551242129,0.1818182
'7c7aae','VOZ749',144.8481,-37.7247,571.5,103.61,FALSE,171.15,5.85,'1425',1551242139,0.2727273
'7c7aae','VOZ749',144.8488,-37.7342,647.7,108.82,FALSE,184.07,7.48,'1425',1551242149,0.3636364
'7c7aae','VOZ749',144.8454,-37.7442,731.52,113.75,FALSE,199.83,9.75,'1425',1551242159,0.4545455
'7c7aae','VOZ749',144.8381,-37.7531,861.06,114.49,FALSE,218.98,11.7,'1425',1551242170,0.5454545
'7c7aae','VOZ749',144.8287,-37.7591,990.6,114.43,FALSE,235.81,12.68,'1425',1551242179,0.6363636
'7c7aae','VOZ749',144.8165,-37.7628,1127.76,114.42,FALSE,253.28,14.31,'1425',1551242189,0.7272727
'7c7aae','VOZ749',144.7913,-37.7603,1379.22,117.94,FALSE,285.43,8.13,'1425',1551242209,0.8181818
'7c7aae','VOZ749',144.7767,-37.7572,1432.56,126.65,FALSE,284.83,5.53,'1425',1551242219,0.9090909
'7c7aae','VOZ749',144.7631,-37.7542,1524,130.88,FALSE,286.44,12.03,'1425',1551242229,1.0000000
'7c7aa6','VOZ188',145.1035,-37.7199,1158.24,113.61,FALSE,308.01,-4.55,'0273',1551242108,0.0000000
'7c7aa6','VOZ188',145.0922,-37.7129,1104.9,112.48,FALSE,308.13,-5.53,'0273',1551242119,0.0909091
'7c7aa6','VOZ188',145.0825,-37.7068,1051.56,112.48,FALSE,308.13,-5.85,'0273',1551242129,0.1818182
'7c7aa6','VOZ188',145.0726,-37.7006,1021.08,111.36,FALSE,308.25,-2.28,'0273',1551242139,0.2727273
'7c7aa6','VOZ188',145.0626,-37.6943,1005.84,107.26,FALSE,308.57,-1.3,'0273',1551242149,0.3636364
'7c7aa6','VOZ188',145.0537,-37.6887,990.6,103.96,FALSE,308.57,-2.6,'0273',1551242159,0.4545455
'7c7aa6','VOZ188',145.0438,-37.6826,960.12,102.48,FALSE,307.04,-3.25,'0273',1551242170,0.5454545
'7c7aa6','VOZ188',145.0351,-37.6773,929.64,101.25,FALSE,307.57,-2.93,'0273',1551242179,0.6363636
'7c7aa6','VOZ188',145.0253,-37.6734,891.54,100.21,FALSE,291.69,-4.23,'0273',1551242189,0.7272727
'7c7aa6','VOZ188',145.0033,-37.6706,784.86,99.42,FALSE,272.97,-6.18,'0273',1551242208,0.8181818
'7c7aa6','VOZ188',144.9919,-37.6703,731.52,99.35,FALSE,272.08,-5.2,'0273',1551242219,0.9090909
'7c7aa6','VOZ188',144.9814,-37.6699,685.8,98.39,FALSE,273,-4.88,'0273',1551242228,1.0000000
