icao24,callsign,longitude,latitude,baro_altitude,velocity,on_ground,heading,vertical_rate,squawk,time,trajectory_number
'7c7a8f','YHT',144.943,-37.5924,426.72,58.66,False,1.01,-2.28,'0100',1551245838,0.0
'7c7a8f','YHT',144.9432,-37.5865,419.1,59.68,False,0.49,0,'0100',1551245849,0.16666666666666666
'7c7a8f','YHT',144.9432,-37.5827,419.1,58.68,False,2.01,0,'0100',1551245856,0.3333333333333333
'7c7a8f','YHT',144.9442,-37.5713,411.48,58.52,False,6.56,-1.3,'0100',1551245878,0.5
'7c7a8f','YHT',144.945,-37.5656,411.48,57.33,False,5.15,0.33,'0100',1551245889,0.6666666666666666
'7c7a8f','YHT',144.9451,-37.564,411.48,57.12,False,1.55,-0.33,'0100',1551245892,0.8333333333333333
'7c7a8f','YHT',144.9456,-37.5507,411.48,57.14,False,2.06,-0.33,'0100',1551245918,1.0
'7c81b0','ZWI',144.9857,-37.7293,396.24,59.17,False,269,-2.93,'3624',1551245838,0.0
'7c81b0','ZWI',144.9785,-37.7294,365.76,58.17,False,267.97,0.65,'3624',1551245849,0.047619047619047616
'7c81b0','ZWI',144.9721,-37.7296,335.28,60.23,False,268.04,-5.2,'3624',1551245859,0.09523809523809523
'7c81b0','ZWI',144.9653,-37.7297,304.8,62.76,False,270,-5.53,'3624',1551245869,0.14285714285714285
'7c81b0','ZWI',144.958,-37.7298,243.84,62.77,False,269.06,-4.55,'3624',1551245879,0.19047619047619047
'7c81b0','ZWI',144.9507,-37.73,213.36,61.81,False,267.14,-4.23,'3624',1551245889,0.23809523809523808
'7c81b0','ZWI',144.9438,-37.7304,213.36,60.11,False,263.12,-0.98,'3624',1551245899,0.2857142857142857
'7c81b0','ZWI',144.9411,-37.7308,182.88,51.7,False,238.84,3.25,'3624',1551245903,0.3333333333333333
'7c81b0','ZWI',144.9346,-37.7345,213.36,48.94,False,213.86,0.98,'3624',1551245918,0.38095238095238093
'7c81b0','ZWI',144.9327,-37.739,243.84,48.63,False,186.07,2.6,'3624',1551245929,0.42857142857142855
'7c81b0','ZWI',144.9355,-37.7472,304.8,47.85,False,153.16,1.63,'3624',1551245949,0.47619047619047616
'7c81b0','ZWI',144.9387,-37.7509,304.8,48.45,False,138.01,2.93,'3624',1551245959,0.5238095238095237
'7c81b0','ZWI',144.9426,-37.7543,335.28,51.01,False,138.27,3.58,'3624',1551245969,0.5714285714285714
'7c81b0','ZWI',144.9466,-37.7579,396.24,52.51,False,138.97,4.55,'3624',1551245979,0.6190476190476191
'7c81b0','ZWI',144.9503,-37.7612,426.72,50.6,False,137.06,4.55,'3624',1551245989,0.6666666666666666
'7c81b0','ZWI',144.9545,-37.7647,457.2,52.05,False,137,3.58,'3624',1551245999,0.7142857142857142
'7c81b0','ZWI',144.9584,-37.7679,487.68,52.38,False,135,4.55,'3624',1551246009,0.7619047619047619
'7c81b0','ZWI',144.963,-37.7713,548.64,52.05,False,133,4.55,'3624',1551246020,0.8095238095238095
'7c81b0','ZWI',144.9712,-37.7774,640.08,51.3,False,133.78,3.9,'3624',1551246039,0.8571428571428571
'7c81b0','ZWI',144.9755,-37.781,670.56,51.74,False,138.22,3.58,'3624',1551246049,0.9047619047619047
'7c81b0','ZWI',144.9793,-37.7846,701.04,52.07,False,142.22,2.93,'3624',1551246059,0.9523809523809523
'7c81b0','ZWI',144.9825,-37.7882,731.52,53.03,False,140.91,3.9,'3624',1551246069,1.0
'7c7801','QFA690',144.8332,-37.6436,152.4,72.75,False,171.87,-3.9,'4077',1551245554,0.0
'7c77ff','QFA450',144.8422,-37.6928,259.08,80.54,False,171.92,11.7,'3235',1551245859,0.0
'7c77ff','QFA450',144.8434,-37.7003,381,81.93,False,172.79,12.68,'3235',1551245869,0.04
'7c77ff','QFA450',144.8446,-37.7073,480.06,84.69,False,171.97,8.45,'3235',1551245879,0.08
'7c77ff','QFA450',144.8463,-37.7159,548.64,94.3,False,170.9,6.83,'3235',1551245889,0.12
'7c77ff','QFA450',144.8481,-37.7249,632.46,102.17,False,170.73,9.75,'3235',1551245899,0.16
'7c77ff','QFA450',144.8488,-37.7342,731.52,109.09,False,181.35,10.08,'3235',1551245909,0.2
'7c77ff','QFA450',144.8449,-37.744,853.44,114.97,False,203.47,15.61,'3235',1551245919,0.24
'7c77ff','QFA450',144.8371,-37.7517,998.22,116.49,False,222.85,18.86,'3235',1551245929,0.28
'7c77ff','QFA450',144.8127,-37.7589,1242.06,123.38,False,265.22,10.4,'3235',1551245948,0.32
'7c77ff','QFA450',144.7969,-37.7573,1341.12,131.01,False,279.72,11.38,'3235',1551245959,0.36
'7c77ff','QFA450',144.783,-37.7551,1485.9,133.28,False,281.35,17.88,'3235',1551245969,0.4
'7c77ff','QFA450',144.7677,-37.7517,1684.02,133.58,False,289.34,20.48,'3235',1551245979,0.44
'7c77ff','QFA450',144.7555,-37.746,1844.04,134.28,False,304.54,18.53,'3235',1551245988,0.48
'7c77ff','QFA450',144.7438,-37.7368,2026.92,135.49,False,320.08,17.56,'3235',1551245999,0.52
'7c77ff','QFA450',144.7366,-37.7266,2186.94,138.08,False,334.87,16.58,'3235',1551246009,0.56
'7c77ff','QFA450',144.7325,-37.7136,2346.96,141.75,False,348.49,14.63,'3235',1551246019,0.6
'7c77ff','QFA450',144.7373,-37.689,2651.76,148.25,False,19.88,15.61,'3235',1551246039,0.64
'7c77ff','QFA450',144.7435,-37.6765,2819.4,149.51,False,21.18,16.58,'3235',1551246048,0.68
'7c77ff','QFA450',144.7501,-37.6627,3002.28,150.77,False,20.78,17.88,'3235',1551246059,0.72
'7c77ff','QFA450',144.7559,-37.6506,3162.3,152.28,False,21.19,17.88,'3235',1551246069,0.76
'7c77ff','QFA450',144.7626,-37.6369,3337.56,153.91,False,21.16,13.66,'3235',1551246080,0.8
'7c77ff','QFA450',144.7688,-37.6243,3406.14,159.93,False,21.12,4.55,'3235',1551246089,0.84
'7c77ff','QFA450',144.7756,-37.6103,3459.48,168.43,False,21.31,5.85,'3235',1551246099,0.88
'7c77ff','QFA450',144.7828,-37.5956,3505.2,176.74,False,21.34,5.2,'3235',1551246109,0.92
'7c77ff','QFA450',144.7902,-37.5818,3596.64,181.93,False,24.03,13.33,'3235',1551246118,0.96
'7c77ff','QFA450',144.8004,-37.566,3779.52,183.24,False,28.51,16.26,'3235',1551246129,1.0
'7c6db7','QFA483',144.8185,-37.5652,601.98,96.76,False,171.44,-5.53,'4310',1551245948,0.0
'7c6db7','QFA483',144.8203,-37.5747,548.64,91.02,False,171.55,-5.2,'4310',1551245959,0.1
'7c6db7','QFA483',144.8217,-37.5824,502.92,87.38,False,171.54,-4.88,'4310',1551245969,0.2
'7c6db7','QFA483',144.8231,-37.5898,464.82,82.72,False,171.42,-4.23,'4310',1551245979,0.30000000000000004
'7c6db7','QFA483',144.8244,-37.5969,426.72,79.52,False,171.82,-4.55,'4310',1551245989,0.4
'7c6db7','QFA483',144.8257,-37.6037,388.62,78.07,False,171.28,-4.23,'4310',1551245999,0.5
'7c6db7','QFA483',144.827,-37.6109,342.9,77.41,False,171.98,-3.9,'4310',1551246009,0.6000000000000001
'7c6db7','QFA483',144.8283,-37.6179,304.8,77.99,False,171.66,-3.9,'4310',1551246019,0.7000000000000001
'7c6db7','QFA483',144.8293,-37.6232,236.22,77.56,False,171.22,-4.23,'4310',1551246027,0.8
'7c6db7','QFA483',144.8321,-37.6384,190.5,77.99,False,171.66,-4.55,'4310',1551246049,0.9
'7c6db7','QFA483',144.8332,-37.6439,160.02,77.56,False,171.22,-4.23,'4310',1551246057,1.0
'7c62ab','RXA3682',144.8399,-37.68,160.02,67.45,False,172.55,10.08,None,1551245959,0.0
'7c62ab','RXA3682',144.8409,-37.6865,236.22,71.98,False,173.43,7.48,'4004',1551245969,0.030303030303030304
'7c62ab','RXA3682',144.8416,-37.6929,342.9,71.77,False,175.07,12.35,'4004',1551245979,0.06060606060606061
'7c62ab','RXA3682',144.8422,-37.6994,441.96,72.68,False,176.35,10.08,'4004',1551245989,0.09090909090909091
'7c62ab','RXA3682',144.84,-37.706,548.64,73.85,False,206.92,10.4,'4004',1551245999,0.12121212121212122
'7c62ab','RXA3682',144.8337,-37.7101,640.08,77.08,False,244.29,9.43,'4004',1551246009,0.15151515151515152
'7c62ab','RXA3682',144.8245,-37.7104,723.9,79.59,False,278.55,7.15,'4004',1551246019,0.18181818181818182
'7c62ab','RXA3682',144.8093,-37.7038,830.58,81.09,False,301.77,4.88,'4004',1551246039,0.21212121212121213
'7c62ab','RXA3682',144.8012,-37.6997,891.54,80.77,False,302.78,6.5,'4004',1551246049,0.24242424242424243
'7c62ab','RXA3682',144.7935,-37.6957,960.12,78.62,False,303.79,8.13,'4004',1551246059,0.2727272727272727
'7c62ab','RXA3682',144.7864,-37.6919,1021.08,77.48,False,303.9,5.85,'4004',1551246069,0.30303030303030304
'7c62ab','RXA3682',144.7786,-37.6877,1082.04,77.34,False,304.43,6.18,'4004',1551246080,0.33333333333333337
'7c62ab','RXA3682',144.772,-37.684,1143,77.21,False,304.96,7.48,'4004',1551246089,0.36363636363636365
'7c62ab','RXA3682',144.7647,-37.68,1219.2,76.49,False,304.87,7.48,'4004',1551246099,0.3939393939393939
'7c62ab','RXA3682',144.7578,-37.6761,1287.78,76.07,False,305.09,7.48,'4004',1551246109,0.42424242424242425
'7c62ab','RXA3682',144.7508,-37.6722,1356.36,76.07,False,305.09,7.15,'4004',1551246119,0.4545454545454546
'7c62ab','RXA3682',144.7433,-37.6681,1409.7,77.63,False,304.74,4.23,'4004',1551246129,0.48484848484848486
'7c62ab','RXA3682',144.7285,-37.6599,1493.52,83.91,False,304.76,4.55,'4004',1551246149,0.5151515151515151
'7c62ab','RXA3682',144.7212,-37.6551,1539.24,85.55,False,312.81,6.18,'4004',1551246159,0.5454545454545454
'7c62ab','RXA3682',144.7148,-37.6488,1607.82,85.1,False,324.1,7.15,'4004',1551246169,0.5757575757575758
'7c62ab','RXA3682',144.7096,-37.6425,1676.4,84.48,False,327.18,7.15,'4004',1551246179,0.6060606060606061
'7c62ab','RXA3682',144.7044,-37.6359,1744.98,83.82,False,328.55,6.83,'4004',1551246189,0.6363636363636364
'7c62ab','RXA3682',144.6996,-37.6297,1805.94,83.38,False,328.37,6.18,'4004',1551246199,0.6666666666666667
'7c62ab','RXA3682',144.6946,-37.6232,1866.9,83.38,False,328.37,6.18,'4004',1551246209,0.696969696969697
'7c62ab','RXA3682',144.6901,-37.6174,1920.24,83.65,False,328.07,5.85,'4004',1551246218,0.7272727272727273
'7c62ab','RXA3682',144.6844,-37.6101,1981.2,83.65,False,328.07,5.85,'4004',1551246230,0.7575757575757576
'7c62ab','RXA3682',144.6743,-37.5974,2087.88,84.91,False,327.37,5.2,'4004',1551246249,0.7878787878787878
'7c62ab','RXA3682',144.6695,-37.5915,2141.22,84.91,False,327.37,5.85,'4004',1551246259,0.8181818181818182
'7c62ab','RXA3682',144.6644,-37.585,2202.18,85.07,False,327.85,6.18,'4004',1551246269,0.8484848484848485
'7c62ab','RXA3682',144.6591,-37.5784,2263.14,84.91,False,327.37,6.18,'4004',1551246279,0.8787878787878788
'7c62ab','RXA3682',144.6545,-37.5726,2308.86,84.91,False,327.37,5.85,'4004',1551246288,0.9090909090909092
'7c62ab','RXA3682',144.6487,-37.5655,2377.44,84.48,False,327.18,6.5,'4004',1551246299,0.9393939393939394
'7c62ab','RXA3682',144.6437,-37.5593,2438.4,84.05,False,326.99,6.5,'4004',1551246309,0.9696969696969697
'7c62ab','RXA3682',144.6382,-37.5526,2491.74,84.76,False,326.89,3.58,'4004',1551246319,1.0
'7c7aa4','VOZ228',144.8173,-37.5585,640.08,94.14,False,171.52,-5.2,'3264',1551246159,0.0
'7c7aa4','VOZ228',144.8187,-37.5663,594.36,90.51,False,171.5,-5.2,'3264',1551246169,0.08333333333333333
'7c7aa4','VOZ228',144.8203,-37.5744,548.64,86.87,False,171.49,-4.88,'3264',1551246179,0.16666666666666666
'7c7aa4','VOZ228',144.8217,-37.5824,502.92,84.1,False,172.27,-4.55,'3264',1551246190,0.25
'7c7aa4','VOZ228',144.823,-37.5893,464.82,79.09,False,171.4,-4.23,'3264',1551246199,0.3333333333333333
'7c7aa4','VOZ228',144.8243,-37.5961,426.72,75.45,False,171.37,-4.23,'3264',1551246209,0.41666666666666663
'7c7aa4','VOZ228',144.8254,-37.6024,388.62,73.41,False,171.13,-4.88,'3264',1551246219,0.5
'7c7aa4','VOZ228',144.8266,-37.6089,350.52,73.77,False,171.98,-4.23,'3264',1551246228,0.5833333333333333
'7c7aa4','VOZ228',144.8281,-37.6167,312.42,73.85,False,171.59,-3.9,'3264',1551246240,0.6666666666666666
'7c7aa4','VOZ228',144.8294,-37.6234,274.32,73.85,False,171.59,-3.9,'3264',1551246251,0.75
'7c7aa4','VOZ228',144.8316,-37.6355,198.12,73.77,False,171.98,-3.58,'3264',1551246269,0.8333333333333333
'7c7aa4','VOZ228',144.8328,-37.642,167.64,73.92,False,171.19,-3.58,'3264',1551246279,0.9166666666666666
'7c7aa4','VOZ228',144.8329,-37.6426,137.16,73.92,False,171.19,-3.58,'3264',1551246280,1.0
'7c6c94','JST778',144.8421,-37.6911,281.94,76.12,False,170.67,13.33,'4005',1551246179,0.0
'7c6c94','JST778',144.8435,-37.6984,403.86,77.56,False,171.22,10.08,'4005',1551246189,0.043478260869565216
'7c6c94','JST778',144.8448,-37.7055,472.44,81.56,False,172.02,6.18,'4005',1551246199,0.08695652173913043
'7c6c94','JST778',144.8462,-37.7133,525.78,88.4,False,171.63,5.2,'4005',1551246209,0.13043478260869565
'7c6c94','JST778',144.8476,-37.7209,571.5,95.24,False,171.3,5.53,'4005',1551246219,0.17391304347826086
'7c6c94','JST778',144.8496,-37.7309,632.46,102.59,False,171.06,5.2,'4005',1551246230,0.21739130434782608
'7c6c94','JST778',144.8486,-37.7491,784.86,114.5,False,203.57,11.7,'4005',1551246249,0.2608695652173913
'7c6c94','JST778',144.8402,-37.7573,891.54,116.93,False,228.03,13.33,'4005',1551246258,0.30434782608695654
'7c6c94','JST778',144.8278,-37.7616,1036.32,117.31,False,254.74,15.61,'4005',1551246269,0.34782608695652173
'7c6c94','JST778',144.8144,-37.7613,1173.48,119.26,False,277.19,10.4,'4005',1551246279,0.3913043478260869
'7c6c94','JST778',144.8009,-37.7595,1249.68,126.32,False,281.04,9.1,'4005',1551246289,0.43478260869565216
'7c6c94','JST778',144.7858,-37.7568,1348.74,132.03,False,283.06,11.7,'4005',1551246299,0.4782608695652174
'7c6c94','JST778',144.7716,-37.754,1493.52,135.01,False,283.67,16.26,'4005',1551246309,0.5217391304347826
'7c6c94','JST778',144.7556,-37.751,1676.4,136.39,False,283.3,18.21,'4005',1551246319,0.5652173913043478
'7c6c94','JST778',144.7266,-37.7459,2011.68,137.22,False,281.9,17.88,'4005',1551246339,0.6086956521739131
'7c6c94','JST778',144.7107,-37.7428,2179.32,138.37,False,286.41,15.61,'4005',1551246349,0.6521739130434783
'7c6c94','JST778',144.696,-37.7381,2331.72,140.63,False,294.88,16.26,'4005',1551246359,0.6956521739130435
'7c6c94','JST778',144.6818,-37.7328,2484.12,141.97,False,295.54,15.93,'4005',1551246369,0.7391304347826086
'7c6c94','JST778',144.6674,-37.7273,2644.14,143.12,False,295.55,17.23,'4005',1551246379,0.7826086956521738
'7c6c94','JST778',144.6527,-37.7217,2811.78,143.59,False,295.46,17.56,'4005',1551246389,0.8260869565217391
'7c6c94','JST778',144.6388,-37.7165,2964.18,144.52,False,295.29,17.56,'4005',1551246398,0.8695652173913043
'7c6c94','JST778',144.6227,-37.7105,3147.06,144.76,False,295.02,15.93,'4005',1551246409,0.9130434782608695
'7c6c94','JST778',144.6083,-37.7052,3284.22,145.91,False,295.03,15.93,'4005',1551246419,0.9565217391304348
'7c6c94','JST778',144.5922,-37.6992,3436.62,148,False,294.87,13.98,'4005',1551246429,1.0
'7c6c92','JST607',145.0963,-37.7428,4175.76,176.07,False,236.68,-9.1,'4030',1551246399,0.0
'7c6c92','JST607',145.0794,-37.7517,4084.32,174.78,False,236.4,-9.1,'4030',1551246409,0.25
'7c6c92','JST607',145.0632,-37.7602,4008.12,173.5,False,236.12,-7.15,'4030',1551246419,0.5
'7c6c92','JST607',145.046,-37.7694,3939.54,171.08,False,235.78,-7.48,'4030',1551246429,0.75
'7c6c92','JST607',145.0131,-37.7855,3703.32,171.4,False,243.82,-13.33,'4030',1551246449,1.0
'7c7a3e','VOZ233',144.8423,-37.693,274.32,81.42,False,172.74,12.68,'4227',1551246469,0.0
'7c7a3e','VOZ233',144.8434,-37.7006,403.86,82.38,False,173.19,12.35,'4227',1551246479,0.045454545454545456
'7c7a3e','VOZ233',144.8444,-37.7081,533.4,83.8,False,174.01,14.31,'4227',1551246490,0.09090909090909091
'7c7a3e','VOZ233',144.8453,-37.7156,632.46,88.92,False,174.36,8.78,'4227',1551246499,0.13636363636363635
'7c7a3e','VOZ233',144.8466,-37.7244,708.66,97.89,False,173.36,6.5,'4227',1551246509,0.18181818181818182
'7c7a3e','VOZ233',144.8478,-37.7331,800.1,103.45,False,174.01,12.03,'4227',1551246519,0.2272727272727273
'7c7a3e','VOZ233',144.8473,-37.7433,899.16,110.38,False,188.85,10.4,'4227',1551246529,0.2727272727272727
'7c7a3e','VOZ233',144.8343,-37.7597,1181.1,113.91,False,226.65,16.58,'4227',1551246549,0.3181818181818182
'7c7a3e','VOZ233',144.8226,-37.7659,1295.4,119.02,False,241.33,9.43,'4227',1551246560,0.36363636363636365
'7c7a3e','VOZ233',144.8106,-37.7691,1363.98,126.05,False,257.27,8.13,'4227',1551246569,0.4090909090909091
'7c7a3e','VOZ233',144.7955,-37.7691,1432.56,134.96,False,277.67,7.15,'4227',1551246579,0.4545454545454546
'7c7a3e','VOZ233',144.7803,-37.7654,1508.76,141.5,False,290.87,9.1,'4227',1551246589,0.5
'7c7a3e','VOZ233',144.7648,-37.7606,1584.96,149.51,False,291.18,7.8,'4227',1551246599,0.5454545454545454
'7c7a3e','VOZ233',144.748,-37.7555,1676.4,156.79,False,290.75,12.03,'4227',1551246609,0.5909090909090909
'7c7a3e','VOZ233',144.7311,-37.7504,1836.42,158.42,False,290.73,15.28,'4227',1551246619,0.6363636363636364
'7c7a3e','VOZ233',144.7149,-37.7455,1973.58,159.74,False,290.94,17.23,'4227',1551246629,0.6818181818181819
'7c7a3e','VOZ233',144.6816,-37.7335,2293.62,164.1,False,295.04,16.26,'4227',1551246649,0.7272727272727273
'7c7a3e','VOZ233',144.6633,-37.7266,2430.78,168.23,False,295.15,11.38,'4227',1551246660,0.7727272727272727
'7c7a3e','VOZ233',144.6477,-37.7208,2529.84,171.68,False,295.18,12.68,'4227',1551246668,0.8181818181818182
'7c7a3e','VOZ233',144.6278,-37.7133,2682.24,175.13,False,295.21,14.31,'4227',1551246680,0.8636363636363636
'7c7a3e','VOZ233',144.6107,-37.707,2811.78,177.65,False,295.38,14.63,'4227',1551246689,0.9090909090909092
'7c7a3e','VOZ233',144.5919,-37.6998,2979.42,179.02,False,295.53,16.26,'4227',1551246699,0.9545454545454546
'7c7a3e','VOZ233',144.5742,-37.6932,3131.82,180.41,False,295.32,16.58,'4227',1551246709,1.0
'7c3890','LGI',144.9245,-37.7875,601.98,54.01,False,342.26,-0.65,'0100',1551246559,0.0
'7c3890','LGI',144.9228,-37.7829,594.36,53.79,False,347.29,-0.33,'0100',1551246569,0.058823529411764705
'7c3890','LGI',144.9225,-37.7782,594.36,51.88,False,7.41,-0.65,'0100',1551246579,0.11764705882352941
'7c3890','LGI',144.9244,-37.7741,579.12,48.1,False,32.33,-2.28,'0100',1551246589,0.1764705882352941
'7c3890','LGI',144.9284,-37.7709,556.26,47.56,False,51.15,-2.93,'0100',1551246600,0.23529411764705882
'7c3890','LGI',144.9319,-37.7678,533.4,47.29,False,30.75,-2.93,'0100',1551246609,0.29411764705882354
'7c3890','LGI',144.9336,-37.7637,502.92,47.95,False,9.26,-2.93,'0100',1551246620,0.3529411764705882
'7c3890','LGI',144.9344,-37.7596,487.68,46.52,False,10.19,-2.6,'0100',1551246629,0.4117647058823529
'7c3890','LGI',144.9361,-37.7517,434.34,43.73,False,8.8,-3.58,'0100',1551246649,0.47058823529411764
'7c3890','LGI',144.9367,-37.7475,396.24,44.9,False,4.6,-3.58,'0100',1551246660,0.5294117647058824
'7c3890','LGI',144.9371,-37.744,365.76,44.86,False,3.95,-4.23,'0100',1551246669,0.5882352941176471
'7c3890','LGI',144.9374,-37.7397,320.04,45.28,False,1.3,-3.25,'0100',1551246679,0.6470588235294118
'7c3890','LGI',144.9367,-37.7357,281.94,45.19,False,337.23,-3.9,'0100',1551246689,0.7058823529411764
'7c3890','LGI',144.9363,-37.7349,274.32,45.1,False,334.31,-4.88,'0100',1551246691,0.7647058823529411
'7c3890','LGI',144.9302,-37.7306,190.5,41.06,False,285.26,-5.2,'0100',1551246707,0.8235294117647058
'7c3890','LGI',144.9252,-37.7304,137.16,38.19,False,265.36,-3.58,'0100',1551246718,0.8823529411764706
'7c3890','LGI',144.9211,-37.7306,76.2,36.07,False,266.73,-3.9,'0100',1551246728,0.9411764705882353
'7c3890','LGI',144.9161,-37.7307,60.96,34.48,False,268.29,-3.25,'0100',1551246741,1.0
'76ceec','',144.8417,-37.6896,205.74,99.31,False,171.66,12.35,'1446',1551246559,0.0
'76ceec','SIA228',144.8432,-37.6983,320.04,100.76,False,172.08,12.68,'1446',1551246569,0.041666666666666664
'76ceec','SIA228',144.8449,-37.7074,457.2,101.35,False,171.83,14.96,'1446',1551246579,0.08333333333333333
'76ceec','SIA228',144.8466,-37.7167,586.74,103.1,False,171.1,10.4,'1446',1551246589,0.125
'76ceec','SIA228',144.8485,-37.7263,647.7,107.41,False,170.63,4.88,'1446',1551246599,0.16666666666666666
'76ceec','SIA228',144.8503,-37.7355,678.18,113.14,False,172.42,2.6,'1446',1551246608,0.20833333333333331
'76ceec','SIA228',144.8507,-37.7448,685.8,120.31,False,184.91,0.65,'1446',1551246617,0.25
'76ceec','SIA228',144.8455,-37.7568,701.04,128.13,False,209.86,0.98,'1446',1551246628,0.29166666666666663
'76ceec','SIA228',144.8213,-37.7713,815.34,137.14,False,251.63,8.45,'1446',1551246649,0.3333333333333333
'76ceec','SIA228',144.806,-37.7727,899.16,140.11,False,272.95,7.8,'1446',1551246659,0.375
'76ceec','SIA228',144.7903,-37.7699,998.22,140.06,False,291.1,13.98,'1446',1551246669,0.41666666666666663
'76ceec','SIA228',144.7755,-37.7645,1173.48,136,False,295.3,18.53,'1446',1551246679,0.4583333333333333
'76ceec','SIA228',144.7622,-37.7596,1325.88,133.27,False,294.88,15.28,'1446',1551246689,0.5
'76ceec','SIA228',144.7479,-37.7546,1455.42,133.01,False,292.99,11.05,'1446',1551246699,0.5416666666666666
'76ceec','SIA228',144.7343,-37.7503,1524,135.96,False,290.84,7.8,'1446',1551246709,0.5833333333333333
'76ceec','SIA228',144.7206,-37.7463,1607.82,137.22,False,290.41,10.73,'1446',1551246718,0.625
'76ceec','SIA228',144.7056,-37.7416,1737.36,136.61,False,292.12,13.98,'1446',1551246729,0.6666666666666666
'76ceec','SIA228',144.692,-37.737,1859.28,136.07,False,294.34,12.03,'1446',1551246738,0.7083333333333333
'76ceec','SIA228',144.664,-37.7264,2057.4,137.84,False,295.42,10.08,'1446',1551246759,0.75
'76ceec','SIA228',144.6486,-37.7207,2164.08,139.23,False,295.14,10.4,'1446',1551246769,0.7916666666666666
'76ceec','SIA228',144.6358,-37.7158,2255.52,139.67,False,295.53,11.7,'1446',1551246778,0.8333333333333333
'76ceec','SIA228',144.6209,-37.7103,2377.44,139.92,False,295.25,11.38,'1446',1551246789,0.875
'76ceec','SIA228',144.6065,-37.7049,2484.12,140.38,False,295.16,10.4,'1446',1551246799,0.9166666666666666
'76ceec','SIA228',144.5909,-37.6991,2590.8,141.53,False,295.17,10.4,'1446',1551246809,0.9583333333333333
'76ceec','SIA228',144.5774,-37.694,2682.24,142.68,False,295.18,10.73,'1446',1551246819,1.0
'7cf8eb','BFRT35',145.1041,-37.7105,4564.38,153.28,False,220.37,-7.8,'1034',1551246559,0.0
'7cf8eb','BFRT35',145.0939,-37.7202,4495.8,151.83,False,220.33,-7.8,'1034',1551246569,0.14285714285714285
'7cf8eb','BFRT35',145.082,-37.7313,4411.98,150.32,False,220.56,-7.8,'1034',1551246579,0.2857142857142857
'7cf8eb','BFRT35',145.0714,-37.7411,4343.4,149.26,False,220.39,-7.48,'1034',1551246589,0.42857142857142855
'7cf8eb','BFRT35',145.0604,-37.7514,4267.2,147.48,False,220.19,-7.8,'1034',1551246599,0.5714285714285714
'7cf8eb','BFRT35',145.0499,-37.7613,4198.62,146.43,False,220.01,-7.48,'1034',1551246609,0.7142857142857142
'7cf8eb','BFRT35',145.0378,-37.7708,4114.8,144.79,False,232.07,-9.1,'1034',1551246620,0.8571428571428571
'7cf8eb','BFRT35',145.0244,-37.7777,4046.22,143.02,False,239.28,-6.5,'1034',1551246629,1.0
'7c06d6','BMW',144.8156,-37.55,701.04,76.83,False,172.3,-3.9,'4213',1551246628,0.0
'7c06d6','BMW',144.8181,-37.5636,617.22,75.53,False,170.99,-4.23,'4213',1551246649,0.07142857142857142
'7c06d6','BMW',144.8196,-37.571,579.12,73.5,False,170.74,-3.25,'4213',1551246659,0.14285714285714285
'7c06d6','BMW',144.8207,-37.5768,548.64,69.19,False,171.45,-5.2,'4213',1551246669,0.21428571428571427
'7c06d6','BMW',144.8219,-37.5832,502.92,69.27,False,171.03,-2.6,'4213',1551246679,0.2857142857142857
'7c06d6','BMW',144.823,-37.5893,472.44,69.12,False,171.87,-3.9,'4213',1551246689,0.3571428571428571
'7c06d6','BMW',144.8242,-37.5958,434.34,68.68,False,171.38,-3.9,'4213',1551246700,0.42857142857142855
'7c06d6','BMW',144.8253,-37.6013,396.24,68.17,False,171.32,-3.9,'4213',1551246709,0.5
'7c06d6','BMW',144.8265,-37.6074,358.14,67.24,False,170.75,-3.58,'4213',1551246719,0.5714285714285714
'7c06d6','BMW',144.8276,-37.6136,327.66,66.43,False,172.43,-3.58,'4213',1551246729,0.6428571428571428
'7c06d6','BMW',144.8283,-37.6179,304.8,65.99,False,171.93,-3.58,'4213',1551246737,0.7142857142857142
'7c06d6','BMW',144.8307,-37.6302,236.22,64.46,False,171.74,-3.25,'4213',1551246758,0.7857142857142857
'7c06d6','BMW',144.8319,-37.6368,190.5,63.95,False,171.67,-3.25,'4213',1551246769,0.8571428571428571
'7c06d6','BMW',144.8329,-37.6421,167.64,63.52,False,171.15,-3.25,'4213',1551246779,0.9285714285714285
'7c06d6','BMW',144.8332,-37.6438,129.54,63.52,False,171.15,-3.25,'4213',1551246782,1.0
'7c6c29','TGG256',144.8424,-37.6946,388.62,72.75,False,171.87,14.63,'3262',1551246929,0.0
'7c6c29','TGG256',144.8448,-37.7073,571.5,77.48,False,171.6,6.5,'3262',1551246949,0.043478260869565216
'7c6c29','TGG256',144.8463,-37.7151,632.46,84.91,False,170.94,5.2,'3262',1551246959,0.08695652173913043
'7c6c29','TGG256',144.8479,-37.7232,693.42,91.17,False,170.91,6.83,'3262',1551246969,0.13043478260869565
'7c6c29','TGG256',144.8495,-37.731,746.76,99.24,False,171.95,5.85,'3262',1551246979,0.17391304347826086
'7c6c29','TGG256',144.8494,-37.7406,792.48,107.46,False,187.7,4.88,'3262',1551246989,0.21739130434782608
'7c6c29','TGG256',144.8438,-37.7508,822.96,119.86,False,214.51,4.55,'3262',1551246999,0.2608695652173913
'7c6c29','TGG256',144.8331,-37.7577,922.02,125.92,False,241.45,13.66,'3262',1551247009,0.30434782608695654
'7c6c29','TGG256',144.8193,-37.7604,1112.52,124.36,False,263.11,23.73,'3262',1551247019,0.34782608695652173
'7c6c29','TGG256',144.8063,-37.7604,1303.02,123.23,False,273.83,17.56,'3262',1551247029,0.3913043478260869
'7c6c29','TGG256',144.7769,-37.7556,1546.86,135.04,False,289.13,10.4,'3262',1551247049,0.43478260869565216
'7c6c29','TGG256',144.7635,-37.7494,1630.68,142.91,False,306.95,9.75,'3262',1551247059,0.4782608695652174
'7c6c29','TGG256',144.7516,-37.7398,1729.74,150.32,False,320.97,10.08,'3262',1551247069,0.5217391304347826
'7c6c29','TGG256',144.7436,-37.7294,1805.94,156.55,False,331.33,8.78,'3262',1551247078,0.5652173913043478
'7c6c29','TGG256',144.7369,-37.7134,1889.76,167.01,False,347.55,7.8,'3262',1551247090,0.6086956521739131
'7c6c29','TGG256',144.7354,-37.6993,1950.72,174.91,False,0,6.5,'3262',1551247099,0.6521739130434783
'7c6c29','TGG256',144.7386,-37.6843,2019.3,182.61,False,16.7,11.05,'3262',1551247108,0.6956521739130435
'7c6c29','TGG256',144.7452,-37.6697,2171.7,185.23,False,21.51,15.28,'3262',1551247118,0.7391304347826086
'7c6c29','TGG256',144.7547,-37.6511,2331.72,187.15,False,22.12,16.91,'3262',1551247130,0.7826086956521738
'7c6c29','TGG256',144.7703,-37.6206,2644.14,189.25,False,22.03,17.23,'3262',1551247149,0.8260869565217391
'7c6c29','TGG256',144.7788,-37.6036,2811.78,190.01,False,21.77,16.58,'3262',1551247159,0.8695652173913043
'7c6c29','TGG256',144.7867,-37.588,2987.04,191.44,False,21.6,17.88,'3262',1551247169,0.9130434782608695
'7c6c29','TGG256',144.7949,-37.5723,3139.44,192.23,False,24.51,16.26,'3262',1551247179,0.9565217391304348
'7c6c29','TGG256',144.8048,-37.558,3276.6,193.66,False,31.2,15.93,'3262',1551247188,1.0
'7c6db2','QFA448',144.842,-37.6923,243.84,80.91,False,172.69,13.98,'3605',1551247000,0.0
'7c6db2','QFA448',144.8431,-37.6992,350.52,82.51,False,172.48,11.7,'3605',1551247009,0.04
'7c6db2','QFA448',144.8445,-37.7073,472.44,84.18,False,171.92,12.35,'3605',1551247020,0.08
'7c6db2','QFA448',144.846,-37.7146,556.26,89.82,False,170.11,8.45,'3605',1551247029,0.12
'7c6db2','QFA448',144.849,-37.7319,723.9,103.51,False,177.44,9.1,'3605',1551247049,0.16
'7c6db2','QFA448',144.8472,-37.7412,800.1,110.92,False,194.23,8.13,'3605',1551247059,0.2
'7c6db2','QFA448',144.8404,-37.7508,891.54,119.88,False,217.85,11.38,'3605',1551247069,0.24
'7c6db2','QFA448',144.8302,-37.7575,1036.32,122.31,False,237.71,16.26,'3605',1551247079,0.28
'7c6db2','QFA448',144.8161,-37.7608,1203.96,123.41,False,259.67,13.98,'3605',1551247090,0.32
'7c6db2','QFA448',144.8033,-37.7599,1310.64,127.63,False,279.04,11.05,'3605',1551247099,0.36
'7c6db2','QFA448',144.7883,-37.7565,1447.8,130.73,False,286.22,16.58,'3605',1551247109,0.4
'7c6db2','QFA448',144.7741,-37.7534,1615.44,132.39,False,284.63,17.56,'3605',1551247119,0.44
'7c6db2','QFA448',144.7595,-37.7495,1790.7,134.15,False,293.03,18.21,'3605',1551247130,0.48
'7c6db2','QFA448',144.7386,-37.7336,2087.88,138.79,False,328.49,15.28,'3605',1551247148,0.52
'7c6db2','QFA448',144.7328,-37.7209,2270.76,140.87,False,346.27,17.88,'3605',1551247159,0.56
'7c6db2','QFA448',144.7314,-37.7112,2438.4,143.02,False,0,18.53,'3605',1551247167,0.6
'7c6db2','QFA448',144.7336,-37.6954,2621.28,145.09,False,10.83,19.18,'3605',1551247179,0.64
'7c6db2','QFA448',144.7388,-37.6827,2788.92,147.34,False,20.65,18.21,'3605',1551247189,0.68
'7c6db2','QFA448',144.7456,-37.6701,2956.56,149.97,False,23.66,15.93,'3605',1551247199,0.72
'7c6db2','QFA448',144.7522,-37.6581,3131.82,150.85,False,23.94,18.86,'3605',1551247209,0.76
'7c6db2','QFA448',144.7595,-37.645,3322.32,150.7,False,23.33,17.56,'3605',1551247220,0.8
'7c6db2','QFA448',144.7657,-37.633,3451.86,153.52,False,21.84,13,'3605',1551247229,0.84
'7c6db2','QFA448',144.7788,-37.6058,3672.84,163.29,False,20.66,10.08,'3605',1551247249,0.88
'7c6db2','QFA448',144.7855,-37.5918,3756.66,169.98,False,20.74,8.45,'3605',1551247259,0.92
'7c6db2','QFA448',144.7929,-37.5775,3832.86,176.14,False,24.32,8.45,'3605',1551247269,0.96
'7c6db2','QFA448',144.8026,-37.5627,3924.3,181.19,False,28.68,10.08,'3605',1551247279,1.0
'7c6d9b','',144.842,-37.6919,220.98,82.44,False,172.83,13.33,'4372',1551247099,0.0
'7c6d9b','QFA693',144.8434,-37.6995,342.9,83.74,False,171.52,12.03,'4372',1551247110,0.045454545454545456
'7c6d9b','QFA693',144.8447,-37.707,449.58,86.79,False,171.82,10.08,'4372',1551247119,0.09090909090909091
'7c6d9b','QFA693',144.8462,-37.7156,502.92,96.62,False,172.04,2.93,'4372',1551247130,0.13636363636363635
'7c6d9b','QFA693',144.8487,-37.7336,632.46,112.15,False,179.74,7.48,'4372',1551247148,0.18181818181818182
'7c6d9b','QFA693',144.8457,-37.7428,731.52,119.51,False,204.14,12.35,'4372',1551247157,0.2272727272727273
'7c6d9b','QFA693',144.8358,-37.753,861.06,123.7,False,226.01,14.63,'4372',1551247169,0.2727272727272727
'7c6d9b','QFA693',144.8236,-37.7588,1028.7,123.48,False,246.43,19.83,'4372',1551247179,0.3181818181818182
'7c6d9b','QFA693',144.8109,-37.7608,1173.48,123.79,False,263.32,14.31,'4372',1551247189,0.36363636363636365
'7c6d9b','QFA693',144.7954,-37.7596,1257.3,131.09,False,279.94,7.48,'4372',1551247199,0.4090909090909091
'7c6d9b','QFA693',144.7815,-37.7572,1379.22,133.7,False,282.22,16.58,'4372',1551247209,0.4545454545454546
'7c6d9b','QFA693',144.7659,-37.7541,1546.86,135.14,False,284.78,16.91,'4372',1551247220,0.5
'7c6d9b','QFA693',144.752,-37.7512,1706.88,135.64,False,284.72,17.88,'4372',1551247229,0.5454545454545454
'7c6d9b','QFA693',144.7222,-37.745,1996.44,140.14,False,285.11,9.1,'4372',1551247249,0.5909090909090909
'7c6d9b','QFA693',144.705,-37.7404,2049.78,148.56,False,289.63,6.18,'4372',1551247260,0.6363636363636364
'7c6d9b','QFA693',144.6899,-37.7353,2110.74,155.24,False,293.85,6.18,'4372',1551247269,0.6818181818181819
'7c6d9b','QFA693',144.6723,-37.7286,2202.18,162.45,False,295.51,13,'4372',1551247280,0.7272727272727273
'7c6d9b','QFA693',144.6569,-37.7228,2346.96,163.85,False,295.28,16.58,'4372',1551247289,0.7727272727272727
'7c6d9b','QFA693',144.6393,-37.7163,2514.6,165.25,False,295.05,15.61,'4372',1551247299,0.8181818181818182
'7c6d9b','QFA693',144.6226,-37.7101,2659.38,166.86,False,294.98,15.28,'4372',1551247309,0.8636363636363636
'7c6d9b','QFA693',144.605,-37.7036,2819.4,167.79,False,294.84,15.93,'4372',1551247319,0.9090909090909092
'7c6d9b','QFA693',144.5887,-37.6976,2956.56,169.41,False,294.78,15.93,'4372',1551247329,0.9545454545454546
'7c6d9b','QFA693',144.5697,-37.6906,3116.58,171.71,False,294.8,14.63,'4372',1551247340,1.0
'8964c1','ETD25G',144.8432,-37.6973,297.18,101.07,False,170.92,15.93,'1365',1551247220,0.0
'8964c1','ETD25G',144.8448,-37.7058,441.96,100.48,False,171.16,14.63,'1365',1551247229,0.045454545454545456
'8964c1','ETD25G',144.8483,-37.724,571.5,109.2,False,171.6,3.25,'1365',1551247249,0.09090909090909091
'8964c1','ETD25G',144.8503,-37.7348,617.22,115.62,False,172.84,5.53,'1365',1551247259,0.13636363636363635
'8964c1','ETD25G',144.8505,-37.7448,655.32,121.14,False,183.65,4.55,'1365',1551247269,0.18181818181818182
'8964c1','ETD25G',144.8473,-37.7564,716.28,126.5,False,200.72,5.53,'1365',1551247280,0.2272727272727273
'8964c1','ETD25G',144.8402,-37.7659,762,131.61,False,217.86,4.88,'1365',1551247289,0.2727272727272727
'8964c1','ETD25G',144.8279,-37.774,815.34,137.51,False,240.65,6.5,'1365',1551247299,0.3181818181818182
'8964c1','ETD25G',144.8135,-37.7778,891.54,140.06,False,259.85,9.75,'1365',1551247309,0.36363636363636365
'8964c1','ETD25G',144.7972,-37.7772,1005.84,141.17,False,282.42,12.35,'1365',1551247319,0.4090909090909091
'8964c1','ETD25G',144.7834,-37.7731,1120.14,141.82,False,294.43,13.66,'1365',1551247329,0.4545454545454546
'8964c1','ETD25G',144.7685,-37.7674,1264.92,141.49,False,296.57,14.96,'1365',1551247339,0.5
'8964c1','ETD25G',144.7405,-37.756,1531.62,140.82,False,297.41,14.31,'1365',1551247359,0.5454545454545454
'8964c1','ETD25G',144.7261,-37.75,1661.16,141.29,False,297.78,13,'1365',1551247369,0.5909090909090909
'8964c1','ETD25G',144.7116,-37.7441,1790.7,141.95,False,296.94,13,'1365',1551247379,0.6363636363636364
'8964c1','ETD25G',144.6975,-37.7385,1905,142.42,False,295.92,13,'1365',1551247389,0.6818181818181819
'8964c1','ETD25G',144.6833,-37.7331,2026.92,142.9,False,295.37,12.68,'1365',1551247398,0.7272727272727273
'8964c1','ETD25G',144.6673,-37.7271,2164.08,143.37,False,295.28,13,'1365',1551247409,0.7727272727272727
'8964c1','ETD25G',144.653,-37.7218,2278.38,143.83,False,295.19,12.68,'1365',1551247419,0.8181818181818182
'8964c1','ETD25G',144.6373,-37.716,2407.92,144.76,False,295.02,12.03,'1365',1551247430,0.8636363636363636
'8964c1','ETD25G',144.6087,-37.7054,2621.28,146.38,False,294.94,12.35,'1365',1551247449,0.9090909090909092
'8964c1','ETD25G',144.5933,-37.6997,2743.2,147.53,False,294.96,12.35,'1365',1551247459,0.9545454545454546
'8964c1','ETD25G',144.5767,-37.6935,2865.12,148.21,False,295.05,11.7,'1365',1551247470,1.0
'7c6c97','JST741',144.8394,-37.6788,251.46,75.68,False,172.97,12.03,'3721',1551247319,0.0
'7c6c97','JST741',144.8405,-37.6854,365.76,76.13,False,173.4,13.66,'3721',1551247329,0.1
'7c6c97','JST741',144.8415,-37.6927,464.82,78.8,False,172.87,6.18,'3721',1551247340,0.2
'7c6c97','JST741',144.8438,-37.7073,541.02,90.8,False,172.51,3.58,'3721',1551247359,0.30000000000000004
'7c6c97','JST741',144.8453,-37.716,586.74,98.22,False,171.87,5.2,'3721',1551247369,0.4
'7c6c97','JST741',144.847,-37.7252,640.08,105.13,False,171.28,5.2,'3721',1551247379,0.5
'7c6c97','JST741',144.8489,-37.7346,670.56,113.16,False,170.58,3.25,'3721',1551247389,0.6000000000000001
'7c6c97','JST741',144.8512,-37.7452,777.24,117.3,False,170.66,13.98,'3721',1551247399,0.7000000000000001
'7c6c97','JST741',144.8534,-37.7559,906.78,119.34,False,170.82,13.33,'3721',1551247409,0.8
'7c6c97','JST741',144.8553,-37.7657,1028.7,119.76,False,171.1,14.63,'3721',1551247418,0.9
'7c6c97','JST741',144.8575,-37.7774,1165.86,122.3,False,171.29,10.73,'3721',1551247429,1.0
'7c6c56','VOZ332',144.817,-37.557,655.32,76.54,False,171.11,-2.6,'1121',1551247358,0.0
'7c6c56','VOZ332',144.8186,-37.565,609.6,76.04,False,171.05,-4.23,'1121',1551247369,0.07692307692307693
'7c6c56','VOZ332',144.8197,-37.5712,571.5,74.35,False,171.65,-4.23,'1121',1551247379,0.15384615384615385
'7c6c56','VOZ332',144.821,-37.5779,533.4,73.92,False,171.19,-3.25,'1121',1551247389,0.23076923076923078
'7c6c56','VOZ332',144.8222,-37.5846,495.3,73.26,False,171.93,-3.25,'1121',1551247399,0.3076923076923077
'7c6c56','VOZ332',144.8234,-37.5912,457.2,72.83,False,171.47,-3.58,'1121',1551247409,0.38461538461538464
'7c6c56','VOZ332',144.8245,-37.5973,419.1,72.17,False,172.22,-4.23,'1121',1551247419,0.46153846153846156
'7c6c56','VOZ332',144.8258,-37.6042,381,72.68,False,172.27,-4.88,'1121',1551247430,0.5384615384615385
'7c6c56','VOZ332',144.8281,-37.6165,312.42,72.24,False,171.81,-4.88,'1121',1551247449,0.6153846153846154
'7c6c56','VOZ332',144.8293,-37.6231,274.32,71.73,False,171.75,-3.9,'1121',1551247459,0.6923076923076923
'7c6c56','VOZ332',144.8297,-37.625,259.08,72.75,False,171.87,-3.9,'1121',1551247462,0.7692307692307693
'7c6c56','VOZ332',144.8317,-37.6358,205.74,73.34,False,171.53,-5.2,'1121',1551247479,0.8461538461538463
'7c6c56','VOZ332',144.8329,-37.6425,167.64,72.91,False,171.07,-3.9,'1121',1551247489,0.9230769230769231
'7c6c56','VOZ332',144.8338,-37.6471,137.16,72.91,False,171.07,-3.9,'1121',1551247496,1.0
'7c7aa3','VOZ863',144.8415,-37.6886,190.5,82,False,172.43,16.26,'4015',1551247419,0.0
'7c7aa3','VOZ863',144.8427,-37.6963,327.66,81.87,False,173.14,13.66,'4015',1551247430,0.03333333333333333
'7c7aa3','VOZ863',144.8451,-37.7106,533.4,85.34,False,171.33,7.15,'4015',1551247449,0.06666666666666667
'7c7aa3','VOZ863',144.8468,-37.719,594.36,93.88,False,170.54,4.55,'4015',1551247459,0.1
'7c7aa3','VOZ863',144.8487,-37.7281,655.32,100.91,False,171.5,5.53,'4015',1551247469,0.13333333333333333
'7c7aa3','VOZ863',144.8487,-37.7375,701.04,108.31,False,184.09,3.58,'4015',1551247479,0.16666666666666666
'7c7aa3','VOZ863',144.8449,-37.7472,822.96,113.15,False,203.3,12.35,'4015',1551247490,0.2
'7c7aa3','VOZ863',144.8381,-37.7555,960.12,113.39,False,217.44,16.58,'4015',1551247499,0.23333333333333334
'7c7aa3','VOZ863',144.8281,-37.7624,1135.38,111.96,False,233.97,15.61,'4015',1551247509,0.26666666666666666
'7c7aa3','VOZ863',144.8166,-37.7669,1219.2,116.19,False,247.07,6.83,'4015',1551247519,0.3
'7c7aa3','VOZ863',144.8034,-37.7688,1280.16,123.89,False,265.24,6.83,'4015',1551247529,0.3333333333333333
'7c7aa3','VOZ863',144.7755,-37.7625,1470.66,134.36,False,293.23,13.33,'4015',1551247549,0.36666666666666664
'7c7aa3','VOZ863',144.7602,-37.7577,1630.68,135.08,False,291.68,16.91,'4015',1551247559,0.4
'7c7aa3','VOZ863',144.7472,-37.7519,1775.46,135.98,False,303.27,17.56,'4015',1551247569,0.43333333333333335
'7c7aa3','VOZ863',144.7368,-37.7431,1927.86,136.58,False,321.58,18.86,'4015',1551247579,0.4666666666666667
'7c7aa3','VOZ863',144.7296,-37.7318,2087.88,138.04,False,338.12,18.21,'4015',1551247589,0.5
'7c7aa3','VOZ863',144.7269,-37.7187,2247.9,140.2,False,356.42,17.56,'4015',1551247600,0.5333333333333333
'7c7aa3','VOZ863',144.7288,-37.7066,2385.06,142.76,False,11.43,17.23,'4015',1551247609,0.5666666666666667
'7c7aa3','VOZ863',144.7346,-37.6943,2545.08,145.12,False,22.29,16.26,'4015',1551247619,0.6
'7c7aa3','VOZ863',144.7407,-37.6826,2689.86,146.93,False,23.96,14.63,'4015',1551247629,0.6333333333333333
'7c7aa3','VOZ863',144.7502,-37.6702,2811.78,149.93,False,35.93,15.93,'4015',1551247640,0.6666666666666666
'7c7aa3','VOZ863',144.7759,-37.6511,3093.72,156.8,False,52.87,7.48,'4015',1551247660,0.7
'7c7aa3','VOZ863',144.7893,-37.6431,3139.44,163.39,False,52.81,5.85,'4015',1551247669,0.7333333333333333
'7c7aa3','VOZ863',144.8052,-37.6333,3192.78,170.29,False,52.61,5.85,'4015',1551247680,0.7666666666666666
'7c7aa3','VOZ863',144.8204,-37.6241,3246.12,177.6,False,52.53,4.88,'4015',1551247689,0.8
'7c7aa3','VOZ863',144.8367,-37.6142,3291.84,184.28,False,52.71,5.53,'4015',1551247699,0.8333333333333334
'7c7aa3','VOZ863',144.8542,-37.6035,3345.18,191.18,False,52.54,5.53,'4015',1551247710,0.8666666666666667
'7c7aa3','VOZ863',144.8712,-37.5931,3436.62,194.38,False,52.31,12.03,'4015',1551247719,0.9
'7c7aa3','VOZ863',144.8886,-37.5825,3573.78,195.51,False,52.38,16.91,'4015',1551247729,0.9333333333333333
'7c7aa3','VOZ863',144.906,-37.5717,3733.8,196.23,False,52.35,12.68,'4015',1551247739,0.9666666666666667
'7c7aa3','VOZ863',144.9413,-37.5499,3985.26,199.75,False,52.01,10.73,'4015',1551247759,1.0
'7c7a3b','VOZ865',144.8421,-37.6915,243.84,81.2,False,171.25,13.66,'3265',1551247499,0.0
'7c7a3b','VOZ865',144.8434,-37.6991,396.24,81.42,False,172.74,13.33,'3265',1551247510,0.037037037037037035
'7c7a3b','VOZ865',144.8446,-37.7063,480.06,85.5,False,173.09,6.18,'3265',1551247519,0.07407407407407407
'7c7a3b','VOZ865',144.8458,-37.7141,525.78,91.82,False,172.6,5.85,'3265',1551247529,0.1111111111111111
'7c7a3b','VOZ865',144.8478,-37.7318,617.22,107.01,False,180.55,9.43,'3265',1551247549,0.14814814814814814
'7c7a3b','VOZ865',144.8456,-37.7424,708.66,111.92,False,194.1,10.08,'3265',1551247559,0.18518518518518517
'7c7a3b','VOZ865',144.8407,-37.7514,822.96,113.48,False,208.42,12.68,'3265',1551247569,0.2222222222222222
'7c7a3b','VOZ865',144.8319,-37.7594,952.5,114.37,False,227.92,13.98,'3265',1551247579,0.25925925925925924
'7c7a3b','VOZ865',144.8212,-37.7648,1043.94,116.45,False,242.08,5.85,'3265',1551247589,0.2962962962962963
'7c7a3b','VOZ865',144.8073,-37.7676,1104.9,123.17,False,263.77,4.23,'3265',1551247600,0.3333333333333333
'7c7a3b','VOZ865',144.793,-37.7665,1150.62,130.64,False,283.43,1.63,'3265',1551247609,0.37037037037037035
'7c7a3b','VOZ865',144.7785,-37.7619,1249.68,133.88,False,293.31,11.05,'3265',1551247620,0.4074074074074074
'7c7a3b','VOZ865',144.7658,-37.7579,1356.36,135.6,False,290.43,13.33,'3265',1551247629,0.4444444444444444
'7c7a3b','VOZ865',144.7501,-37.7525,1485.9,137.01,False,298.97,7.48,'3265',1551247640,0.48148148148148145
'7c7a3b','VOZ865',144.7309,-37.7334,1737.36,140.25,False,335.97,11.05,'3265',1551247659,0.5185185185185185
'7c7a3b','VOZ865',144.7274,-37.7214,1866.9,141.66,False,352.49,10.08,'3265',1551247669,0.5555555555555556
'7c7a3b','VOZ865',144.7285,-37.7081,2011.68,143.02,False,9.73,13.66,'3265',1551247680,0.5925925925925926
'7c7a3b','VOZ865',144.7335,-37.6966,2118.36,145.4,False,22.03,13.98,'3265',1551247689,0.6296296296296295
'7c7a3b','VOZ865',144.7397,-37.6846,2301.24,144.44,False,22.18,17.23,'3265',1551247699,0.6666666666666666
'7c7a3b','VOZ865',144.7463,-37.672,2446.02,145.59,False,22.21,13.33,'3265',1551247709,0.7037037037037037
'7c7a3b','VOZ865',144.7521,-37.6602,2583.18,145.97,False,21.5,15.93,'3265',1551247719,0.7407407407407407
'7c7a3b','VOZ865',144.7585,-37.6471,2743.2,146.56,False,20.98,14.63,'3265',1551247730,0.7777777777777777
'7c7a3b','VOZ865',144.7642,-37.6352,2880.36,148,False,20.77,14.31,'3265',1551247739,0.8148148148148148
'7c7a3b','VOZ865',144.776,-37.6103,3154.68,151.73,False,20.65,11.05,'3265',1551247759,0.8518518518518519
'7c7a3b','VOZ865',144.7823,-37.597,3208.02,158.23,False,20.56,3.58,'3265',1551247769,0.8888888888888888
'7c7a3b','VOZ865',144.7892,-37.5831,3261.36,165.18,False,22.33,4.88,'3265',1551247779,0.9259259259259258
'7c7a3b','VOZ865',144.7978,-37.569,3314.7,173.26,False,27.4,4.23,'3265',1551247790,0.9629629629629629
'7c7a3b','VOZ865',144.8076,-37.5556,3360.42,180.72,False,31.97,3.9,'3265',1551247799,1.0
'7c6dda','QFA447',144.8458,-37.5529,754.38,103.69,False,246.61,-5.85,'4337',1551247559,0.0
'7c6dda','QFA447',144.8357,-37.5564,716.28,99.25,False,245.83,-4.55,'4337',1551247568,0.07692307692307693
'7c6dda','QFA447',144.8263,-37.5611,662.94,95.28,False,233.56,-5.2,'4337',1551247579,0.15384615384615385
'7c6dda','QFA447',144.8211,-37.5681,601.98,89.42,False,201.25,-5.53,'4337',1551247589,0.23076923076923078
'7c6dda','QFA447',144.8207,-37.5762,556.26,85.75,False,174.84,-5.53,'4337',1551247599,0.3076923076923077
'7c6dda','QFA447',144.8221,-37.5833,518.16,81.2,False,171.25,-4.55,'4337',1551247609,0.38461538461538464
'7c6dda','QFA447',144.8233,-37.5904,464.82,78.8,False,172.87,-5.2,'4337',1551247619,0.46153846153846156
'7c6dda','QFA447',144.8244,-37.5973,419.1,77.78,False,172.78,-4.88,'4337',1551247629,0.5384615384615385
'7c6dda','QFA447',144.8257,-37.604,381,76.54,False,171.11,-4.23,'4337',1551247638,0.6153846153846154
'7c6dda','QFA447',144.8284,-37.6182,297.18,76.04,False,171.05,-3.9,'4337',1551247659,0.6923076923076923
'7c6dda','QFA447',144.8295,-37.6242,266.7,76.39,False,171.87,-3.9,'4337',1551247668,0.7692307692307693
'7c6dda','QFA447',144.831,-37.6319,220.98,77.41,False,171.98,-4.55,'4337',1551247679,0.8461538461538463
'7c6dda','QFA447',144.8322,-37.6387,182.88,77.48,False,171.6,-4.55,'4337',1551247689,0.9230769230769231
'7c6dda','QFA447',144.8332,-37.6439,137.16,76.47,False,171.49,-3.25,'4337',1551247697,1.0
'7c77f7','',144.8415,-37.6885,205.74,77.56,False,171.22,12.35,'4321',1551247619,0.0
'7c77f7','QFA452',144.8426,-37.6947,312.42,80.03,False,171.87,10.4,'4321',1551247628,0.038461538461538464
'7c77f7','QFA452',144.844,-37.7027,411.48,82.65,False,171.77,11.38,'4321',1551247639,0.07692307692307693
'7c77f7','QFA452',144.8473,-37.7187,571.5,95.91,False,170.74,6.5,'4321',1551247659,0.11538461538461539
'7c77f7','QFA452',144.849,-37.7273,632.46,104.98,False,171.83,6.5,'4321',1551247669,0.15384615384615385
'7c77f7','QFA452',144.8485,-37.7378,731.52,112.15,False,189.51,9.75,'4321',1551247680,0.19230769230769232
'7c77f7','QFA452',144.8434,-37.7467,861.06,115.18,False,209.43,14.63,'4321',1551247689,0.23076923076923078
'7c77f7','QFA452',144.8342,-37.7541,1028.7,115.55,False,232.42,18.53,'4321',1551247699,0.2692307692307693
'7c77f7','QFA452',144.822,-37.7585,1211.58,114.42,False,253.28,19.18,'4321',1551247710,0.3076923076923077
'7c77f7','QFA452',144.8097,-37.759,1394.46,113.41,False,273.64,19.18,'4321',1551247719,0.34615384615384615
'7c77f7','QFA452',144.7968,-37.757,1554.48,115.45,False,282.61,15.93,'4321',1551247729,0.38461538461538464
'7c77f7','QFA452',144.7842,-37.755,1668.78,121.67,False,281.21,9.1,'4321',1551247739,0.42307692307692313
'7c77f7','QFA452',144.7563,-37.7468,1882.14,132.89,False,302.03,17.23,'4321',1551247759,0.46153846153846156
'7c77f7','QFA452',144.7447,-37.7381,2065.02,134.34,False,317.33,19.51,'4321',1551247770,0.5
'7c77f7','QFA452',144.7371,-37.7284,2232.66,136,False,332.27,19.51,'4321',1551247779,0.5384615384615385
'7c77f7','QFA452',144.7324,-37.7158,2415.54,138.12,False,348.4,17.88,'4321',1551247790,0.576923076923077
'7c77f7','QFA452',144.732,-37.7037,2567.94,141.33,False,4.17,18.21,'4321',1551247799,0.6153846153846154
'7c77f7','QFA452',144.7362,-37.6906,2743.2,144.31,False,17.85,16.91,'4321',1551247810,0.6538461538461539
'7c77f7','QFA452',144.7422,-37.6788,2887.98,147.31,False,21.73,14.31,'4321',1551247819,0.6923076923076923
'7c77f7','QFA452',144.7482,-37.6663,3048,148.85,False,21.07,18.53,'4321',1551247830,0.7307692307692308
'7c77f7','QFA452',144.7602,-37.6414,3284.22,157.64,False,21.04,5.2,'4321',1551247849,0.7692307692307693
'7c77f7','QFA452',144.7671,-37.6271,3337.56,166.43,False,21.01,5.85,'4321',1551247859,0.8076923076923077
'7c77f7','QFA452',144.774,-37.6129,3398.52,174.26,False,21.11,7.8,'4321',1551247869,0.8461538461538463
'7c77f7','QFA452',144.7814,-37.5979,3573.78,175.3,False,21.52,21.46,'4321',1551247879,0.8846153846153847
'7c77f7','QFA452',144.7888,-37.5835,3764.28,175.03,False,22.65,19.18,'4321',1551247889,0.9230769230769231
'7c77f7','QFA452',144.7981,-37.5684,3924.3,179.03,False,27.74,16.58,'4321',1551247900,0.9615384615384616
'7c77f7','QFA452',144.8077,-37.5554,4061.46,180.34,False,31.47,13.98,'4321',1551247909,1.0
'7c6d7e','JST531',144.8294,-37.551,731.52,86.29,False,219.19,-4.55,'3614',1551247689,0.0
'7c6d7e','JST531',144.8242,-37.5572,685.8,84.1,False,209.7,-6.83,'3614',1551247699,0.07692307692307693
'7c6d7e','JST531',144.8215,-37.5637,624.84,81.72,False,190.89,-6.5,'3614',1551247708,0.15384615384615385
'7c6d7e','JST531',144.821,-37.5713,571.5,79.23,False,180.74,-5.2,'3614',1551247719,0.23076923076923078
'7c6d7e','JST531',144.8212,-37.5781,525.78,77.85,False,176.21,-4.23,'3614',1551247729,0.3076923076923077
'7c6d7e','JST531',144.8224,-37.5854,487.68,77.92,False,172.03,-3.9,'3614',1551247739,0.38461538461538464
'7c6d7e','JST531',144.8247,-37.5986,403.86,73.26,False,171.93,-3.58,'3614',1551247759,0.46153846153846156
'7c6d7e','JST531',144.8256,-37.6037,381,73.41,False,171.13,-2.93,'3614',1551247767,0.5384615384615385
'7c6d7e','JST531',144.8272,-37.612,342.9,73.77,False,171.98,-3.58,'3614',1551247779,0.6153846153846154
'7c6d7e','JST531',144.8283,-37.6178,304.8,74.35,False,171.65,-4.55,'3614',1551247788,0.6923076923076923
'7c6d7e','JST531',144.8297,-37.625,259.08,72.24,False,171.81,-5.2,'3614',1551247799,0.7692307692307693
'7c6d7e','JST531',144.8308,-37.6311,228.6,72.75,False,171.87,-3.58,'3614',1551247809,0.8461538461538463
'7c6d7e','JST531',144.832,-37.6379,190.5,72.32,False,171.41,-3.58,'3614',1551247819,0.9230769230769231
'7c6d7e','JST531',144.8329,-37.6428,114.3,72.75,False,171.87,-3.25,'3614',1551247827,1.0
'7c6d27','VOZ341',144.8425,-37.6945,274.32,85.27,False,171.67,15.61,'1465',1551247709,0.0
'7c6d27','VOZ341',144.8439,-37.7021,396.24,86.72,False,172.16,12.68,'1465',1551247718,0.04
'7c6d27','VOZ341',144.8454,-37.7106,525.78,89.41,False,171.73,7.48,'1465',1551247729,0.08
'7c6d27','VOZ341',144.8469,-37.7185,579.12,97.78,False,171.53,5.53,'1465',1551247739,0.12
'7c6d27','VOZ341',144.8483,-37.7373,708.66,113.16,False,189.42,6.18,'1465',1551247759,0.16
'7c6d27','VOZ341',144.8437,-37.7472,815.34,118.12,False,208.91,12.35,'1465',1551247769,0.2
'7c6d27','VOZ341',144.8349,-37.7556,960.12,118.32,False,227.29,21.46,'1465',1551247779,0.24
'7c6d27','VOZ341',144.8231,-37.7613,1104.9,120.45,False,246.06,11.38,'1465',1551247790,0.28
'7c6d27','VOZ341',144.8104,-37.7635,1203.96,125.19,False,266.94,9.75,'1465',1551247799,0.32
'7c6d27','VOZ341',144.7956,-37.7617,1303.02,130.53,False,286.72,11.38,'1465',1551247809,0.36
'7c6d27','VOZ341',144.7815,-37.7585,1432.56,132.57,False,285.76,15.61,'1465',1551247819,0.4
'7c6d27','VOZ341',144.766,-37.7548,1592.58,134.7,False,288.02,16.58,'1465',1551247830,0.44
'7c6d27','VOZ341',144.7421,-37.7419,1889.76,137.28,False,317.58,15.93,'1465',1551247849,0.48
'7c6d27','VOZ341',144.7338,-37.7314,2049.78,139.21,False,334.38,17.56,'1465',1551247859,0.52
'7c6d27','VOZ341',144.7296,-37.7191,2217.42,141.08,False,352.67,16.58,'1465',1551247869,0.56
'7c6d27','VOZ341',144.7301,-37.7061,2377.44,143.35,False,9.29,16.26,'1465',1551247879,0.6
'7c6d27','VOZ341',144.7348,-37.6943,2537.46,144.92,False,22.1,17.88,'1465',1551247889,0.64
'7c6d27','VOZ341',144.7409,-37.6823,2697.48,145.97,False,21.5,14.63,'1465',1551247899,0.68
'7c6d27','VOZ341',144.747,-37.6698,2842.26,148,False,20.77,16.91,'1465',1551247909,0.72
'7c6d27','VOZ341',144.7534,-37.6564,3017.52,148.66,False,20.88,16.26,'1465',1551247919,0.76
'7c6d27','VOZ341',144.7591,-37.6446,3147.06,150.95,False,20.97,11.38,'1465',1551247929,0.8
'7c6d27','VOZ341',144.7655,-37.6311,3200.4,159.08,False,20.84,3.9,'1465',1551247939,0.84
'7c6d27','VOZ341',144.7793,-37.6025,3314.7,173.78,False,21.17,5.53,'1465',1551247959,0.88
'7c6d27','VOZ341',144.7863,-37.5885,3421.38,177.69,False,22.11,10.4,'1465',1551247969,0.92
'7c6d27','VOZ341',144.7947,-37.574,3543.3,180.38,False,27.15,18.53,'1465',1551247979,0.96
'7c6d27','VOZ341',144.8048,-37.5597,3733.8,179.72,False,30.82,16.26,'1465',1551247989,1.0
'7c1a55','FHJ',144.9606,-37.788,777.24,91.1,False,15.06,-8.13,'0577',1551247769,0.0
'7c1a55','FHJ',144.9633,-37.7804,716.28,92,False,15.9,-2.28,'0577',1551247779,0.06666666666666667
'7c1a55','FHJ',144.9661,-37.7724,746.76,83.53,False,16.09,2.93,'0577',1551247789,0.13333333333333333
'7c1a55','FHJ',144.9684,-37.7659,769.62,76.12,False,14.88,0,'0577',1551247799,0.2
'7c1a55','FHJ',144.9705,-37.7592,777.24,71.26,False,12.93,0.98,'0577',1551247809,0.26666666666666666
'7c1a55','FHJ',144.9716,-37.7531,746.76,67.63,False,4.8,-4.88,'0577',1551247819,0.3333333333333333
'7c1a55','FHJ',144.9719,-37.7471,701.04,65.33,False,0,-4.88,'0577',1551247829,0.4
'7c1a55','FHJ',144.9711,-37.7359,601.98,63.23,False,352.99,-5.53,'0577',1551247849,0.4666666666666667
'7c1a55','FHJ',144.9685,-37.7311,533.4,65.49,False,313.73,-10.73,'0577',1551247858,0.5333333333333333
'7c1a55','FHJ',144.9613,-37.7287,426.72,66.88,False,270,-8.45,'0577',1551247869,0.6
'7c1a55','FHJ',144.953,-37.7293,335.28,68.25,False,260.89,-8.78,'0577',1551247879,0.6666666666666666
'7c1a55','FHJ',144.9457,-37.7301,259.08,67.55,False,266.07,-7.8,'0577',1551247889,0.7333333333333333
'7c1a55','FHJ',144.9389,-37.7302,190.5,66.36,False,270,-6.5,'0577',1551247898,0.8
'7c1a55','FHJ',144.9313,-37.7303,121.92,62.32,False,267.16,-4.88,'0577',1551247908,0.8666666666666667
'7c1a55','FHJ',144.9237,-37.7305,76.2,57.14,False,267.94,-3.25,'0577',1551247919,0.9333333333333333
'7c1a55','FHJ',144.9215,-37.7306,60.96,55.57,False,268.94,-5.2,'0577',1551247923,1.0
'7c7cc2','HM1',144.9406,-37.7842,243.84,61.82,False,341.57,1.95,'0041',1551247810,0.0
'7c7cc2','HM1',144.9386,-37.7791,259.08,63.96,False,343.17,0.98,'0041',1551247819,0.058823529411764705
'7c7cc2','HM1',144.9364,-37.7732,274.32,65.93,False,343.69,0.65,'0041',1551247830,0.11764705882352941
'7c7cc2','HM1',144.9336,-37.7619,289.56,68.03,False,352.18,0.33,'0041',1551247849,0.1764705882352941
'7c7cc2','HM1',144.9326,-37.7555,289.56,68.98,False,352.72,0.33,'0041',1551247859,0.23529411764705882
'7c7cc2','HM1',144.9316,-37.7497,289.56,69.55,False,352.35,0.33,'0041',1551247869,0.29411764705882354
'7c7cc2','HM1',144.9301,-37.7431,289.56,68.03,False,337.31,-0.98,'0041',1551247879,0.3529411764705882
'7c7cc2','HM1',144.9252,-37.7394,266.7,64.58,False,292.48,-2.93,'0041',1551247889,0.4117647058823529
'7c7cc2','HM1',144.9183,-37.7384,259.08,62.04,False,275.71,0.33,'0041',1551247898,0.47058823529411764
'7c7cc2','HM1',144.9115,-37.7367,259.08,60.7,False,301.13,0.65,'0041',1551247909,0.5294117647058824
'7c7cc2','HM1',144.9079,-37.7323,266.7,59.08,False,343.3,-1.63,'0041',1551247919,0.5882352941176471
'7c7cc2','HM1',144.9069,-37.7269,228.6,57.19,False,356.91,-3.58,'0041',1551247929,0.6470588235294118
'7c7cc2','HM1',144.9072,-37.7221,190.5,49.71,False,6.54,-2.93,'0041',1551247939,0.7058823529411764
'7c7cc2','HM1',144.9057,-37.7154,152.4,31.09,False,308.96,-2.93,'0041',1551247959,0.7647058823529411
'7c7cc2','HM1',144.9039,-37.715,129.54,26.56,False,261.09,-2.28,'0041',1551247965,0.8235294117647058
'7c7cc2','HM1',144.9008,-37.7166,99.06,21.98,False,212.57,-3.25,'0041',1551247979,0.8823529411764706
'7c7cc2','HM1',144.9007,-37.7194,60.96,13.38,False,180,-0.98,'0041',1551247996,0.9411764705882353
'7c7cc2','HM1',144.9008,-37.7203,53.34,13.38,False,180,-0.98,'0041',1551248005,1.0
'7c6d31','VOZ742',144.8168,-37.5557,655.32,88.47,False,171.3,-4.88,'1131',1551247819,0.0
'7c6d31','VOZ742',144.8184,-37.5645,609.6,84.33,False,171.23,-4.88,'1131',1551247830,0.08333333333333333
'7c6d31','VOZ742',144.8209,-37.5775,533.4,73.92,False,171.19,-5.2,'1131',1551247849,0.16666666666666666
'7c6d31','VOZ742',144.8221,-37.5845,495.3,72.62,False,172.67,-3.9,'1131',1551247859,0.25
'7c6d31','VOZ742',144.8233,-37.5909,457.2,71.3,False,171.29,-3.9,'1131',1551247869,0.3333333333333333
'7c6d31','VOZ742',144.8245,-37.5974,419.1,70.64,False,172.05,-3.25,'1131',1551247880,0.41666666666666663
'7c6d31','VOZ742',144.8256,-37.6033,388.62,70.96,False,170.4,-3.9,'1131',1551247889,0.5
'7c6d31','VOZ742',144.8267,-37.6092,358.14,70.64,False,172.05,-3.58,'1131',1551247898,0.5833333333333333
'7c6d31','VOZ742',144.828,-37.616,312.42,70.72,False,171.63,-4.23,'1131',1551247909,0.6666666666666666
'7c6d31','VOZ742',144.8292,-37.6225,281.94,69.7,False,171.51,-3.25,'1131',1551247919,0.75
'7c6d31','VOZ742',144.83,-37.627,251.46,69.63,False,171.93,-2.93,'1131',1551247927,0.8333333333333333
'7c6d31','VOZ742',144.8315,-37.6347,213.36,68.76,False,170.96,-2.93,'1131',1551247939,0.9166666666666666
'7c6d31','VOZ742',144.8331,-37.6433,160.02,69.19,False,171.45,-3.9,'1131',1551247953,1.0
'7c7a38','',144.8426,-37.6945,320.04,79.59,False,171.45,15.28,'7203',1551247830,0.0
'7c7a38','VOZ867',144.8452,-37.708,556.26,80.77,False,170.84,11.38,'7203',1551247849,0.038461538461538464
'7c7a38','VOZ867',144.8467,-37.7158,678.18,82.29,False,171.01,10.08,'7203',1551247860,0.07692307692307693
'7c7a38','VOZ867',144.8481,-37.723,739.14,86.95,False,171.15,5.53,'7203',1551247869,0.11538461538461539
'7c7a38','VOZ867',144.8493,-37.7313,784.86,96.24,False,178.47,4.88,'7203',1551247879,0.15384615384615385
'7c7a38','VOZ867',144.8472,-37.7405,853.44,102.89,False,196.26,5.53,'7203',1551247889,0.19230769230769232
'7c7a38','VOZ867',144.8407,-37.749,922.02,110.07,False,219.12,9.75,'7203',1551247900,0.23076923076923078
'7c7a38','VOZ867',144.8313,-37.7547,1051.56,109.88,False,240.55,17.88,'7203',1551247909,0.2692307692307693
'7c7a38','VOZ867',144.8187,-37.758,1181.1,112.39,False,258.38,7.8,'7203',1551247920,0.3076923076923077
'7c7a38','VOZ867',144.8061,-37.7577,1234.44,118.11,False,276.75,6.18,'7203',1551247929,0.34615384615384615
'7c7a38','VOZ867',144.7923,-37.7554,1295.4,126.52,False,281.49,4.23,'7203',1551247939,0.38461538461538464
'7c7a38','VOZ867',144.7633,-37.7504,1478.28,135.03,False,288.43,14.31,'7203',1551247959,0.42307692307692313
'7c7a38','VOZ867',144.7504,-37.7445,1615.44,135.63,False,305.74,18.21,'7203',1551247969,0.46153846153846156
'7c7a38','VOZ867',144.7402,-37.7359,1752.6,137.26,False,323.69,17.56,'7203',1551247978,0.5
'7c7a38','VOZ867',144.7329,-37.7244,1905,138.94,False,340.76,19.51,'7203',1551247989,0.5384615384615385
'7c7a38','VOZ867',144.7303,-37.7128,2049.78,140.78,False,356.02,19.18,'7203',1551247998,0.576923076923077
'7c7a38','VOZ867',144.7325,-37.6988,2209.8,143.02,False,12.89,19.18,'7203',1551248009,0.6153846153846154
'7c7a38','VOZ867',144.738,-37.6872,2362.2,144.06,False,21.8,16.91,'7203',1551248019,0.6538461538461539
'7c7a38','VOZ867',144.7444,-37.6739,2522.22,145.89,False,20.86,14.96,'7203',1551248030,0.6923076923076923
'7c7a38','VOZ867',144.7501,-37.662,2667,147.22,False,21.1,15.61,'7203',1551248039,0.7307692307692308
'7c7a38','VOZ867',144.7621,-37.6376,2971.8,149.33,False,20.99,17.56,'7203',1551248059,0.7692307692307693
'7c7a38','VOZ867',144.7683,-37.6245,3139.44,151.14,False,21.15,15.28,'7203',1551248069,0.8076923076923077
'7c7a38','VOZ867',144.7745,-37.6119,3230.88,156.68,False,21.17,5.53,'7203',1551248079,0.8461538461538463
'7c7a38','VOZ867',144.7816,-37.5974,3284.22,165.18,False,21.37,5.85,'7203',1551248090,0.8846153846153847
'7c7a38','VOZ867',144.7882,-37.5844,3368.04,170.36,False,22.93,12.03,'7203',1551248099,0.9230769230769231
'7c7a38','VOZ867',144.7973,-37.5694,3482.34,175.34,False,27.62,15.93,'7203',1551248110,0.9615384615384616
'7c7a38','VOZ867',144.8069,-37.5565,3665.22,174.45,False,31.86,21.78,'7203',1551248119,1.0
'a12f7a','N176AC',144.9874,-37.5504,365.76,45.4,False,199.87,0.98,'0100',1551247868,0.0
'a12f7a','N176AC',144.9866,-37.552,373.38,46.06,False,200.26,0.33,'0100',1551247872,0.02857142857142857
'a12f7a','N176AC',144.9842,-37.5575,381,46.06,False,200.26,0.33,'0100',1551247886,0.05714285714285714
'a12f7a','N176AC',144.9804,-37.5666,373.38,48.97,False,199.01,-0.98,'0100',1551247908,0.08571428571428572
'a12f7a','N176AC',144.9784,-37.5711,373.38,47.51,False,199.61,-0.33,'0100',1551247919,0.11428571428571428
'a12f7a','N176AC',144.9765,-37.575,373.38,46.62,False,202.04,0,'0100',1551247929,0.14285714285714285
'a12f7a','N176AC',144.9753,-37.5773,365.76,46.62,False,202.04,0,'0100',1551247935,0.17142857142857143
'a12f7a','N176AC',144.9736,-37.581,358.14,49.49,False,200.7,-1.3,'0100',1551247944,0.19999999999999998
'a12f7a','N176AC',144.9691,-37.59,381,49.49,False,200.7,-1.3,'0100',1551247966,0.22857142857142856
'a12f7a','N176AC',144.9668,-37.5946,381,50.64,False,200.83,-0.65,'0100',1551247977,0.2571428571428571
'a12f7a','N176AC',144.9648,-37.5987,373.38,50.64,False,200.83,-1.3,'0100',1551247987,0.2857142857142857
'a12f7a','N176AC',144.9622,-37.604,365.76,52.16,False,202.01,-0.33,'0100',1551247999,0.3142857142857143
'a12f7a','N176AC',144.961,-37.6062,365.76,52.35,False,202.53,-1.63,'0100',1551248004,0.34285714285714286
'a12f7a','N176AC',144.9507,-37.6305,373.38,52.23,False,197.19,-0.98,'0100',1551248058,0.37142857142857144
'a12f7a','N176AC',144.9486,-37.6356,365.76,53.86,False,197.22,-0.65,'0100',1551248070,0.39999999999999997
'a12f7a','N176AC',144.9474,-37.6388,358.14,53.42,False,195.64,-1.63,'0100',1551248077,0.42857142857142855
'a12f7a','N176AC',144.9453,-37.6447,342.9,51.3,False,195.71,1.3,'0100',1551248090,0.45714285714285713
'a12f7a','N176AC',144.9439,-37.6485,373.38,48.64,False,197.86,0.98,'0100',1551248099,0.4857142857142857
'a12f7a','N176AC',144.9418,-37.6531,365.76,52.08,False,200.22,-0.98,'0100',1551248109,0.5142857142857142
'a12f7a','N176AC',144.9397,-37.6572,365.76,52.29,False,203.79,1.3,'0100',1551248119,0.5428571428571428
'a12f7a','N176AC',144.9374,-37.6611,365.76,50.85,False,205.79,0.33,'0100',1551248128,0.5714285714285714
'a12f7a','N176AC',144.9346,-37.6656,358.14,51.31,False,206.82,-1.3,'0100',1551248139,0.6
'a12f7a','N176AC',144.9297,-37.6734,335.28,54.08,False,205.35,-0.33,'0100',1551248157,0.6285714285714286
'a12f7a','N176AC',144.927,-37.678,327.66,52.71,False,204.81,-0.65,'0100',1551248168,0.6571428571428571
'a12f7a','N176AC',144.9241,-37.6829,320.04,53.39,False,205.08,-1.63,'0100',1551248179,0.6857142857142857
'a12f7a','N176AC',144.9216,-37.6872,304.8,54.53,False,206.32,-1.63,'0100',1551248189,0.7142857142857143
'a12f7a','N176AC',144.9188,-37.6918,297.18,53.5,False,202.62,-1.63,'0100',1551248199,0.7428571428571429
'a12f7a','N176AC',144.917,-37.6958,281.94,52.45,False,201.28,-0.98,'0100',1551248208,0.7714285714285714
'a12f7a','N176AC',144.9144,-37.7003,274.32,50.61,False,206.57,-0.33,'0100',1551248219,0.7999999999999999
'a12f7a','N176AC',144.9118,-37.7044,266.7,51.78,False,207.84,-1.3,'0100',1551248229,0.8285714285714285
'a12f7a','N176AC',144.9093,-37.7082,243.84,51.12,False,208.89,-1.63,'0100',1551248238,0.8571428571428571
'a12f7a','N176AC',144.9049,-37.717,205.74,47.21,False,196.46,-1.63,'0100',1551248259,0.8857142857142857
'a12f7a','N176AC',144.9035,-37.7209,190.5,44.31,False,195.49,-0.98,'0100',1551248269,0.9142857142857143
'a12f7a','N176AC',144.9022,-37.7243,175.26,40.07,False,195.64,-2.93,'0100',1551248279,0.9428571428571428
'a12f7a','N176AC',144.9015,-37.727,160.02,38.81,False,194.59,-2.28,'0100',1551248287,0.9714285714285714
'a12f7a','N176AC',144.9008,-37.729,83.82,2.3,False,296.57,-0.98,'0100',1551248297,1.0
'7c7a46','VOZ854',144.8159,-37.5515,685.8,97.27,False,171.48,-5.2,'4053',1551247969,0.0
'7c7a46','VOZ854',144.8175,-37.5598,632.46,94.14,False,171.52,-4.55,'4053',1551247979,0.07692307692307693
'7c7a46','VOZ854',144.819,-37.5682,586.74,89.92,False,171.78,-4.88,'4053',1551247989,0.15384615384615385
'7c7a46','VOZ854',144.8205,-37.5755,548.64,86.44,False,171.1,-4.88,'4053',1551247999,0.23076923076923078
'7c7a46','VOZ854',144.822,-37.5836,502.92,81.63,False,171.67,-4.23,'4053',1551248009,0.3076923076923077
'7c7a46','VOZ854',144.8232,-37.5904,457.2,77.41,False,171.98,-4.55,'4053',1551248019,0.38461538461538464
'7c7a46','VOZ854',144.8245,-37.5971,419.1,76.54,False,171.11,-3.9,'4053',1551248029,0.46153846153846156
'7c7a46','VOZ854',144.8258,-37.6039,381,74.43,False,171.25,-4.55,'4053',1551248039,0.5384615384615385
'7c7a46','VOZ854',144.8281,-37.6163,312.42,73.85,False,171.59,-3.25,'4053',1551248058,0.6153846153846154
'7c7a46','VOZ854',144.8294,-37.6237,274.32,73.92,False,171.19,-4.55,'4053',1551248069,0.6923076923076923
'7c7a46','VOZ854',144.8301,-37.6276,236.22,73.41,False,171.13,-3.58,'4053',1551248075,0.7692307692307693
'7c7a46','VOZ854',144.8319,-37.6366,198.12,71.89,False,170.94,-3.9,'4053',1551248090,0.8461538461538463
'7c7a46','VOZ854',144.8329,-37.6426,167.64,72.24,False,171.81,-3.58,'4053',1551248099,0.9230769230769231
'7c7a46','VOZ854',144.8332,-37.6439,137.16,72.83,False,171.47,-3.25,'4053',1551248101,1.0
'7c15af','RXA3574',145.1015,-37.7082,2964.18,140.85,False,334.93,-7.48,'4335',1551248119,0.0
'7c15af','RXA3574',145.0951,-37.6971,2895.6,139.95,False,335.22,-7.48,'4335',1551248129,0.037037037037037035
'7c15af','RXA3574',145.0881,-37.685,2819.4,139.27,False,335.33,-6.83,'4335',1551248139,0.07407407407407407
'7c15af','RXA3574',145.0749,-37.6623,2682.24,137.18,False,335.16,-7.15,'4335',1551248159,0.1111111111111111
'7c15af','RXA3574',145.0686,-37.6514,2621.28,136.03,False,335.18,-6.5,'4335',1551248169,0.14814814814814814
'7c15af','RXA3574',145.0619,-37.64,2545.08,136.25,False,334.98,-7.48,'4335',1551248179,0.18518518518518517
'7c15af','RXA3574',145.0555,-37.6292,2476.5,136.47,False,334.79,-7.8,'4335',1551248189,0.2222222222222222
'7c15af','RXA3574',145.0488,-37.6179,2407.92,136,False,334.7,-6.83,'4335',1551248199,0.25925925925925924
'7c15af','RXA3574',145.0423,-37.6071,2339.34,136.47,False,334.79,-7.48,'4335',1551248209,0.2962962962962963
'7c15af','RXA3574',145.0355,-37.5955,2270.76,135.32,False,334.8,-6.83,'4335',1551248220,0.3333333333333333
'7c15af','RXA3574',145.0293,-37.585,2217.42,134.17,False,334.81,-5.53,'4335',1551248229,0.37037037037037035
'7c15af','RXA3574',145.0226,-37.5735,2156.46,133.48,False,334.92,-6.18,'4335',1551248240,0.4074074074074074
'7c15af','RXA3574',145.0098,-37.5518,2034.54,132.33,False,334.93,-5.85,'4335',1551248259,0.4444444444444444
'7c15af','RXA3574',144.8166,-37.5552,746.76,74.35,False,171.65,-5.2,'4335',1551248589,0.48148148148148145
'7c15af','RXA3574',144.8178,-37.5616,693.42,73.85,False,171.59,-5.85,'4335',1551248599,0.5185185185185185
'7c15af','RXA3574',144.8191,-37.5685,640.08,72.83,False,171.47,-5.53,'4335',1551248609,0.5555555555555556
'7c15af','RXA3574',144.8203,-37.5751,579.12,72.24,False,171.81,-5.85,'4335',1551248620,0.5925925925925926
'7c15af','RXA3574',144.8215,-37.5812,533.4,71.38,False,170.88,-4.55,'4335',1551248629,0.6296296296296295
'7c15af','RXA3574',144.8239,-37.5939,457.2,71.73,False,171.75,-3.25,'4335',1551248649,0.6666666666666666
'7c15af','RXA3574',144.8249,-37.5997,419.1,72.83,False,171.47,-2.6,'4335',1551248658,0.7037037037037037
'7c15af','RXA3574',144.8263,-37.6069,381,73.34,False,171.53,-4.55,'4335',1551248669,0.7407407407407407
'7c15af','RXA3574',144.8275,-37.6131,342.9,72.83,False,171.47,-3.58,'4335',1551248679,0.7777777777777777
'7c15af','RXA3574',144.8281,-37.6166,320.04,72.24,False,171.81,-3.25,'4335',1551248684,0.8148148148148148
'7c15af','RXA3574',144.8297,-37.6249,274.32,71.73,False,171.75,-4.23,'4335',1551248697,0.8518518518518519
'7c15af','RXA3574',144.831,-37.6318,236.22,70.72,False,171.63,-3.9,'4335',1551248708,0.8888888888888888
'7c15af','RXA3574',144.8321,-37.638,205.74,70.13,False,171.99,-2.6,'4335',1551248718,0.9259259259259258
'7c15af','RXA3574',144.8326,-37.6409,190.5,69.27,False,171.03,-3.9,'4335',1551248723,0.9629629629629629
'7c15af','RXA3574',144.8339,-37.6479,144.78,69.27,False,171.03,-3.9,'4335',1551248734,1.0
'7c6c59','TGG527',144.8158,-37.5504,685.8,88.98,False,171.35,-4.55,'1215',1551248128,0.0
'7c6c59','TGG527',144.8174,-37.559,640.08,85.78,False,171.72,-4.88,'1215',1551248139,0.08333333333333333
'7c6c59','TGG527',144.82,-37.5732,556.26,78.94,False,172.13,-6.83,'1215',1551248159,0.16666666666666666
'7c6c59','TGG527',144.8214,-37.5802,518.16,76.54,False,171.11,-4.23,'1215',1551248169,0.25
'7c6c59','TGG527',144.8226,-37.5871,480.06,74.43,False,171.25,-3.25,'1215',1551248179,0.3333333333333333
'7c6c59','TGG527',144.8238,-37.5935,441.96,73.26,False,171.93,-4.88,'1215',1551248189,0.41666666666666663
'7c6c59','TGG527',144.8251,-37.6001,403.86,71.89,False,170.94,-4.88,'1215',1551248199,0.5
'7c6c59','TGG527',144.8258,-37.6039,373.38,71.66,False,172.16,-3.58,'1215',1551248205,0.5833333333333333
'7c6c59','TGG527',144.8274,-37.6131,327.66,71.81,False,171.35,-5.53,'1215',1551248219,0.6666666666666666
'7c6c59','TGG527',144.8284,-37.6183,297.18,70.79,False,171.22,-4.23,'1215',1551248228,0.75
'7c6c59','TGG527',144.8297,-37.6254,259.08,71.66,False,172.16,-3.58,'1215',1551248239,0.8333333333333333
'7c6c59','TGG527',144.8321,-37.6382,182.88,70.79,False,171.22,-4.88,'1215',1551248259,0.9166666666666666
'7c6c59','TGG527',144.8332,-37.644,114.3,71.3,False,171.29,-2.6,'1215',1551248268,1.0
'7c6ced','VSV',145.1041,-37.7242,914.4,83.31,False,261.12,0.98,'4216',1551248189,0.0
'7c6ced','VSV',145.095,-37.7245,914.4,81.3,False,271.09,0.33,'4216',1551248199,0.05555555555555555
'7c6ced','VSV',145.0859,-37.7242,914.4,79.43,False,274.09,0,'4216',1551248209,0.1111111111111111
'7c6ced','VSV',145.0757,-37.7237,883.92,82.93,False,272.84,-10.4,'4216',1551248220,0.16666666666666666
'7c6ced','VSV',145.0663,-37.7236,792.48,91.07,False,269.03,-5.53,'4216',1551248229,0.2222222222222222
'7c6ced','VSV',145.0558,-37.7237,792.48,89.51,False,270,-0.65,'4216',1551248240,0.2777777777777778
'7c6ced','VSV',145.0343,-37.7238,670.56,95.41,False,265.98,-1.63,'4216',1551248260,0.3333333333333333
'7c6ced','VSV',145.0241,-37.7248,640.08,92.47,False,262.01,-3.58,'4216',1551248269,0.38888888888888884
'7c6ced','VSV',145.0139,-37.7259,579.12,91.25,False,262.87,-9.1,'4216',1551248279,0.4444444444444444
'7c6ced','VSV',145.0038,-37.7268,487.68,89.33,False,265.04,-7.15,'4216',1551248289,0.5
'7c6ced','VSV',144.9942,-37.7275,426.72,84.68,False,265.12,-9.43,'4216',1551248299,0.5555555555555556
'7c6ced','VSV',144.9866,-37.7279,365.76,82.41,False,267.14,-6.5,'4216',1551248307,0.611111111111111
'7c6ced','VSV',144.9756,-37.7285,304.8,75.8,False,266.11,0.33,'4216',1551248319,0.6666666666666666
'7c6ced','VSV',144.9702,-37.7288,304.8,71.08,False,267.1,-2.28,'4216',1551248326,0.7222222222222222
'7c6ced','VSV',144.9663,-37.7289,304.8,61.81,False,267.14,-3.58,'4216',1551248331,0.7777777777777777
'7c6ced','VSV',144.9469,-37.7295,213.36,56.08,False,268.95,-2.6,'4216',1551248359,0.8333333333333333
'7c6ced','VSV',144.9417,-37.7296,213.36,53.54,False,267.8,-2.6,'4216',1551248368,0.8888888888888888
'7c6ced','VSV',144.9375,-37.7298,182.88,50.63,False,264.75,-1.63,'4216',1551248374,0.9444444444444444
'7c6ced','VSV',144.9334,-37.73,121.92,51.51,False,267.14,-3.58,'4216',1551248382,1.0
'7c6de6','QFA628',144.8417,-37.6894,205.74,80.18,False,171.14,14.63,None,1551248229,0.0
'7c6de6','QFA628',144.8431,-37.6967,320.04,81.71,False,171.31,11.05,'1454',1551248239,0.038461538461538464
'7c6de6','QFA628',144.8461,-37.712,518.16,87.62,False,170.54,8.13,'1454',1551248259,0.07692307692307693
'7c6de6','QFA628',144.8477,-37.7199,579.12,93.13,False,171.42,7.15,'1454',1551248269,0.11538461538461539
'7c6de6','QFA628',144.8493,-37.7291,662.94,98.01,False,172.76,7.48,'1454',1551248280,0.15384615384615385
'7c6de6','QFA628',144.8485,-37.7377,731.52,103.95,False,189.98,7.48,'1454',1551248289,0.19230769230769232
'7c6de6','QFA628',144.8438,-37.7463,792.48,111.28,False,209.65,5.85,'1454',1551248299,0.23076923076923078
'7c6de6','QFA628',144.8346,-37.7541,861.06,120.35,False,231.07,6.5,'1454',1551248309,0.2692307692307693
'7c6de6','QFA628',144.8229,-37.7586,975.36,122.02,False,250.8,14.31,'1454',1551248319,0.3076923076923077
'7c6de6','QFA628',144.8086,-37.7591,1135.38,120.4,False,275.39,13.33,'1454',1551248329,0.34615384615384615
'7c6de6','QFA628',144.7955,-37.757,1257.3,121.98,False,281.93,13.98,'1454',1551248339,0.38461538461538464
'7c6de6','QFA628',144.7679,-37.752,1485.9,129.17,False,288.58,8.78,'1454',1551248359,0.42307692307692313
'7c6de6','QFA628',144.7539,-37.7456,1584.96,132.73,False,302.33,9.1,'1454',1551248370,0.46153846153846156
'7c6de6','QFA628',144.7441,-37.7376,1706.88,135.04,False,319.64,13.66,'1454',1551248379,0.5
'7c6de6','QFA628',144.7359,-37.7259,1866.9,137.13,False,336.8,15.61,'1454',1551248390,0.5384615384615385
'7c6de6','QFA628',144.7328,-37.7154,1996.44,138.19,False,350.57,15.28,'1454',1551248398,0.576923076923077
'7c6de6','QFA628',144.7328,-37.7016,2148.84,141.92,False,6.66,14.31,'1454',1551248409,0.6153846153846154
'7c6de6','QFA628',144.7372,-37.6895,2278.38,144.03,False,20.05,13.98,'1454',1551248419,0.6538461538461539
'7c6de6','QFA628',144.7437,-37.6768,2423.16,145.3,False,21.39,14.63,'1454',1551248430,0.6923076923076923
'7c6de6','QFA628',144.755,-37.653,2682.24,147.82,False,20.58,14.31,'1454',1551248449,0.7307692307692308
'7c6de6','QFA628',144.7608,-37.6403,2834.64,149.09,False,20.19,15.93,'1454',1551248459,0.7692307692307693
'7c6de6','QFA628',144.7667,-37.6279,2987.04,149.44,False,20.56,16.26,'1454',1551248469,0.8076923076923077
'7c6de6','QFA628',144.7731,-37.6147,3147.06,149.7,False,21.36,15.28,'1454',1551248479,0.8461538461538463
'7c6de6','QFA628',144.779,-37.6028,3268.98,151.22,False,21.77,12.03,'1454',1551248489,0.8846153846153847
'7c6de6','QFA628',144.7857,-37.5894,3352.8,156.29,False,21.84,5.85,'1454',1551248499,0.9230769230769231
'7c6de6','QFA628',144.793,-37.5759,3390.9,163.92,False,24.47,4.88,'1454',1551248509,0.9615384615384616
'7c6de6','QFA628',144.8022,-37.5623,3444.24,171.97,False,30.17,5.2,'1454',1551248519,1.0
'c82781','ANZ125',144.8162,-37.5525,678.18,97.71,False,171.83,-4.88,'0203',1551248309,0.0
'c82781','ANZ125',144.8173,-37.5584,640.08,94.14,False,171.52,-5.85,'0203',1551248316,0.08333333333333333
'c82781','ANZ125',144.8192,-37.5689,594.36,85.85,False,171.38,-3.58,'0203',1551248329,0.16666666666666666
'c82781','ANZ125',144.8207,-37.5765,541.02,80.1,False,171.51,-4.55,'0203',1551248339,0.25
'c82781','ANZ125',144.8232,-37.5901,464.82,75.96,False,171.43,-4.55,'0203',1551248359,0.3333333333333333
'c82781','ANZ125',144.8245,-37.5972,426.72,75.37,False,171.76,-3.9,'0203',1551248370,0.41666666666666663
'c82781','ANZ125',144.8257,-37.6035,388.62,74.86,False,171.7,-4.23,'0203',1551248379,0.5
'c82781','ANZ125',144.8267,-37.6091,350.52,74.86,False,171.7,-4.88,'0203',1551248387,0.5833333333333333
'c82781','ANZ125',144.8281,-37.6167,304.8,74.86,False,171.7,-3.25,'0203',1551248399,0.6666666666666666
'c82781','ANZ125',144.8294,-37.6238,266.7,73.85,False,171.59,-3.58,'0203',1551248410,0.75
'c82781','ANZ125',144.8306,-37.6301,236.22,73.85,False,171.59,-3.58,'0203',1551248419,0.8333333333333333
'c82781','ANZ125',144.8319,-37.6371,198.12,73.85,False,171.59,-3.9,'0203',1551248430,0.9166666666666666
'c82781','ANZ125',144.8338,-37.6472,114.3,74.35,False,171.65,-3.58,'0203',1551248445,1.0
'acaa0d','N915JG',144.9015,-37.7345,167.64,78.12,False,173.95,14.96,'1420',1551248376,0.0
'acaa0d','N915JG',144.9041,-37.7436,365.76,83.78,False,158,16.26,'1420',1551248389,0.05555555555555555
'acaa0d','N915JG',144.908,-37.7507,533.4,89.27,False,154.03,17.88,'1420',1551248399,0.1111111111111111
'acaa0d','N915JG',144.9131,-37.7584,701.04,95.05,False,151.91,12.35,'1420',1551248409,0.16666666666666666
'acaa0d','N915JG',144.9182,-37.7659,807.72,102.89,False,151.64,10.73,'1420',1551248419,0.2222222222222222
'acaa0d','N915JG',144.9242,-37.7749,937.26,109.79,False,151.75,14.63,'1420',1551248429,0.2777777777777778
'acaa0d','N915JG',145.049,-37.7782,3086.1,150.8,False,344.16,22.43,'1420',1551248609,0.3333333333333333
'acaa0d','N915JG',145.0441,-37.7648,3299.46,151.43,False,344.03,18.21,'1420',1551248619,0.38888888888888884
'acaa0d','N915JG',145.0396,-37.7517,3459.48,154.4,False,344.34,13.66,'1420',1551248629,0.4444444444444444
'acaa0d','N915JG',145.0293,-37.725,3680.46,165.45,False,342.07,9.43,'1420',1551248649,0.5
'acaa0d','N915JG',145.0239,-37.7115,3771.9,171.16,False,342.33,10.4,'1420',1551248658,0.5555555555555556
'acaa0d','N915JG',145.0178,-37.6946,3893.82,176.18,False,346.49,11.38,'1420',1551248669,0.611111111111111
'acaa0d','N915JG',145.0142,-37.6797,3985.26,181.17,False,351.18,9.43,'1420',1551248679,0.6666666666666666
'acaa0d','N915JG',145.0121,-37.6623,4091.94,186.39,False,357.63,10.73,'1420',1551248689,0.7222222222222222
'acaa0d','N915JG',145.0123,-37.646,4206.24,188.98,False,2.5,14.96,'1420',1551248699,0.7777777777777777
'acaa0d','N915JG',145.0147,-37.6284,4373.88,190.97,False,9.61,15.28,'1420',1551248709,0.8333333333333333
'acaa0d','N915JG',145.0194,-37.6122,4518.66,192.21,False,15.52,15.28,'1420',1551248719,0.8888888888888888
'acaa0d','N915JG',145.0261,-37.595,4678.68,192.94,False,18.82,14.96,'1420',1551248729,0.9444444444444444
'acaa0d','N915JG',145.0416,-37.5627,4907.28,198.8,False,21.72,9.1,'1420',1551248749,1.0
'7c7a43','VOZ858',144.816,-37.5519,678.18,84.69,False,171.97,-4.55,'4023',1551248469,0.0
'7c7a43','VOZ858',144.8173,-37.5589,640.08,81.2,False,171.25,-3.9,'4023',1551248479,0.07692307692307693
'7c7a43','VOZ858',144.8187,-37.5658,601.98,76.54,False,171.11,-3.9,'4023',1551248489,0.15384615384615385
'7c7a43','VOZ858',144.82,-37.573,556.26,74.86,False,171.7,-4.23,'4023',1551248499,0.23076923076923078
'7c7a43','VOZ858',144.8211,-37.5791,525.78,74.28,False,172.04,-3.9,'4023',1551248508,0.3076923076923077
'7c7a43','VOZ858',144.8224,-37.5861,480.06,72.24,False,171.81,-3.25,'4023',1551248519,0.38461538461538464
'7c7a43','VOZ858',144.8236,-37.5925,449.58,72.75,False,171.87,-3.58,'4023',1551248529,0.46153846153846156
'7c7a43','VOZ858',144.8258,-37.6043,381,73.34,False,171.53,-3.58,'4023',1551248547,0.5384615384615385
'7c7a43','VOZ858',144.8273,-37.6124,327.66,72.83,False,171.47,-4.55,'4023',1551248560,0.6153846153846154
'7c7a43','VOZ858',144.8283,-37.6179,297.18,71.81,False,171.35,-3.9,'4023',1551248569,0.6923076923076923
'7c7a43','VOZ858',144.8296,-37.6248,259.08,71.97,False,170.54,-3.58,'4023',1551248579,0.7692307692307693
'7c7a43','VOZ858',144.8307,-37.6309,228.6,71.66,False,172.16,-3.58,'4023',1551248589,0.8461538461538463
'7c7a43','VOZ858',144.8319,-37.638,190.5,71.23,False,171.69,-3.58,'4023',1551248600,0.9230769230769231
'7c7a43','VOZ858',144.8331,-37.6438,152.4,71.89,False,170.94,-3.58,'4023',1551248609,1.0
'7c7ab9','VOZ96',145.1017,-37.708,3147.06,149.58,False,334.76,-7.8,'0210',1551248479,0.0
'7c7ab9','VOZ96',145.095,-37.6966,3078.48,148.9,False,334.85,-7.8,'0210',1551248488,0.038461538461538464
'7c7ab9','VOZ96',145.0874,-37.6836,2994.66,148.21,False,334.95,-8.13,'0210',1551248499,0.07692307692307693
'7c7ab9','VOZ96',145.0809,-37.6726,2926.08,147.75,False,334.86,-7.8,'0210',1551248508,0.11538461538461539
'7c7ab9','VOZ96',145.0733,-37.6596,2849.88,147.06,False,334.96,-6.5,'0210',1551248519,0.15384615384615385
'7c7ab9','VOZ96',145.0666,-37.6481,2804.16,144.55,False,335.17,-5.53,'0210',1551248529,0.19230769230769232
'7c7ab9','VOZ96',145.053,-37.6249,2667,143.15,False,334.91,-7.48,'0210',1551248549,0.23076923076923078
'7c7ab9','VOZ96',145.0455,-37.6121,2590.8,142.46,False,335.01,-7.48,'0210',1551248560,0.2692307692307693
'7c7ab9','VOZ96',145.0397,-37.6022,2529.84,142.68,False,334.82,-7.8,'0210',1551248568,0.3076923076923077
'7c7ab9','VOZ96',145.0321,-37.5895,2446.02,142,False,334.92,-7.48,'0210',1551248579,0.34615384615384615
'7c7ab9','VOZ96',145.026,-37.5791,2377.44,141.53,False,334.83,-7.48,'0210',1551248588,0.38461538461538464
'7c7ab9','VOZ96',145.0183,-37.566,2293.62,140.85,False,334.93,-7.8,'0210',1551248599,0.42307692307692313
'7c7ab9','VOZ96',145.0117,-37.5547,2225.04,140.38,False,334.84,-7.48,'0210',1551248609,0.46153846153846156
'7c7ab9','VOZ96',144.8159,-37.5513,678.18,86.29,False,171.77,-4.55,'0210',1551248909,0.5
'7c7ab9','VOZ96',144.8173,-37.5589,640.08,83.16,False,171.82,-4.23,'0210',1551248919,0.5384615384615385
'7c7ab9','VOZ96',144.8187,-37.5658,594.36,79.16,False,171.03,-4.23,'0210',1551248929,0.576923076923077
'7c7ab9','VOZ96',144.82,-37.5727,556.26,77.48,False,171.6,-3.58,'0210',1551248938,0.6153846153846154
'7c7ab9','VOZ96',144.8225,-37.5865,487.68,74.21,False,172.43,-3.25,'0210',1551248959,0.6538461538461539
'7c7ab9','VOZ96',144.8237,-37.5932,449.58,71.73,False,171.75,-3.9,'0210',1551248969,0.6923076923076923
'7c7ab9','VOZ96',144.8248,-37.5992,411.48,70.79,False,171.22,-3.9,'0210',1551248979,0.7307692307692308
'7c7ab9','VOZ96',144.826,-37.6051,373.38,69.7,False,171.51,-3.9,'0210',1551248988,0.7692307692307693
'7c7ab9','VOZ96',144.8272,-37.6118,335.28,70.21,False,171.57,-3.9,'0210',1551248999,0.8076923076923077
'7c7ab9','VOZ96',144.8283,-37.6181,304.8,69.63,False,171.93,-4.23,'0210',1551249009,0.8461538461538463
'7c7ab9','VOZ96',144.8295,-37.6243,266.7,69.19,False,171.45,-3.25,'0210',1551249019,0.8846153846153847
'7c7ab9','VOZ96',144.8307,-37.6308,228.6,69.7,False,171.51,-3.58,'0210',1551249030,0.9230769230769231
'7c7ab9','VOZ96',144.8329,-37.6425,160.02,69.7,False,171.51,-4.23,'0210',1551249048,0.9615384615384616
'7c7ab9','VOZ96',144.8331,-37.644,152.4,69.78,False,171.09,-3.58,'0210',1551249051,1.0
'7c8068','',144.8411,-37.6863,213.36,84.69,False,171.97,7.8,None,1551248579,0.0
'7c8068','QFA9',144.8423,-37.6931,304.8,86.72,False,172.16,11.38,'4240',1551248588,0.045454545454545456
'7c8068','QFA9',144.8438,-37.7021,426.72,86.14,False,172.45,11.38,'4240',1551248599,0.09090909090909091
'7c8068','QFA9',144.845,-37.7094,525.78,88.76,False,172.34,9.43,'4240',1551248609,0.13636363636363635
'7c8068','QFA9',144.8466,-37.7182,609.6,95.16,False,171.61,6.83,'4240',1551248620,0.18181818181818182
'7c8068','QFA9',144.8482,-37.7266,670.56,102.08,False,171.01,6.18,'4240',1551248629,0.2272727272727273
'7c8068','QFA9',144.8478,-37.7451,792.48,116.55,False,194.83,9.75,'4240',1551248648,0.2727272727272727
'7c8068','QFA9',144.841,-37.7555,899.16,121.59,False,214.83,11.38,'4240',1551248659,0.3181818181818182
'7c8068','QFA9',144.8305,-37.7634,1036.32,123.02,False,235.05,17.23,'4240',1551248669,0.36363636363636365
'7c8068','QFA9',144.8181,-37.7681,1181.1,124.17,False,253.14,12.68,'4240',1551248679,0.4090909090909091
'7c8068','QFA9',144.8034,-37.7695,1280.16,129.13,False,270.68,8.45,'4240',1551248689,0.4545454545454546
'7c8068','QFA9',144.7886,-37.7676,1356.36,136.13,False,284.67,7.8,'4240',1551248699,0.5
'7c8068','QFA9',144.7728,-37.7636,1432.56,142.85,False,289.35,8.45,'4240',1551248710,0.5454545454545454
'7c8068','QFA9',144.7585,-37.7593,1501.14,149.03,False,291.25,7.8,'4240',1551248719,0.5909090909090909
'7c8068','QFA9',144.7415,-37.7539,1569.72,156.2,False,292.26,7.48,'4240',1551248729,0.6363636363636364
'7c8068','QFA9',144.7081,-37.7448,1760.22,165.08,False,283.52,11.7,'4240',1551248749,0.6818181818181819
'7c8068','QFA9',144.6888,-37.7421,1905,166.75,False,277.98,16.26,'4240',1551248759,0.7272727272727273
'7c8068','QFA9',144.6704,-37.7405,2072.64,166.79,False,274.95,18.53,'4240',1551248769,0.7727272727272727
'7c8068','QFA9',144.6509,-37.739,2232.66,167.54,False,275.82,15.93,'4240',1551248779,0.8181818181818182
'7c8068','QFA9',144.6329,-37.7374,2392.68,168.27,False,276.49,15.61,'4240',1551248789,0.8636363636363636
'7c8068','QFA9',144.6131,-37.7357,2545.08,169.3,False,276.46,16.26,'4240',1551248799,0.9090909090909092
'7c8068','QFA9',144.5943,-37.7341,2697.48,170.72,False,276.05,15.28,'4240',1551248809,0.9545454545454546
'7c8068','QFA9',144.5738,-37.7324,2849.88,172.25,False,276,14.63,'4240',1551248819,1.0
'7c6dd7','QFA456',144.8169,-37.6604,213.36,88.26,False,274.68,14.31,'3740',1551248698,0.0
'7c6dd7','QFA456',144.8059,-37.6596,358.14,90.36,False,274.9,14.31,'3740',1551248710,0.058823529411764705
'7c6dd7','QFA456',144.7961,-37.659,487.68,91.34,False,274.52,13.98,'3740',1551248719,0.11764705882352941
'7c6dd7','QFA456',144.785,-37.6583,571.5,98.56,False,274.49,6.18,'3740',1551248729,0.1764705882352941
'7c6dd7','QFA456',144.7611,-37.6569,693.42,115.53,False,274.09,5.85,'3740',1551248749,0.23529411764705882
'7c6dd7','QFA456',144.7463,-37.656,769.62,125.9,False,274.45,9.1,'3740',1551248759,0.29411764705882354
'7c6dd7','QFA456',144.7326,-37.6552,861.06,132.06,False,274.24,11.05,'3740',1551248769,0.3529411764705882
'7c6dd7','QFA456',144.7169,-37.6542,990.6,136.76,False,274.53,15.28,'3740',1551248779,0.4117647058823529
'7c6dd7','QFA456',144.7031,-37.6534,1150.62,136.68,False,274.1,18.53,'3740',1551248788,0.47058823529411764
'7c6dd7','QFA456',144.6855,-37.6517,1356.36,135.74,False,279.82,18.21,'3740',1551248799,0.5294117647058824
'7c6dd7','QFA456',144.6717,-37.6476,1524,135.57,False,294.91,16.91,'3740',1551248809,0.5882352941176471
'7c6dd7','QFA456',144.6594,-37.6404,1706.88,135.86,False,312.08,16.58,'3740',1551248819,0.6470588235294118
'7c6dd7','QFA456',144.65,-37.6309,1866.9,136.26,False,326.55,16.26,'3740',1551248829,0.7058823529411764
'7c6dd7','QFA456',144.6392,-37.6069,2232.66,138.17,False,343.12,17.88,'3740',1551248849,0.7647058823529411
'7c6dd7','QFA456',144.6348,-37.5951,2392.68,139.64,False,343.3,15.93,'3740',1551248859,0.8235294117647058
'7c6dd7','QFA456',144.6303,-37.5827,2552.7,140.34,False,343.82,17.23,'3740',1551248869,0.8823529411764706
'7c6dd7','QFA456',144.626,-37.5699,2712.72,142.49,False,346.21,13.66,'3740',1551248880,0.9411764705882353
'7c6dd7','QFA456',144.6247,-37.5605,2827.02,145.08,False,359.59,13.66,'3740',1551248887,1.0
'7c6d94','QFA623',144.8164,-37.5545,655.32,80.61,False,171.56,-4.55,'1105',1551248729,0.0
'7c6d94','QFA623',144.8191,-37.5684,579.12,79.67,False,171.09,-4.55,'1105',1551248749,0.09090909090909091
'7c6d94','QFA623',144.8205,-37.5759,533.4,79.59,False,171.45,-4.23,'1105',1551248759,0.18181818181818182
'7c6d94','QFA623',144.8218,-37.5826,495.3,78.5,False,171.71,-4.23,'1105',1551248769,0.2727272727272727
'7c6d94','QFA623',144.8231,-37.59,449.58,78.58,False,171.34,-3.9,'1105',1551248779,0.36363636363636365
'7c6d94','QFA623',144.8243,-37.5966,419.1,78.58,False,171.34,-4.23,'1105',1551248789,0.4545454545454546
'7c6d94','QFA623',144.8257,-37.6036,381,78.58,False,171.34,-3.58,'1105',1551248799,0.5454545454545454
'7c6d94','QFA623',144.827,-37.6105,342.9,77.99,False,171.66,-4.23,'1105',1551248809,0.6363636363636364
'7c6d94','QFA623',144.8283,-37.6178,297.18,77.99,False,171.66,-4.23,'1105',1551248819,0.7272727272727273
'7c6d94','QFA623',144.8295,-37.6243,259.08,77.48,False,171.6,-4.23,'1105',1551248828,0.8181818181818182
'7c6d94','QFA623',144.8321,-37.6383,182.88,77.48,False,171.6,-4.88,'1105',1551248849,0.9090909090909092
'7c6d94','QFA623',144.8327,-37.6413,160.02,77.48,False,171.6,-3.58,'1105',1551248853,1.0
'7c5e42','',144.9013,-37.7326,91.44,62.28,False,178.11,10.4,None,1551248779,0.0
'7c5e42','SH828',144.9016,-37.7385,213.36,66.91,False,178.24,9.75,None,1551248789,0.09090909090909091
'7c5e42','SH828',144.9022,-37.7449,274.32,72.48,False,170.6,8.13,'3267',1551248799,0.18181818181818182
'7c5e42','SH828',144.9045,-37.7509,365.76,76.53,False,157.05,8.13,'3267',1551248809,0.2727272727272727
'7c5e42','SH828',144.9096,-37.7569,457.2,77.49,False,134.19,11.05,'3267',1551248819,0.36363636363636365
'7c5e42','SH828',144.9164,-37.7608,548.64,79.51,False,122.04,11.7,'3267',1551248829,0.4545454545454546
'7c5e42','SH828',144.9325,-37.7683,792.48,81.96,False,121.4,12.35,'3267',1551248849,0.5454545454545454
'7c5e42','SH828',144.9408,-37.7726,883.92,84.5,False,125.33,8.78,'3267',1551248859,0.6363636363636364
'7c5e42','SH828',144.9485,-37.7771,975.36,88.9,False,127,8.45,'3267',1551248869,0.7272727272727273
'7c5e42','SH828',144.9562,-37.782,1036.32,93.92,False,132.78,7.15,'3267',1551248879,0.8181818181818182
'7c5e42','SH828',144.9635,-37.7888,1097.28,97.18,False,147.32,6.5,'3267',1551248889,0.9090909090909092
'7c5e42','SH828',144.5748,-37.7831,3657.6,140.91,False,291.41,0,'3267',1551249359,1.0
'7cf864','DRGN16',144.7716,-37.7784,6370.32,199.99,False,25.11,13,'2046',1551248779,0.0
'7cf864','DRGN16',144.7813,-37.7621,6499.86,201.83,False,25.19,12.68,'2046',1551248789,0.06666666666666667
'7cf864','DRGN16',144.791,-37.7456,6614.16,202.98,False,25.2,11.38,'2046',1551248799,0.13333333333333333
'7cf864','DRGN16',144.801,-37.7288,6728.46,205.74,False,25.16,10.4,'2046',1551248809,0.2
'7cf864','DRGN16',144.811,-37.712,6842.76,206.89,False,25.16,15.93,'2046',1551248819,0.26666666666666666
'7cf864','DRGN16',144.8209,-37.6951,7010.4,206.43,False,25.22,15.93,'2046',1551248829,0.3333333333333333
'7cf864','DRGN16',144.8426,-37.6644,7239,207.84,False,37.15,6.83,'2046',1551248848,0.4
'7cf864','DRGN16',144.8615,-37.6478,7299.96,207.39,False,46.21,2.6,'2046',1551248859,0.4666666666666667
'7cf864','DRGN16',144.8774,-37.6369,7315.2,207.3,False,50.74,0.33,'2046',1551248869,0.5333333333333333
'7cf864','DRGN16',144.8975,-37.6241,7315.2,206.8,False,51.36,0.33,'2046',1551248879,0.6
'7cf864','DRGN16',144.9139,-37.6136,7338.06,207.53,False,51.34,5.53,'2046',1551248889,0.6666666666666666
'7cf864','DRGN16',144.934,-37.6007,7437.12,207.12,False,51.25,14.31,'2046',1551248900,0.7333333333333333
'7cf864','DRGN16',144.9503,-37.5902,7597.14,204.48,False,51.03,22.11,'2046',1551248909,0.8
'7cf864','DRGN16',144.9699,-37.5777,7833.36,200.46,False,51.04,19.18,'2046',1551248920,0.8666666666666667
'7cf864','DRGN16',144.9857,-37.5676,7993.38,198.61,False,50.99,14.63,'2046',1551248929,0.9333333333333333
'7cf864','DRGN16',145.0032,-37.5563,8130.54,198.29,False,51.11,13,'2046',1551248939,1.0
'7c6ddf','',144.8421,-37.6913,205.74,84.76,False,171.62,13.66,'4306',1551248860,0.0
'7c6ddf','QFA834',144.8434,-37.6984,327.66,84.83,False,171.28,13.66,'4306',1551248869,0.04
'7c6ddf','QFA834',144.8448,-37.7063,457.2,85.78,False,171.72,12.68,'4306',1551248879,0.08
'7c6ddf','QFA834',144.8464,-37.714,548.64,89.65,False,170.75,7.8,'4306',1551248889,0.12
'7c6ddf','QFA834',144.8481,-37.7226,601.98,97.86,False,171.23,5.85,'4306',1551248899,0.16
'7c6ddf','QFA834',144.8492,-37.7319,670.56,107.05,False,178.35,7.48,'4306',1551248909,0.2
'7c6ddf','QFA834',144.846,-37.7415,739.14,116.39,False,203.17,9.1,'4306',1551248919,0.24
'7c6ddf','QFA834',144.8379,-37.7497,845.82,120.79,False,223.96,13,'4306',1551248929,0.28
'7c6ddf','QFA834',144.8261,-37.7551,975.36,123.28,False,246.64,15.28,'4306',1551248939,0.32
'7c6ddf','QFA834',144.7981,-37.7556,1280.16,125.51,False,277.3,13.66,'4306',1551248959,0.36
'7c6ddf','QFA834',144.7831,-37.7532,1417.32,129.52,False,283.32,13.33,'4306',1551248969,0.4
'7c6ddf','QFA834',144.7695,-37.7494,1539.24,132.53,False,293.08,13.33,'4306',1551248979,0.44
'7c6ddf','QFA834',144.7565,-37.7427,1691.64,135.41,False,307.44,15.28,'4306',1551248989,0.48
'7c6ddf','QFA834',144.7461,-37.7341,1844.04,137.21,False,319.56,15.93,'4306',1551248999,0.52
'7c6ddf','QFA834',144.7387,-37.7231,2004.06,139.57,False,337.69,16.58,'4306',1551249009,0.56
'7c6ddf','QFA834',144.735,-37.7118,2148.84,142,False,350.2,14.63,'4306',1551249018,0.6
'7c6ddf','QFA834',144.7353,-37.6975,2324.1,145.18,False,5.29,14.96,'4306',1551249029,0.64
'7c6ddf','QFA834',144.7453,-37.6737,2621.28,147.7,False,21.02,16.58,'4306',1551249049,0.68
'7c6ddf','QFA834',144.7516,-37.6607,2781.3,149.14,False,20.81,15.93,'4306',1551249059,0.72
'7c6ddf','QFA834',144.758,-37.6471,2956.56,150.59,False,20.6,17.23,'4306',1551249069,0.76
'7c6ddf','QFA834',144.7635,-37.6354,3108.96,151.07,False,20.53,17.56,'4306',1551249079,0.8
'7c6ddf','QFA834',144.7697,-37.6226,3246.12,153.24,False,21.05,13.66,'4306',1551249089,0.84
'7c6ddf','QFA834',144.7761,-37.6092,3360.42,157.82,False,21.21,9.43,'4306',1551249099,0.88
'7c6ddf','QFA834',144.783,-37.5952,3421.38,164.7,False,21.44,4.23,'4306',1551249109,0.92
'7c6ddf','QFA834',144.7902,-37.5816,3467.1,173,False,23.67,5.2,'4306',1551249119,0.96
'7c6ddf','QFA834',144.7991,-37.5675,3543.3,179.3,False,28.26,12.03,'4306',1551249129,1.0
'7c3314','KDI',144.5736,-37.7879,647.7,59,False,317.83,0,'1200',1551248899,0.0
'7c3314','KDI',144.5694,-37.7842,647.7,58.62,False,317.49,0,'1200',1551248909,1.0
'7c6087','TCP',144.9015,-37.734,160.02,53.59,False,176.7,8.78,'4267',1551248969,0.0
'7c6087','TCP',144.9018,-37.7382,220.98,55.8,False,174.71,7.15,'4267',1551248978,0.09090909090909091
'7c6087','TCP',144.904,-37.7438,289.56,62.41,False,150.9,4.88,'4267',1551248989,0.18181818181818182
'7c6087','TCP',144.9089,-37.7481,350.52,68.91,False,131.07,6.5,'4267',1551248999,0.2727272727272727
'7c6087','TCP',144.9152,-37.7522,419.1,71.83,False,128.02,7.48,'4267',1551249009,0.36363636363636365
'7c6087','TCP',144.9215,-37.7562,495.3,73.28,False,128.16,7.48,'4267',1551249019,0.4545454545454546
'7c6087','TCP',144.9286,-37.7606,579.12,74.18,False,127.11,8.13,'4267',1551249030,0.5454545454545454
'7c6087','TCP',144.9417,-37.7683,723.9,76.25,False,127.87,6.83,'4267',1551249049,0.6363636363636364
'7c6087','TCP',144.9488,-37.7729,800.1,77.46,False,129.61,6.5,'4267',1551249059,0.7272727272727273
'7c6087','TCP',144.9558,-37.7775,861.06,79.24,False,130,4.88,'4267',1551249070,0.8181818181818182
'7c6087','TCP',144.9626,-37.782,922.02,80.75,False,129.57,6.18,'4267',1551249079,0.9090909090909092
'7c6087','TCP',144.9696,-37.7871,990.6,81.49,False,142.7,6.18,'4267',1551249090,1.0
'7c6c5a','VOZ869',144.8411,-37.6864,175.26,77.85,False,172.41,16.91,'7255',1551248998,0.0
'7c6c5a','VOZ869',144.8423,-37.6942,320.04,79.31,False,172.92,12.03,'7255',1551249009,0.03571428571428571
'7c6c5a','VOZ869',144.8434,-37.7011,426.72,82.95,False,172.87,10.08,'7255',1551249019,0.07142857142857142
'7c6c5a','VOZ869',144.8447,-37.7092,487.68,89.85,False,172.1,4.88,'7255',1551249030,0.10714285714285714
'7c6c5a','VOZ869',144.8479,-37.7253,617.22,99.46,False,171.07,6.83,'7255',1551249049,0.14285714285714285
'7c6c5a','VOZ869',144.8489,-37.7354,685.8,106.55,False,181.94,8.13,'7255',1551249059,0.17857142857142855
'7c6c5a','VOZ869',144.846,-37.7446,769.62,111.12,False,202.89,10.73,'7255',1551249069,0.21428571428571427
'7c6c5a','VOZ869',144.8389,-37.7533,891.54,113.56,False,220.04,10.73,'7255',1551249079,0.25
'7c6c5a','VOZ869',144.8282,-37.7602,998.22,116.46,False,239.47,13.33,'7255',1551249090,0.2857142857142857
'7c6c5a','VOZ869',144.8175,-37.7636,1135.38,114.48,False,254.09,16.91,'7255',1551249099,0.3214285714285714
'7c6c5a','VOZ869',144.8038,-37.7646,1295.4,113.25,False,272.08,15.61,'7255',1551249110,0.3571428571428571
'7c6c5a','VOZ869',144.7914,-37.7626,1440.18,112.45,False,287.03,15.61,'7255',1551249119,0.39285714285714285
'7c6c5a','VOZ869',144.7808,-37.76,1569.72,111.46,False,287.18,13.98,'7255',1551249128,0.42857142857142855
'7c6c5a','VOZ869',144.7546,-37.7528,1722.12,123.78,False,297.2,8.78,'7255',1551249149,0.46428571428571425
'7c6c5a','VOZ869',144.7431,-37.746,1783.08,129.63,False,312.43,5.53,'7255',1551249159,0.5
'7c6c5a','VOZ869',144.7341,-37.7362,1851.66,137.39,False,332.09,7.8,'7255',1551249169,0.5357142857142857
'7c6c5a','VOZ869',144.7294,-37.7243,1988.82,138.87,False,350.19,17.88,'7255',1551249179,0.5714285714285714
'7c6c5a','VOZ869',144.7288,-37.7121,2141.22,140.06,False,2.53,14.31,'7255',1551249189,0.6071428571428571
'7c6c5a','VOZ869',144.7327,-37.6988,2286,143.37,False,19.93,16.26,'7255',1551249200,0.6428571428571428
'7c6c5a','VOZ869',144.7384,-37.6878,2423.16,143.61,False,22.98,14.31,'7255',1551249209,0.6785714285714285
'7c6c5a','VOZ869',144.7449,-37.6748,2560.32,146.74,False,21.17,11.7,'7255',1551249220,0.7142857142857142
'7c6c5a','VOZ869',144.7507,-37.6629,2682.24,148.48,False,20.7,14.96,'7255',1551249229,0.75
'7c6c5a','VOZ869',144.7566,-37.6503,2834.64,148.96,False,20.63,16.91,'7255',1551249239,0.7857142857142857
'7c6c5a','VOZ869',144.7687,-37.625,3169.92,149.63,False,20.74,17.56,'7255',1551249259,0.8214285714285714
'7c6c5a','VOZ869',144.7745,-37.6125,3337.56,149.63,False,20.74,15.61,'7255',1551249269,0.8571428571428571
'7c6c5a','VOZ869',144.781,-37.5988,3451.86,154.5,False,20.67,8.13,'7255',1551249280,0.8928571428571428
'7c6c5a','VOZ869',144.7867,-37.5868,3528.06,159.93,False,21.12,10.08,'7255',1551249289,0.9285714285714285
'7c6c5a','VOZ869',144.7943,-37.5732,3619.5,165.88,False,26.33,8.45,'7255',1551249299,0.9642857142857142
'7c6c5a','VOZ869',144.8038,-37.5595,3703.32,172.13,False,30.93,8.78,'7255',1551249309,1.0
'7c6ca6','JST533',144.8159,-37.5513,678.18,92.98,False,172.05,-3.25,'4253',1551249058,0.0
'7c6ca6','JST533',144.8172,-37.5585,655.32,88.98,False,171.35,-2.6,'4253',1551249067,0.09090909090909091
'7c6ca6','JST533',144.8189,-37.5673,609.6,83.23,False,171.47,-4.23,'4253',1551249079,0.18181818181818182
'7c6ca6','JST533',144.8202,-37.5743,579.12,77.41,False,171.98,-3.9,'4253',1551249089,0.2727272727272727
'7c6ca6','JST533',144.8215,-37.5813,525.78,73.26,False,171.93,-5.85,'4253',1551249099,0.36363636363636365
'7c6ca6','JST533',144.8226,-37.5875,472.44,70.72,False,171.63,-5.2,'4253',1551249109,0.4545454545454546
'7c6ca6','JST533',144.8238,-37.5936,434.34,68.17,False,171.32,-3.9,'4253',1551249119,0.5454545454545454
'7c6ca6','JST533',144.8248,-37.5991,403.86,68.03,False,172.18,-2.93,'4253',1551249128,0.6363636363636364
'7c6ca6','JST533',144.8266,-37.6085,350.52,69.04,False,172.29,-3.58,'4253',1551249143,0.7272727272727273
'7c6ca6','JST533',144.828,-37.6165,281.94,68.68,False,171.38,-3.58,'4253',1551249156,0.8181818181818182
'7c6ca6','JST533',144.8316,-37.6354,213.36,68.54,False,172.23,-3.25,'4253',1551249187,0.9090909090909092
'7c6ca6','JST533',144.8329,-37.6427,167.64,68.76,False,170.96,-3.58,'4253',1551249199,1.0
'7c6bc2','JST35',144.8157,-37.5497,693.42,97.13,False,172.08,-5.2,'4025',1551249209,0.0
'7c6bc2','JST35',144.8172,-37.5578,647.7,92.03,False,171.64,-5.53,'4025',1551249219,0.07692307692307693
'7c6bc2','JST35',144.8187,-37.5662,594.36,87.96,False,171.25,-5.85,'4025',1551249229,0.15384615384615385
'7c6bc2','JST35',144.8201,-37.5738,548.64,83.23,False,171.47,-4.55,'4025',1551249239,0.23076923076923078
'7c6bc2','JST35',144.8227,-37.5877,472.44,71.73,False,171.75,-3.9,'4025',1551249259,0.3076923076923077
'7c6bc2','JST35',144.8239,-37.5939,441.96,70.79,False,171.22,-3.58,'4025',1551249269,0.38461538461538464
'7c6bc2','JST35',144.8251,-37.6004,403.86,70.21,False,171.57,-3.58,'4025',1551249279,0.46153846153846156
'7c6bc2','JST35',144.8257,-37.6035,388.62,70.29,False,171.16,-2.93,'4025',1551249285,0.5384615384615385
'7c6bc2','JST35',144.8274,-37.6126,335.28,70.21,False,171.57,-3.25,'4025',1551249299,0.6153846153846154
'7c6bc2','JST35',144.8284,-37.618,304.8,70.72,False,171.63,-3.58,'4025',1551249308,0.6923076923076923
'7c6bc2','JST35',144.8295,-37.6242,266.7,70.72,False,171.63,-4.23,'4025',1551249317,0.7692307692307693
'7c6bc2','JST35',144.831,-37.6317,228.6,70.72,False,171.63,-3.58,'4025',1551249329,0.8461538461538463
'7c6bc2','JST35',144.832,-37.6377,190.5,70.13,False,171.99,-3.58,'4025',1551249339,0.9230769230769231
'7c6bc2','JST35',144.833,-37.6428,160.02,70.21,False,171.57,-3.58,'4025',1551249347,1.0
'7c7648','XNE',145.1023,-37.7315,960.12,97.84,False,294.54,-6.83,'3631',1551249308,0.0
'7c7648','XNE',145.0923,-37.729,899.16,95.21,False,283.44,-6.83,'3631',1551249318,0.09090909090909091
'7c7648','XNE',145.0801,-37.7276,830.58,93.48,False,275.05,-6.18,'3631',1551249329,0.18181818181818182
'7c7648','XNE',145.0706,-37.7274,784.86,88.49,False,270.67,-5.53,'3631',1551249339,0.2727272727272727
'7c7648','XNE',145.0509,-37.7276,678.18,85.42,False,268.62,-5.2,'3631',1551249359,0.36363636363636365
'7c7648','XNE',145.0403,-37.7278,632.46,86.45,False,268.64,-4.23,'3631',1551249370,0.4545454545454546
'7c7648','XNE',145.0314,-37.7279,594.36,85.42,False,268.62,-4.55,'3631',1551249379,0.5454545454545454
'7c7648','XNE',145.0218,-37.7281,548.64,84.43,False,267.9,-4.55,'3631',1551249389,0.6363636363636364
'7c7648','XNE',145.0123,-37.7284,518.16,80.83,False,267.81,-3.9,'3631',1551249399,0.7272727272727273
'7c7648','XNE',145.0036,-37.7287,472.44,76.74,False,267.31,-4.55,'3631',1551249409,0.8181818181818182
'7c7648','XNE',144.995,-37.729,426.72,74.62,False,268.42,-4.23,'3631',1551249419,0.9090909090909092
'7c7648','XNE',144.9859,-37.7292,381,73.1,False,267.98,-4.23,'3631',1551249430,1.0
'7c6c60','TGG471',144.8414,-37.6905,198.12,84.59,False,175.82,13.98,'3650',1551249339,0.0
'7c6c60','TGG471',144.8434,-37.7057,472.44,85.85,False,171.38,14.31,'3650',1551249359,0.125
'7c6c60','TGG471',144.8452,-37.7137,601.98,87.07,False,168.76,15.28,'3650',1551249369,0.25
'7c6c60','TGG471',144.8468,-37.7207,739.14,86.69,False,170.09,14.96,'3650',1551249379,0.375
'7c6c60','TGG471',144.8479,-37.7264,876.3,86.87,False,171.49,13.33,'3650',1551249386,0.5
'7c6c60','TGG471',144.8482,-37.7368,990.6,90.05,False,186.23,12.35,'3650',1551249399,0.625
'7c6c60','TGG471',144.8456,-37.7462,1120.14,92,False,200.97,10.08,'3650',1551249410,0.75
'7c6c60','TGG471',144.8409,-37.7523,1188.72,98.38,False,211.53,5.85,'3650',1551249419,0.875
'7c6c60','TGG471',144.8325,-37.76,1242.06,108.6,False,228.46,6.83,'3650',1551249430,1.0
'7c39f5','QLK133D',144.8345,-37.5564,746.76,97.88,False,236.14,-5.53,'4212',1551249359,0.0
'7c39f5','QLK133D',144.8286,-37.5621,685.8,91.95,False,209.86,-6.18,'4212',1551249368,0.14285714285714285
'7c39f5','QLK133D',144.825,-37.5704,609.6,86.22,False,193.46,-4.55,'4212',1551249379,0.2857142857142857
'7c39f5','QLK133D',144.8237,-37.5781,556.26,80.42,False,183.67,-4.88,'4212',1551249389,0.42857142857142855
'7c39f5','QLK133D',144.8236,-37.5846,518.16,74.62,False,178.42,-3.9,'4212',1551249398,0.5714285714285714
'7c39f5','QLK133D',144.8241,-37.5916,472.44,69.17,False,175.31,-4.88,'4212',1551249410,0.7142857142857142
'7c39f5','QLK133D',144.8248,-37.597,441.96,66.36,False,172.87,-3.58,'4212',1551249419,0.8571428571428571
'7c39f5','QLK133D',144.8259,-37.603,403.86,67.16,False,171.19,-3.9,'4212',1551249429,1.0
